[ERROR] 2020-12-14 03:19:10,166 | /home/frappe/frappe-bench/apps/frappe/frappe/app.py:
Site: site1.local
Form Dict: {
 "action": "Save",
 "cmd": "frappe.desk.form.save.savedocs",
 "doc": "{\"docstatus\":0,\"doctype\":\"Purchase Order\",\"name\":\"New Purchase Order 1\",\"__islocal\":1,\"__unsaved\":1,\"owner\":\"works@f9tech.com\",\"naming_series\":\"BGLPO-.YY.-.MM.-.###\",\"location\":\"Local\",\"local_location\":\"Vizag\",\"outstation_location\":\"Haryana\",\"transaction_date\":\"2020-12-14\",\"currency\":\"INR\",\"price_list_currency\":\"INR\",\"ignore_pricing_rule\":0,\"is_subcontracted\":\"No\",\"invoice_number\":\"INV.-.###\",\"apply_discount_on\":\"Grand Total\",\"disable_rounded_total\":0,\"status\":\"Draft\",\"party_account_currency\":\"INR\",\"letter_head\":\"BGL Stores\",\"group_same_items\":0,\"gst\":\"\",\"scan_barcode\":\"\",\"conversion_rate\":1,\"plc_conversion_rate\":1,\"base_net_total\":0,\"net_total\":0,\"base_total\":0,\"total\":0,\"total_qty\":145,\"rounding_adjustment\":0,\"grand_total\":0,\"taxes_and_charges_deducted\":0,\"taxes_and_charges_added\":0,\"base_grand_total\":0,\"base_taxes_and_charges_added\":0,\"base_taxes_and_charges_deducted\":0,\"total_taxes_and_charges\":0,\"base_total_taxes_and_charges\":0,\"base_rounding_adjustment\":0,\"rounded_total\":0,\"base_rounded_total\":0,\"in_words\":\"\",\"base_in_words\":\"\",\"base_discount_amount\":0,\"purchase_order_delivery_time\":\"2020-12-14\",\"date_and_time\":\"2020-12-14 08:48:31\",\"company\":\"BGL Stores\",\"supplier_name\":\"ananya stores\",\"supplier\":\"ananya stores\",\"supplier_address\":\"Ananya Palace-Billing\",\"supplier_gstin\":null,\"address_display\":\"89-56-2582<br>near durga temple<br>vizag<br>\\nAP<br>523623<br>India<br>\\nPhone: 9856256556565<br>Landline: 5569986658<br>Fax: 959898565<br>Email: i@gmail.com<br>\",\"place_of_supply\":null,\"contact_person\":null,\"contact_display\":null,\"contact_email\":null,\"contact_mobile\":null,\"language\":\"en\",\"buying_price_list\":null,\"tax_category\":\"GST\",\"taxes_and_charges\":null,\"payment_terms_template\":null,\"items\":[{\"docstatus\":0,\"doctype\":\"Purchase Order Item\",\"name\":\"New Purchase Order Item 1\",\"__islocal\":1,\"__unsaved\":1,\"owner\":\"works@f9tech.com\",\"is_free_item\":0,\"is_fixed_asset\":0,\"delivered_by_supplier\":0,\"include_exploded_items\":0,\"page_break\":0,\"parent\":\"New Purchase Order 1\",\"parentfield\":\"items\",\"parenttype\":\"Purchase Order\",\"idx\":1,\"__unedited\":false,\"reqd_by_date\":\"2020-11-24\",\"item_name\":\"CookWare\",\"gst_hsn_code\":\"999900\",\"basic_price\":\"500\",\"tax_percent\":\"5%\",\"attribute_1\":\"thin\",\"attribute_2\":\"thick\",\"attribute_3\":\"dunk\",\"attribute_4\":\"done\",\"attribute_5\":\"bye\",\"cost_price\":\"525\",\"tax_amount\":\"240\",\"mrp\":7500,\"bay_no_\":\"8\",\"location\":\"WH02\",\"__item_sub_group_for_metail_utensils\":null,\"item_sub_sub_group_for_kitchen_utensils\":\"INDUCTION & FOOD PROCESSOR\",\"item_sub_sub_group_for_home_appliances\":null,\"item_sub_sub_group_for_commercial_items\":null,\"item_sub_group_crockery\":null,\"item_sub_sub_group_for_fragile\":null,\"item_sub_sub_group_for_un_fragile\":null,\"item_sub_sub_group_for_commercial_spares\":null,\"item_sub_sub_group_for_cleaning_hygiene_and_bath_accessories\":null,\"item_sub_sub_group_for_stock_and_storage\":null,\"item_sub_sub_group_for_bakery_equipments\":null,\"item_sub_sub_group_for_home_organizing_tools\":null,\"item_sub_sub_group_for_home_textiles\":null,\"item_sub_sub_group_for_kitchen_tools\":null,\"item_sub_sub_group_for_stainless_steel\":null,\"item_sub_sub_group_for_hindalium\":null,\"item_sub_sub_group_for_brass_ware\":null,\"item_sub_sub_group_for_brass_and_copper_cum_ss\":null,\"item_sub_sub_group_for_aluminium\":null,\"item_sub_sub_group_for_iron\":null,\"brand\":\"Pigeon\",\"hand_on_qunatity\":\"5\",\"stock_in_hand\":8500,\"aged\":\"12\",\"manufacturing_date\":\"2021\",\"expiry_date\":\"2024\",\"is_nil_exempt\":0,\"is_non_gst\":0,\"item_code\":\"CK.WARE\",\"barcode\":null,\"description\":\"<div>PIGEON NON STICK KADAI 300 MM</div>\",\"image\":\"/files/pigeon.jpg\",\"warehouse\":\"BGL Warehouses - BS\",\"income_account\":\"Sales - BS\",\"expense_account\":null,\"cost_center\":\"Main - BS\",\"has_serial_no\":1,\"has_batch_no\":0,\"batch_no\":null,\"uom\":\"Meter\",\"min_order_qty\":\"\",\"qty\":145,\"stock_qty\":145,\"price_list_rate\":0,\"base_price_list_rate\":0,\"rate\":0,\"base_rate\":0,\"amount\":0,\"base_amount\":0,\"net_rate\":0,\"net_amount\":0,\"discount_percentage\":0,\"supplier\":null,\"update_stock\":0,\"weight_per_unit\":3,\"weight_uom\":\"Meter\",\"last_purchase_rate\":0,\"transaction_date\":\"2020-12-14\",\"conversion_factor\":1,\"item_group\":\"KITCHEN UTENSILS\",\"barcodes\":[{\"name\":\"8906026971589\",\"owner\":\"works@f9tech.com\",\"creation\":\"2020-06-14 11:56:16.455062\",\"modified\":\"2020-11-24 08:17:08.030881\",\"modified_by\":\"works@f9tech.com\",\"parent\":\"CK.WARE\",\"parentfield\":\"barcodes\",\"parenttype\":\"Item\",\"idx\":1,\"docstatus\":0,\"barcode\":\"8906026971589\",\"barcode_type\":\"EAN\",\"doctype\":\"Item Barcode\"}],\"stock_uom\":\"Meter\",\"item_tax_rate\":\"{}\",\"supplier_part_no\":null,\"valuation_rate\":0,\"projected_qty\":8276,\"actual_qty\":0,\"reserved_qty\":0,\"child_docname\":\"New Purchase Order Item 1\",\"discount_percentage_on_rate\":[],\"discount_amount_on_rate\":[],\"discount_amount\":0,\"base_net_rate\":0,\"base_net_amount\":0,\"billed_amt\":0,\"total_weight\":435,\"blanket_order_rate\":0,\"received_qty\":0,\"returned_qty\":0,\"serial_no\":null,\"schedule_date\":\"14-12-2020\"}],\"total_basic_price\":500,\"total_cost_price\":525,\"total_tax_amount\":240,\"total_purchase_amount\":1265,\"rounding_amount\":1,\"total_net_weight\":435}"
}
Request Error
Traceback (most recent call last):
  File "/home/frappe/frappe-bench/apps/frappe/frappe/app.py", line 60, in application
    response = frappe.api.handle()
  File "/home/frappe/frappe-bench/apps/frappe/frappe/api.py", line 55, in handle
    return frappe.handler.handle()
  File "/home/frappe/frappe-bench/apps/frappe/frappe/handler.py", line 22, in handle
    data = execute_cmd(cmd)
  File "/home/frappe/frappe-bench/apps/frappe/frappe/handler.py", line 61, in execute_cmd
    return frappe.call(method, **frappe.form_dict)
  File "/home/frappe/frappe-bench/apps/frappe/frappe/__init__.py", line 1051, in call
    return fn(*args, **newargs)
  File "/home/frappe/frappe-bench/apps/frappe/frappe/desk/form/save.py", line 22, in savedocs
    doc.save()
  File "/home/frappe/frappe-bench/apps/frappe/frappe/model/document.py", line 273, in save
    return self._save(*args, **kwargs)
  File "/home/frappe/frappe-bench/apps/frappe/frappe/model/document.py", line 296, in _save
    self.insert()
  File "/home/frappe/frappe-bench/apps/frappe/frappe/model/document.py", line 245, in insert
    self.db_insert()
  File "/home/frappe/frappe-bench/apps/frappe/frappe/model/base_document.py", line 324, in db_insert
    ), list(d.values()))
  File "/home/frappe/frappe-bench/apps/frappe/frappe/database/database.py", line 156, in sql
    self._cursor.execute(query, values)
  File "/home/frappe/frappe-bench/env/lib/python3.6/site-packages/pymysql/cursors.py", line 170, in execute
    result = self._query(query)
  File "/home/frappe/frappe-bench/env/lib/python3.6/site-packages/pymysql/cursors.py", line 328, in _query
    conn.query(q)
  File "/home/frappe/frappe-bench/env/lib/python3.6/site-packages/pymysql/connections.py", line 517, in query
    self._affected_rows = self._read_query_result(unbuffered=unbuffered)
  File "/home/frappe/frappe-bench/env/lib/python3.6/site-packages/pymysql/connections.py", line 732, in _read_query_result
    result.read()
  File "/home/frappe/frappe-bench/env/lib/python3.6/site-packages/pymysql/connections.py", line 1075, in read
    first_packet = self.connection._read_packet()
  File "/home/frappe/frappe-bench/env/lib/python3.6/site-packages/pymysql/connections.py", line 684, in _read_packet
    packet.check_error()
  File "/home/frappe/frappe-bench/env/lib/python3.6/site-packages/pymysql/protocol.py", line 220, in check_error
    err.raise_mysql_exception(self._data)
  File "/home/frappe/frappe-bench/env/lib/python3.6/site-packages/pymysql/err.py", line 109, in raise_mysql_exception
    raise errorclass(errno, errval)
pymysql.err.InternalError: (1292, "Incorrect date value: '14-12-2020' for column `_1bd3e0294da19198`.`tabPurchase Order`.`schedule_date` at row 1")
[ERROR] 2020-12-14 04:38:50,218 | /home/frappe/frappe-bench/apps/frappe/frappe/app.py:
Site: site1.local
Form Dict: {
 "cmd": "frappe.www.printview.get_html_and_style",
 "doc": "{\"name\":\"OS-BGL-PO-20-12-03\",\"owner\":\"works@f9tech.com\",\"creation\":\"2020-12-14 10:06:15.725293\",\"modified\":\"2020-12-14 10:08:46.624333\",\"modified_by\":\"works@f9tech.com\",\"idx\":0,\"docstatus\":1,\"naming_series\":\"OS.-.BGL.-.PO.-.YY.-.MM.-.##\",\"purchase_order_delivery_time\":\"2020-12-14\",\"supplier_city\":\"Mumbai\",\"time_and_date\":\"2020-12-14 10:04:57\",\"outstation_supplier_location\":\"Ananya Apartments-Shipping\",\"supplier_name\":\"Ananya Apartments\",\"address_display\":\"1798<br>hi<br>hello<br>\\nhow <br>52502<br>India<br>\\nPhone: 98968964688<br>Landline: 697498798796<br>Fax: 46468869<br>Email: you@gmail.com<br>\",\"lr_number\":\"LR001\",\"invoice\":\"INVOICE001\",\"oc_inclusive_tax\":1,\"oc_exclusive_tax\":1,\"free_quantity\":0,\"total_basic_price\":500,\"total_tax_amount\":240,\"total_cost_price\":525,\"inc_tax\":47.25,\"ex_tax\":500,\"rounding_amount\":0.25,\"total_purchase_amount\":1812.25,\"base_discount_amount\":0,\"additional_discount_percentage\":0,\"discount_amount\":0,\"doctype\":\"Outstation Purchase Order\",\"items\":[{\"name\":\"2ce4d6df8e\",\"owner\":\"works@f9tech.com\",\"creation\":\"2020-12-14 10:06:15.725293\",\"modified\":\"2020-12-14 10:08:46.624333\",\"modified_by\":\"works@f9tech.com\",\"parent\":\"OS-BGL-PO-20-12-03\",\"parentfield\":\"items\",\"parenttype\":\"Outstation Purchase Order\",\"idx\":1,\"docstatus\":1,\"item_code\":\"CK.WARE\",\"qty\":1,\"reqd_by_date\":\"2020-11-24\",\"schedule_date\":\"2020-12-14\",\"item_name\":\"CookWare\",\"gst_hsn_code\":\"999900\",\"basic_price\":\"500\",\"tax_percent\":\"5%\",\"attribute_1\":\"thin\",\"attribute_2\":\"thick\",\"attribute_3\":\"dunk\",\"attribute_4\":\"done\",\"attribute_5\":\"bye\",\"cost_price\":\"525\",\"tax_amount\":\"240\",\"mrp\":7500,\"bay_no_\":\"8\",\"location\":\"WH02\",\"item_sub_sub_group_for_kitchen_utensils\":\"INDUCTION & FOOD PROCESSOR\",\"brand\":\"Pigeon\",\"hand_on_qunatity\":\"5\",\"conversion_factor\":0,\"price_list_rate\":0,\"discount_percentage\":0,\"discount_amount\":0,\"last_purchase_rate\":0,\"base_price_list_rate\":0,\"rate\":0,\"amount\":0,\"base_rate\":0,\"base_amount\":0,\"is_free_item\":0,\"is_fixed_asset\":0,\"net_rate\":0,\"net_amount\":0,\"base_net_rate\":0,\"base_net_amount\":0,\"billed_amt\":0,\"weight_per_unit\":0,\"total_weight\":0,\"delivered_by_supplier\":0,\"blanket_order_rate\":0,\"include_exploded_items\":0,\"stock_qty\":0,\"received_qty\":0,\"returned_qty\":0,\"page_break\":0,\"stock_in_hand\":8500,\"aged\":\"12\",\"manufacturing_date\":\"2021\",\"expiry_date\":\"2024\",\"is_nil_exempt\":0,\"is_non_gst\":0,\"doctype\":\"Purchase Order Item\"}],\"oc_inclusive_table\":[{\"name\":\"dd380ccc6b\",\"owner\":\"works@f9tech.com\",\"creation\":\"2020-12-14 10:06:15.725293\",\"modified\":\"2020-12-14 10:08:46.624333\",\"modified_by\":\"works@f9tech.com\",\"parent\":\"OS-BGL-PO-20-12-03\",\"parentfield\":\"oc_inclusive_table\",\"parenttype\":\"Outstation Purchase Order\",\"idx\":1,\"docstatus\":1,\"description\":\"Head\",\"oc_tax_percentage\":\"5\",\"oc_inc_amount\":\"45\",\"oc_inc_total_amount\":47.25,\"doctype\":\"OC Inclusive Tax\"}],\"oc_exclusive_table\":[{\"name\":\"356b6cba0b\",\"owner\":\"works@f9tech.com\",\"creation\":\"2020-12-14 10:06:15.725293\",\"modified\":\"2020-12-14 10:08:46.624333\",\"modified_by\":\"works@f9tech.com\",\"parent\":\"OS-BGL-PO-20-12-03\",\"parentfield\":\"oc_exclusive_table\",\"parenttype\":\"Outstation Purchase Order\",\"idx\":1,\"docstatus\":1,\"description\":\"Body\",\"ex_amount\":\"500\",\"doctype\":\"OC Exclusive Tax\"}],\"free_qty_items\":[],\"payment_schedule\":[]}",
 "no_letterhead": "0",
 "print_format": "Standard"
}
Request Error
Traceback (most recent call last):
  File "/home/frappe/frappe-bench/apps/frappe/frappe/app.py", line 60, in application
    response = frappe.api.handle()
  File "/home/frappe/frappe-bench/apps/frappe/frappe/api.py", line 55, in handle
    return frappe.handler.handle()
  File "/home/frappe/frappe-bench/apps/frappe/frappe/handler.py", line 22, in handle
    data = execute_cmd(cmd)
  File "/home/frappe/frappe-bench/apps/frappe/frappe/handler.py", line 61, in execute_cmd
    return frappe.call(method, **frappe.form_dict)
  File "/home/frappe/frappe-bench/apps/frappe/frappe/__init__.py", line 1051, in call
    return fn(*args, **newargs)
  File "/home/frappe/frappe-bench/apps/frappe/frappe/www/printview.py", line 189, in get_html_and_style
    no_letterhead=no_letterhead, trigger_print=trigger_print)
  File "/home/frappe/frappe-bench/apps/frappe/frappe/www/printview.py", line 159, in get_rendered_template
    html = template.render(args, filters={"len": len})
  File "/home/frappe/frappe-bench/env/lib/python3.6/site-packages/jinja2/asyncsupport.py", line 76, in render
    return original_render(self, *args, **kwargs)
  File "/home/frappe/frappe-bench/env/lib/python3.6/site-packages/jinja2/environment.py", line 1008, in render
    return self.environment.handle_exception(exc_info, True)
  File "/home/frappe/frappe-bench/env/lib/python3.6/site-packages/jinja2/environment.py", line 780, in handle_exception
    reraise(exc_type, exc_value, tb)
  File "/home/frappe/frappe-bench/env/lib/python3.6/site-packages/jinja2/_compat.py", line 37, in reraise
    raise value.with_traceback(tb)
  File "/home/frappe/frappe-bench/apps/frappe/frappe/./templates/print_formats/standard.html", line 32, in top-level template code
    {{ render_field(df, doc) }}
  File "/home/frappe/frappe-bench/env/lib/python3.6/site-packages/jinja2/sandbox.py", line 440, in call
    return __context.call(__obj, *args, **kwargs)
  File "/home/frappe/frappe-bench/env/lib/python3.6/site-packages/jinja2/runtime.py", line 574, in _invoke
    rv = self._func(*arguments)
  File "/home/frappe/frappe-bench/apps/frappe/frappe/./templates/print_formats/standard_macros.html", line 3, in template
    {{ render_table(df, doc) }}
  File "/home/frappe/frappe-bench/env/lib/python3.6/site-packages/jinja2/sandbox.py", line 440, in call
    return __context.call(__obj, *args, **kwargs)
  File "/home/frappe/frappe-bench/env/lib/python3.6/site-packages/jinja2/runtime.py", line 574, in _invoke
    rv = self._func(*arguments)
  File "/home/frappe/frappe-bench/apps/frappe/frappe/./templates/print_formats/standard_macros.html", line 57, in template
    <div class="value">{{ print_value(tdf, d, doc, visible_columns) }}</div></td>
  File "/home/frappe/frappe-bench/env/lib/python3.6/site-packages/jinja2/sandbox.py", line 440, in call
    return __context.call(__obj, *args, **kwargs)
  File "/home/frappe/frappe-bench/env/lib/python3.6/site-packages/jinja2/runtime.py", line 574, in _invoke
    rv = self._func(*arguments)
  File "/home/frappe/frappe-bench/apps/frappe/frappe/./templates/print_formats/standard_macros.html", line 142, in template
    {{ doc.get_formatted(df.fieldname, doc, translated=df.translatable) }}
  File "/home/frappe/frappe-bench/env/lib/python3.6/site-packages/jinja2/sandbox.py", line 440, in call
    return __context.call(__obj, *args, **kwargs)
  File "/home/frappe/frappe-bench/apps/frappe/frappe/model/base_document.py", line 738, in get_formatted
    return format_value(val, df=df, doc=doc, currency=currency)
  File "/home/frappe/frappe-bench/apps/frappe/frappe/utils/formatters.py", line 60, in format_value
    currency = currency or get_field_currency(df, doc) or default_currency
  File "/home/frappe/frappe-bench/apps/frappe/frappe/model/meta.py", line 492, in get_field_currency
    currency = frappe.db.get_value(doc.parenttype, doc.parent, df.get("options"))
  File "/home/frappe/frappe-bench/apps/frappe/frappe/database/database.py", line 401, in get_value
    order_by, cache=cache)
  File "/home/frappe/frappe-bench/apps/frappe/frappe/database/database.py", line 445, in get_values
    out = self._get_values_from_table(fields, filters, doctype, as_dict, debug, order_by, update)
  File "/home/frappe/frappe-bench/apps/frappe/frappe/database/database.py", line 592, in _get_values_from_table
    as_dict=as_dict, debug=debug, update=update)
  File "/home/frappe/frappe-bench/apps/frappe/frappe/database/database.py", line 156, in sql
    self._cursor.execute(query, values)
  File "/home/frappe/frappe-bench/env/lib/python3.6/site-packages/pymysql/cursors.py", line 170, in execute
    result = self._query(query)
  File "/home/frappe/frappe-bench/env/lib/python3.6/site-packages/pymysql/cursors.py", line 328, in _query
    conn.query(q)
  File "/home/frappe/frappe-bench/env/lib/python3.6/site-packages/pymysql/connections.py", line 517, in query
    self._affected_rows = self._read_query_result(unbuffered=unbuffered)
  File "/home/frappe/frappe-bench/env/lib/python3.6/site-packages/pymysql/connections.py", line 732, in _read_query_result
    result.read()
  File "/home/frappe/frappe-bench/env/lib/python3.6/site-packages/pymysql/connections.py", line 1075, in read
    first_packet = self.connection._read_packet()
  File "/home/frappe/frappe-bench/env/lib/python3.6/site-packages/pymysql/connections.py", line 684, in _read_packet
    packet.check_error()
  File "/home/frappe/frappe-bench/env/lib/python3.6/site-packages/pymysql/protocol.py", line 220, in check_error
    err.raise_mysql_exception(self._data)
  File "/home/frappe/frappe-bench/env/lib/python3.6/site-packages/pymysql/err.py", line 109, in raise_mysql_exception
    raise errorclass(errno, errval)
pymysql.err.InternalError: (1054, "Unknown column 'currency' in 'field list'")
[ERROR] 2020-12-14 06:18:58,594 | /home/frappe/frappe-bench/apps/frappe/frappe/app.py:
Site: site1.local
Form Dict: {
 "action": "Save",
 "cmd": "frappe.desk.form.save.savedocs",
 "doc": "{\"name\":\"Material Check Point\",\"creation\":\"2020-07-16 15:54:13.295068\",\"modified\":\"2020-12-14 11:41:18.651445\",\"modified_by\":\"works@f9tech.com\",\"owner\":\"works@f9tech.com\",\"docstatus\":0,\"idx\":0,\"issingle\":0,\"is_tree\":0,\"istable\":0,\"editable_grid\":1,\"track_changes\":1,\"module\":\"Stock\",\"autoname\":\"naming_series:\",\"name_case\":\"\",\"sort_field\":\"modified\",\"sort_order\":\"DESC\",\"read_only\":0,\"in_create\":0,\"allow_copy\":0,\"allow_rename\":1,\"allow_import\":1,\"hide_toolbar\":0,\"track_seen\":0,\"max_attachments\":0,\"document_type\":\"Document\",\"engine\":\"InnoDB\",\"is_submittable\":0,\"show_name_in_global_search\":0,\"custom\":1,\"beta\":0,\"has_web_view\":0,\"allow_guest_to_view\":0,\"track_views\":0,\"allow_auto_repeat\":0,\"allow_events_in_timeline\":0,\"quick_entry\":1,\"show_preview_popup\":0,\"doctype\":\"DocType\",\"fields\":[{\"name\":\"8a37827e5c\",\"creation\":\"2020-07-16 15:54:13.295068\",\"modified\":\"2020-12-14 11:41:18.651445\",\"modified_by\":\"works@f9tech.com\",\"owner\":\"works@f9tech.com\",\"docstatus\":0,\"parent\":\"Material Check Point\",\"parentfield\":\"fields\",\"parenttype\":\"DocType\",\"idx\":1,\"fieldname\":\"mcp_naming_series\",\"label\":\"Material checking point\",\"fieldtype\":\"Select\",\"options\":\"BGLMCP.-.YY.-.MM.-.##\",\"search_index\":0,\"hidden\":0,\"set_only_once\":0,\"allow_in_quick_entry\":0,\"print_hide\":0,\"report_hide\":0,\"reqd\":0,\"bold\":0,\"in_global_search\":0,\"collapsible\":0,\"unique\":0,\"no_copy\":0,\"allow_on_submit\":0,\"show_preview_popup\":0,\"permlevel\":0,\"ignore_user_permissions\":0,\"columns\":0,\"in_list_view\":0,\"fetch_if_empty\":0,\"in_filter\":0,\"remember_last_selected_value\":0,\"ignore_xss_filter\":0,\"print_hide_if_no_value\":0,\"allow_bulk_edit\":0,\"in_standard_filter\":0,\"in_preview\":0,\"read_only\":0,\"precision\":\"\",\"length\":0,\"translatable\":0,\"doctype\":\"DocField\"},{\"name\":\"4152c7a294\",\"creation\":\"2020-07-16 15:54:13.295068\",\"modified\":\"2020-12-14 11:41:18.651445\",\"modified_by\":\"works@f9tech.com\",\"owner\":\"works@f9tech.com\",\"docstatus\":0,\"parent\":\"Material Check Point\",\"parentfield\":\"fields\",\"parenttype\":\"DocType\",\"idx\":2,\"fieldname\":\"transportation_type\",\"label\":\"Transportation Type\",\"fieldtype\":\"Select\",\"options\":\"Local\\nOutstation\",\"search_index\":0,\"hidden\":0,\"set_only_once\":0,\"allow_in_quick_entry\":0,\"print_hide\":0,\"report_hide\":0,\"reqd\":0,\"bold\":0,\"in_global_search\":0,\"collapsible\":0,\"unique\":0,\"no_copy\":0,\"allow_on_submit\":0,\"show_preview_popup\":0,\"permlevel\":0,\"ignore_user_permissions\":0,\"columns\":0,\"in_list_view\":0,\"fetch_if_empty\":0,\"in_filter\":0,\"remember_last_selected_value\":0,\"ignore_xss_filter\":0,\"print_hide_if_no_value\":0,\"allow_bulk_edit\":0,\"in_standard_filter\":0,\"in_preview\":0,\"read_only\":0,\"precision\":\"\",\"length\":0,\"translatable\":0,\"doctype\":\"DocField\"},{\"name\":\"e717ae5606\",\"creation\":\"2020-07-16 15:54:13.295068\",\"modified\":\"2020-12-14 11:41:18.651445\",\"modified_by\":\"works@f9tech.com\",\"owner\":\"works@f9tech.com\",\"docstatus\":0,\"parent\":\"Material Check Point\",\"parentfield\":\"fields\",\"parenttype\":\"DocType\",\"idx\":3,\"fieldname\":\"column_break_3\",\"fieldtype\":\"Column Break\",\"search_index\":0,\"hidden\":0,\"set_only_once\":0,\"allow_in_quick_entry\":0,\"print_hide\":0,\"report_hide\":0,\"reqd\":0,\"bold\":0,\"in_global_search\":0,\"collapsible\":0,\"unique\":0,\"no_copy\":0,\"allow_on_submit\":0,\"show_preview_popup\":0,\"permlevel\":0,\"ignore_user_permissions\":0,\"columns\":0,\"in_list_view\":0,\"fetch_if_empty\":0,\"in_filter\":0,\"remember_last_selected_value\":0,\"ignore_xss_filter\":0,\"print_hide_if_no_value\":0,\"allow_bulk_edit\":0,\"in_standard_filter\":0,\"in_preview\":0,\"read_only\":0,\"precision\":\"\",\"length\":0,\"translatable\":0,\"doctype\":\"DocField\"},{\"name\":\"73a0d2397e\",\"creation\":\"2020-07-16 15:54:13.295068\",\"modified\":\"2020-12-14 11:41:18.651445\",\"modified_by\":\"works@f9tech.com\",\"owner\":\"works@f9tech.com\",\"docstatus\":0,\"parent\":\"Material Check Point\",\"parentfield\":\"fields\",\"parenttype\":\"DocType\",\"idx\":4,\"fieldname\":\"local_supplier\",\"label\":\"Local Supplier\",\"fieldtype\":\"Link\",\"options\":\"Local Supplier\",\"search_index\":0,\"hidden\":1,\"set_only_once\":0,\"allow_in_quick_entry\":0,\"print_hide\":0,\"report_hide\":0,\"reqd\":0,\"bold\":0,\"in_global_search\":0,\"collapsible\":0,\"unique\":0,\"no_copy\":0,\"allow_on_submit\":0,\"show_preview_popup\":0,\"depends_on\":\"eval:doc.transportation_type=='Local'\",\"permlevel\":0,\"ignore_user_permissions\":0,\"columns\":0,\"in_list_view\":0,\"fetch_if_empty\":0,\"in_filter\":0,\"remember_last_selected_value\":0,\"ignore_xss_filter\":0,\"print_hide_if_no_value\":0,\"allow_bulk_edit\":0,\"in_standard_filter\":0,\"in_preview\":0,\"read_only\":0,\"precision\":\"\",\"length\":0,\"translatable\":0,\"doctype\":\"DocField\"},{\"name\":\"bcf3084f53\",\"creation\":\"2020-07-16 15:54:13.295068\",\"modified\":\"2020-12-14 11:41:18.651445\",\"modified_by\":\"works@f9tech.com\",\"owner\":\"works@f9tech.com\",\"docstatus\":0,\"parent\":\"Material Check Point\",\"parentfield\":\"fields\",\"parenttype\":\"DocType\",\"idx\":5,\"fieldname\":\"supplier_address\",\"label\":\"Select Supplier Address\",\"fieldtype\":\"Link\",\"options\":\"Address\",\"search_index\":0,\"hidden\":0,\"set_only_once\":0,\"allow_in_quick_entry\":0,\"print_hide\":0,\"report_hide\":0,\"reqd\":0,\"bold\":0,\"in_global_search\":0,\"collapsible\":0,\"unique\":0,\"no_copy\":0,\"allow_on_submit\":0,\"show_preview_popup\":0,\"depends_on\":\"eval:doc.transportation_type == 'Local'\",\"permlevel\":0,\"ignore_user_permissions\":0,\"columns\":0,\"in_list_view\":0,\"fetch_if_empty\":0,\"in_filter\":0,\"remember_last_selected_value\":0,\"ignore_xss_filter\":0,\"print_hide_if_no_value\":0,\"allow_bulk_edit\":0,\"in_standard_filter\":0,\"in_preview\":0,\"read_only\":0,\"precision\":\"\",\"length\":0,\"translatable\":0,\"doctype\":\"DocField\"},{\"name\":\"47c4736b90\",\"creation\":\"2020-07-16 15:54:13.295068\",\"modified\":\"2020-12-14 11:41:18.651445\",\"modified_by\":\"works@f9tech.com\",\"owner\":\"works@f9tech.com\",\"docstatus\":0,\"parent\":\"Material Check Point\",\"parentfield\":\"fields\",\"parenttype\":\"DocType\",\"idx\":6,\"fieldname\":\"local_name\",\"label\":\"Local Name\",\"fieldtype\":\"Data\",\"search_index\":0,\"hidden\":0,\"set_only_once\":0,\"allow_in_quick_entry\":0,\"print_hide\":0,\"report_hide\":0,\"reqd\":0,\"bold\":0,\"in_global_search\":0,\"collapsible\":0,\"unique\":0,\"no_copy\":0,\"allow_on_submit\":0,\"show_preview_popup\":0,\"depends_on\":\"eval:doc.transportation_type=='Local'\",\"permlevel\":0,\"ignore_user_permissions\":0,\"columns\":0,\"in_list_view\":0,\"fetch_if_empty\":0,\"in_filter\":0,\"remember_last_selected_value\":0,\"ignore_xss_filter\":0,\"print_hide_if_no_value\":0,\"allow_bulk_edit\":0,\"in_standard_filter\":0,\"in_preview\":0,\"read_only\":0,\"precision\":\"\",\"length\":0,\"translatable\":0,\"fetch_from\":\"supplier_address.address_title\",\"doctype\":\"DocField\"},{\"name\":\"ab7152c248\",\"creation\":\"2020-07-16 15:54:13.295068\",\"modified\":\"2020-12-14 11:41:18.651445\",\"modified_by\":\"works@f9tech.com\",\"owner\":\"works@f9tech.com\",\"docstatus\":0,\"parent\":\"Material Check Point\",\"parentfield\":\"fields\",\"parenttype\":\"DocType\",\"idx\":7,\"fieldname\":\"address_display\",\"label\":\"Local Supplier Address\",\"fieldtype\":\"Small Text\",\"search_index\":0,\"hidden\":0,\"set_only_once\":0,\"allow_in_quick_entry\":0,\"print_hide\":0,\"report_hide\":0,\"reqd\":0,\"bold\":0,\"in_global_search\":0,\"collapsible\":0,\"unique\":0,\"no_copy\":0,\"allow_on_submit\":0,\"show_preview_popup\":0,\"depends_on\":\"eval:doc.transportation_type=='Local'\",\"permlevel\":0,\"ignore_user_permissions\":0,\"columns\":0,\"in_list_view\":0,\"fetch_if_empty\":0,\"in_filter\":0,\"remember_last_selected_value\":0,\"ignore_xss_filter\":0,\"print_hide_if_no_value\":0,\"allow_bulk_edit\":0,\"in_standard_filter\":0,\"in_preview\":0,\"read_only\":1,\"precision\":\"\",\"length\":0,\"translatable\":0,\"doctype\":\"DocField\"},{\"name\":\"74252297c9\",\"creation\":\"2020-07-16 15:54:13.295068\",\"modified\":\"2020-12-14 11:41:18.651445\",\"modified_by\":\"works@f9tech.com\",\"owner\":\"works@f9tech.com\",\"docstatus\":0,\"parent\":\"Material Check Point\",\"parentfield\":\"fields\",\"parenttype\":\"DocType\",\"idx\":8,\"fieldname\":\"outstation_supplier\",\"label\":\"Out Station Supplier\",\"fieldtype\":\"Link\",\"options\":\"Supplier\",\"search_index\":0,\"hidden\":1,\"set_only_once\":0,\"allow_in_quick_entry\":0,\"print_hide\":0,\"report_hide\":0,\"reqd\":0,\"bold\":0,\"in_global_search\":0,\"collapsible\":0,\"unique\":0,\"no_copy\":0,\"allow_on_submit\":0,\"show_preview_popup\":0,\"depends_on\":\"eval:doc.transportation_type=='Outstation'\",\"permlevel\":0,\"ignore_user_permissions\":0,\"columns\":0,\"in_list_view\":0,\"fetch_if_empty\":0,\"in_filter\":0,\"remember_last_selected_value\":0,\"ignore_xss_filter\":0,\"print_hide_if_no_value\":0,\"allow_bulk_edit\":0,\"in_standard_filter\":0,\"in_preview\":0,\"read_only\":0,\"precision\":\"\",\"length\":0,\"translatable\":0,\"doctype\":\"DocField\"},{\"name\":\"64d7b44946\",\"creation\":\"2020-07-16 15:54:13.295068\",\"modified\":\"2020-12-14 11:41:18.651445\",\"modified_by\":\"works@f9tech.com\",\"owner\":\"works@f9tech.com\",\"docstatus\":0,\"parent\":\"Material Check Point\",\"parentfield\":\"fields\",\"parenttype\":\"DocType\",\"idx\":9,\"fieldname\":\"purchase_order_section\",\"label\":\"Purchase Order Section\",\"fieldtype\":\"Section Break\",\"search_index\":0,\"hidden\":0,\"set_only_once\":0,\"allow_in_quick_entry\":0,\"print_hide\":0,\"report_hide\":0,\"reqd\":0,\"bold\":0,\"in_global_search\":0,\"collapsible\":0,\"unique\":0,\"no_copy\":0,\"allow_on_submit\":0,\"show_preview_popup\":0,\"collapsible_depends_on\":\"\",\"depends_on\":\"eval:doc.transportation_type == 'Local'\",\"permlevel\":0,\"ignore_user_permissions\":0,\"columns\":0,\"in_list_view\":0,\"fetch_if_empty\":0,\"in_filter\":0,\"remember_last_selected_value\":0,\"ignore_xss_filter\":0,\"print_hide_if_no_value\":0,\"allow_bulk_edit\":0,\"in_standard_filter\":0,\"in_preview\":0,\"read_only\":0,\"precision\":\"\",\"length\":0,\"translatable\":0,\"doctype\":\"DocField\"},{\"name\":\"b24b526649\",\"creation\":\"2020-07-16 15:54:13.295068\",\"modified\":\"2020-12-14 11:41:18.651445\",\"modified_by\":\"works@f9tech.com\",\"owner\":\"works@f9tech.com\",\"docstatus\":0,\"parent\":\"Material Check Point\",\"parentfield\":\"fields\",\"parenttype\":\"DocType\",\"idx\":10,\"fieldname\":\"invoice_column\",\"fieldtype\":\"Column Break\",\"search_index\":0,\"hidden\":0,\"set_only_once\":0,\"allow_in_quick_entry\":0,\"print_hide\":0,\"report_hide\":0,\"reqd\":0,\"bold\":0,\"in_global_search\":0,\"collapsible\":0,\"unique\":0,\"no_copy\":0,\"allow_on_submit\":0,\"show_preview_popup\":0,\"depends_on\":\"\",\"permlevel\":0,\"ignore_user_permissions\":0,\"columns\":0,\"in_list_view\":0,\"fetch_if_empty\":0,\"in_filter\":0,\"remember_last_selected_value\":0,\"ignore_xss_filter\":0,\"print_hide_if_no_value\":0,\"allow_bulk_edit\":0,\"in_standard_filter\":0,\"in_preview\":0,\"read_only\":0,\"precision\":\"\",\"length\":0,\"translatable\":0,\"doctype\":\"DocField\"},{\"name\":\"cd09b500da\",\"creation\":\"2020-07-16 15:54:13.295068\",\"modified\":\"2020-12-14 11:41:18.651445\",\"modified_by\":\"works@f9tech.com\",\"owner\":\"works@f9tech.com\",\"docstatus\":0,\"parent\":\"Material Check Point\",\"parentfield\":\"fields\",\"parenttype\":\"DocType\",\"idx\":11,\"fieldname\":\"invoice_number\",\"label\":\"Invoice Number\",\"fieldtype\":\"Data\",\"options\":\"\",\"search_index\":0,\"hidden\":0,\"set_only_once\":0,\"allow_in_quick_entry\":0,\"print_hide\":0,\"report_hide\":0,\"reqd\":0,\"bold\":0,\"in_global_search\":0,\"collapsible\":0,\"unique\":0,\"no_copy\":0,\"allow_on_submit\":0,\"show_preview_popup\":0,\"depends_on\":\"eval:doc.transportation_type == 'Local'\",\"permlevel\":0,\"ignore_user_permissions\":0,\"columns\":0,\"in_list_view\":0,\"fetch_if_empty\":0,\"in_filter\":0,\"remember_last_selected_value\":0,\"ignore_xss_filter\":0,\"print_hide_if_no_value\":0,\"allow_bulk_edit\":0,\"in_standard_filter\":0,\"in_preview\":0,\"read_only\":0,\"precision\":\"\",\"length\":0,\"translatable\":0,\"doctype\":\"DocField\",\"fetch_from\":\"outstation_purchase_order_series.invoice_number\"},{\"name\":\"cb4d493978\",\"creation\":\"2020-07-16 15:54:13.295068\",\"modified\":\"2020-12-14 11:41:18.651445\",\"modified_by\":\"works@f9tech.com\",\"owner\":\"works@f9tech.com\",\"docstatus\":0,\"parent\":\"Material Check Point\",\"parentfield\":\"fields\",\"parenttype\":\"DocType\",\"idx\":12,\"fieldname\":\"section_break_7\",\"fieldtype\":\"Section Break\",\"search_index\":0,\"hidden\":0,\"set_only_once\":0,\"allow_in_quick_entry\":0,\"print_hide\":0,\"report_hide\":0,\"reqd\":0,\"bold\":0,\"in_global_search\":0,\"collapsible\":0,\"unique\":0,\"no_copy\":0,\"allow_on_submit\":0,\"show_preview_popup\":0,\"depends_on\":\"\",\"permlevel\":0,\"ignore_user_permissions\":0,\"columns\":0,\"in_list_view\":0,\"fetch_if_empty\":0,\"in_filter\":0,\"remember_last_selected_value\":0,\"ignore_xss_filter\":0,\"print_hide_if_no_value\":0,\"allow_bulk_edit\":0,\"in_standard_filter\":0,\"in_preview\":0,\"read_only\":0,\"precision\":\"\",\"length\":0,\"translatable\":0,\"doctype\":\"DocField\"},{\"name\":\"43c69ba17b\",\"creation\":\"2020-07-16 15:54:13.295068\",\"modified\":\"2020-12-14 11:41:18.651445\",\"modified_by\":\"works@f9tech.com\",\"owner\":\"works@f9tech.com\",\"docstatus\":0,\"parent\":\"Material Check Point\",\"parentfield\":\"fields\",\"parenttype\":\"DocType\",\"idx\":13,\"fieldname\":\"naming_series\",\"label\":\"Purchase order Numer\",\"fieldtype\":\"Link\",\"options\":\"Purchase Order\",\"search_index\":0,\"hidden\":1,\"set_only_once\":0,\"allow_in_quick_entry\":0,\"print_hide\":0,\"report_hide\":0,\"reqd\":0,\"bold\":0,\"in_global_search\":0,\"collapsible\":0,\"unique\":0,\"no_copy\":0,\"allow_on_submit\":0,\"show_preview_popup\":0,\"depends_on\":\"eval:doc.transportation_type == 'Local'\",\"permlevel\":0,\"ignore_user_permissions\":0,\"columns\":0,\"in_list_view\":0,\"fetch_if_empty\":0,\"in_filter\":0,\"remember_last_selected_value\":0,\"ignore_xss_filter\":0,\"print_hide_if_no_value\":0,\"allow_bulk_edit\":0,\"in_standard_filter\":0,\"in_preview\":0,\"read_only\":0,\"precision\":\"\",\"length\":0,\"translatable\":0,\"doctype\":\"DocField\"},{\"name\":\"4d13f96b20\",\"creation\":\"2020-07-16 15:54:13.295068\",\"modified\":\"2020-12-14 11:41:18.651445\",\"modified_by\":\"works@f9tech.com\",\"owner\":\"works@f9tech.com\",\"docstatus\":0,\"parent\":\"Material Check Point\",\"parentfield\":\"fields\",\"parenttype\":\"DocType\",\"idx\":14,\"fieldname\":\"purchase_order_item\",\"label\":\"Purchase Order Series\",\"fieldtype\":\"Link\",\"options\":\"Purchase Order\",\"search_index\":0,\"hidden\":0,\"set_only_once\":0,\"allow_in_quick_entry\":0,\"print_hide\":0,\"report_hide\":0,\"reqd\":0,\"bold\":0,\"in_global_search\":0,\"collapsible\":0,\"unique\":0,\"no_copy\":0,\"allow_on_submit\":0,\"show_preview_popup\":0,\"depends_on\":\"eval:doc.transportation_type == 'Local'\",\"permlevel\":0,\"ignore_user_permissions\":0,\"columns\":0,\"in_list_view\":0,\"fetch_if_empty\":0,\"in_filter\":0,\"remember_last_selected_value\":0,\"ignore_xss_filter\":0,\"print_hide_if_no_value\":0,\"allow_bulk_edit\":0,\"in_standard_filter\":0,\"in_preview\":0,\"read_only\":0,\"precision\":\"\",\"length\":0,\"translatable\":0,\"doctype\":\"DocField\"},{\"name\":\"a452e37158\",\"creation\":\"2020-07-16 15:54:13.295068\",\"modified\":\"2020-12-14 11:41:18.651445\",\"modified_by\":\"works@f9tech.com\",\"owner\":\"works@f9tech.com\",\"docstatus\":0,\"parent\":\"Material Check Point\",\"parentfield\":\"fields\",\"parenttype\":\"DocType\",\"idx\":15,\"fieldname\":\"mcp_items\",\"label\":\"Item\",\"fieldtype\":\"Table\",\"options\":\"MCP Items\",\"search_index\":0,\"hidden\":0,\"set_only_once\":0,\"allow_in_quick_entry\":0,\"print_hide\":0,\"report_hide\":0,\"reqd\":0,\"bold\":0,\"in_global_search\":0,\"collapsible\":0,\"unique\":0,\"no_copy\":0,\"allow_on_submit\":0,\"show_preview_popup\":0,\"collapsible_depends_on\":\"\",\"depends_on\":\"eval:doc.transportation_type == 'Local'\",\"permlevel\":0,\"ignore_user_permissions\":0,\"columns\":0,\"in_list_view\":0,\"fetch_if_empty\":0,\"in_filter\":0,\"remember_last_selected_value\":0,\"ignore_xss_filter\":0,\"print_hide_if_no_value\":0,\"allow_bulk_edit\":0,\"in_standard_filter\":0,\"in_preview\":0,\"read_only\":0,\"precision\":\"\",\"length\":0,\"translatable\":0,\"doctype\":\"DocField\"},{\"name\":\"d122211061\",\"creation\":\"2020-07-16 15:54:13.295068\",\"modified\":\"2020-12-14 11:41:18.651445\",\"modified_by\":\"works@f9tech.com\",\"owner\":\"works@f9tech.com\",\"docstatus\":0,\"parent\":\"Material Check Point\",\"parentfield\":\"fields\",\"parenttype\":\"DocType\",\"idx\":16,\"fieldname\":\"section_break_15\",\"label\":\"Out Station Details\",\"fieldtype\":\"Section Break\",\"search_index\":0,\"hidden\":0,\"set_only_once\":0,\"allow_in_quick_entry\":0,\"print_hide\":0,\"report_hide\":0,\"reqd\":0,\"bold\":0,\"in_global_search\":0,\"collapsible\":1,\"unique\":0,\"no_copy\":0,\"allow_on_submit\":0,\"show_preview_popup\":0,\"collapsible_depends_on\":\"\",\"depends_on\":\"eval:doc.transportation_type == 'Outstation'\",\"permlevel\":0,\"ignore_user_permissions\":0,\"columns\":0,\"in_list_view\":0,\"fetch_if_empty\":0,\"in_filter\":0,\"remember_last_selected_value\":0,\"ignore_xss_filter\":0,\"print_hide_if_no_value\":0,\"allow_bulk_edit\":0,\"in_standard_filter\":0,\"in_preview\":0,\"read_only\":0,\"precision\":\"\",\"length\":0,\"translatable\":0,\"doctype\":\"DocField\"},{\"name\":\"8e32bafdd2\",\"creation\":\"2020-07-16 15:54:13.295068\",\"modified\":\"2020-12-14 11:41:18.651445\",\"modified_by\":\"works@f9tech.com\",\"owner\":\"works@f9tech.com\",\"docstatus\":0,\"parent\":\"Material Check Point\",\"parentfield\":\"fields\",\"parenttype\":\"DocType\",\"idx\":17,\"fieldname\":\"lr_number\",\"label\":\"LR Number\",\"fieldtype\":\"Data\",\"search_index\":0,\"hidden\":0,\"set_only_once\":0,\"allow_in_quick_entry\":0,\"print_hide\":0,\"report_hide\":0,\"reqd\":0,\"bold\":0,\"in_global_search\":0,\"collapsible\":0,\"unique\":0,\"no_copy\":0,\"allow_on_submit\":0,\"show_preview_popup\":0,\"collapsible_depends_on\":\"\",\"depends_on\":\"eval:doc.transportation_type == 'Local'\",\"permlevel\":0,\"ignore_user_permissions\":0,\"columns\":0,\"in_list_view\":0,\"fetch_if_empty\":0,\"in_filter\":0,\"remember_last_selected_value\":0,\"ignore_xss_filter\":0,\"print_hide_if_no_value\":0,\"allow_bulk_edit\":0,\"in_standard_filter\":0,\"in_preview\":0,\"read_only\":0,\"precision\":\"\",\"length\":0,\"translatable\":0,\"doctype\":\"DocField\"},{\"name\":\"266a2b2126\",\"creation\":\"2020-07-16 15:54:13.295068\",\"modified\":\"2020-12-14 11:41:18.651445\",\"modified_by\":\"works@f9tech.com\",\"owner\":\"works@f9tech.com\",\"docstatus\":0,\"parent\":\"Material Check Point\",\"parentfield\":\"fields\",\"parenttype\":\"DocType\",\"idx\":18,\"fieldname\":\"outstation_supplier_address\",\"label\":\"Outstation Supplier Address\",\"fieldtype\":\"Link\",\"options\":\"Address\",\"search_index\":0,\"hidden\":0,\"set_only_once\":0,\"allow_in_quick_entry\":0,\"print_hide\":0,\"report_hide\":0,\"reqd\":0,\"bold\":0,\"in_global_search\":0,\"collapsible\":0,\"unique\":0,\"no_copy\":0,\"allow_on_submit\":0,\"show_preview_popup\":0,\"depends_on\":\"eval:doc.transportation_type == 'Outstation'\",\"permlevel\":0,\"ignore_user_permissions\":0,\"columns\":0,\"in_list_view\":0,\"fetch_if_empty\":0,\"in_filter\":0,\"remember_last_selected_value\":0,\"ignore_xss_filter\":0,\"print_hide_if_no_value\":0,\"allow_bulk_edit\":0,\"in_standard_filter\":0,\"in_preview\":0,\"read_only\":0,\"precision\":\"\",\"length\":0,\"translatable\":0,\"doctype\":\"DocField\"},{\"name\":\"9c782fd978\",\"creation\":\"2020-07-16 15:54:13.295068\",\"modified\":\"2020-12-14 11:41:18.651445\",\"modified_by\":\"works@f9tech.com\",\"owner\":\"works@f9tech.com\",\"docstatus\":0,\"parent\":\"Material Check Point\",\"parentfield\":\"fields\",\"parenttype\":\"DocType\",\"idx\":19,\"fieldname\":\"outstation_address_display\",\"label\":\"Outstation Address\",\"fieldtype\":\"Small Text\",\"search_index\":0,\"hidden\":0,\"set_only_once\":0,\"allow_in_quick_entry\":0,\"print_hide\":0,\"report_hide\":0,\"reqd\":0,\"bold\":0,\"in_global_search\":0,\"collapsible\":0,\"unique\":0,\"no_copy\":0,\"allow_on_submit\":0,\"show_preview_popup\":0,\"depends_on\":\"eval:doc.transportation_type == 'Outstation'\",\"permlevel\":0,\"ignore_user_permissions\":0,\"columns\":0,\"in_list_view\":0,\"fetch_if_empty\":0,\"in_filter\":0,\"remember_last_selected_value\":0,\"ignore_xss_filter\":0,\"print_hide_if_no_value\":0,\"allow_bulk_edit\":0,\"in_standard_filter\":0,\"in_preview\":0,\"read_only\":1,\"precision\":\"\",\"length\":0,\"translatable\":0,\"doctype\":\"DocField\"},{\"name\":\"a25084abbd\",\"creation\":\"2020-07-16 15:54:13.295068\",\"modified\":\"2020-12-14 11:41:18.651445\",\"modified_by\":\"works@f9tech.com\",\"owner\":\"works@f9tech.com\",\"docstatus\":0,\"parent\":\"Material Check Point\",\"parentfield\":\"fields\",\"parenttype\":\"DocType\",\"idx\":20,\"fieldname\":\"column_break_20\",\"fieldtype\":\"Column Break\",\"search_index\":0,\"hidden\":0,\"set_only_once\":0,\"allow_in_quick_entry\":0,\"print_hide\":0,\"report_hide\":0,\"reqd\":0,\"bold\":0,\"in_global_search\":0,\"collapsible\":0,\"unique\":0,\"no_copy\":0,\"allow_on_submit\":0,\"show_preview_popup\":0,\"depends_on\":\"\",\"permlevel\":0,\"ignore_user_permissions\":0,\"columns\":0,\"in_list_view\":0,\"fetch_if_empty\":0,\"in_filter\":0,\"remember_last_selected_value\":0,\"ignore_xss_filter\":0,\"print_hide_if_no_value\":0,\"allow_bulk_edit\":0,\"in_standard_filter\":0,\"in_preview\":0,\"read_only\":0,\"precision\":\"\",\"length\":0,\"translatable\":0,\"doctype\":\"DocField\"},{\"name\":\"5bcd1b3660\",\"creation\":\"2020-07-16 15:54:13.295068\",\"modified\":\"2020-12-14 11:41:18.651445\",\"modified_by\":\"works@f9tech.com\",\"owner\":\"works@f9tech.com\",\"docstatus\":0,\"parent\":\"Material Check Point\",\"parentfield\":\"fields\",\"parenttype\":\"DocType\",\"idx\":21,\"fieldname\":\"transporter_name\",\"label\":\"Transporter Name\",\"fieldtype\":\"Select\",\"options\":\"Hema\\nAnanya\\nNaimisha\\nprasanna\",\"search_index\":0,\"hidden\":0,\"set_only_once\":0,\"allow_in_quick_entry\":0,\"print_hide\":0,\"report_hide\":0,\"reqd\":0,\"bold\":0,\"in_global_search\":0,\"collapsible\":0,\"unique\":0,\"no_copy\":0,\"allow_on_submit\":0,\"show_preview_popup\":0,\"depends_on\":\"eval:doc.transportation_type == 'Outstation'\",\"permlevel\":0,\"ignore_user_permissions\":0,\"columns\":0,\"in_list_view\":0,\"fetch_if_empty\":0,\"in_filter\":0,\"remember_last_selected_value\":0,\"ignore_xss_filter\":0,\"print_hide_if_no_value\":0,\"allow_bulk_edit\":0,\"in_standard_filter\":0,\"in_preview\":0,\"read_only\":0,\"precision\":\"\",\"length\":0,\"translatable\":0,\"fetch_from\":\"naming_series.transporter_name\",\"doctype\":\"DocField\"},{\"name\":\"1ce8c62f43\",\"creation\":\"2020-07-16 15:54:13.295068\",\"modified\":\"2020-12-14 11:41:18.651445\",\"modified_by\":\"works@f9tech.com\",\"owner\":\"works@f9tech.com\",\"docstatus\":0,\"parent\":\"Material Check Point\",\"parentfield\":\"fields\",\"parenttype\":\"DocType\",\"idx\":22,\"fieldname\":\"booking_date\",\"label\":\"Booking Date\",\"fieldtype\":\"Data\",\"search_index\":0,\"hidden\":0,\"set_only_once\":0,\"allow_in_quick_entry\":0,\"print_hide\":0,\"report_hide\":0,\"reqd\":0,\"bold\":0,\"in_global_search\":0,\"collapsible\":0,\"unique\":0,\"no_copy\":0,\"allow_on_submit\":0,\"show_preview_popup\":0,\"depends_on\":\"eval:doc.transportation_type == 'Outstation'\",\"permlevel\":0,\"ignore_user_permissions\":0,\"columns\":0,\"in_list_view\":0,\"fetch_if_empty\":0,\"in_filter\":0,\"remember_last_selected_value\":0,\"ignore_xss_filter\":0,\"print_hide_if_no_value\":0,\"allow_bulk_edit\":0,\"in_standard_filter\":0,\"in_preview\":0,\"read_only\":0,\"precision\":\"\",\"length\":0,\"translatable\":0,\"fetch_from\":\"outstation_purchase_order.date_and_time\",\"doctype\":\"DocField\"},{\"name\":\"a78596cdef\",\"creation\":\"2020-07-16 15:54:13.295068\",\"modified\":\"2020-12-14 11:41:18.651445\",\"modified_by\":\"works@f9tech.com\",\"owner\":\"works@f9tech.com\",\"docstatus\":0,\"parent\":\"Material Check Point\",\"parentfield\":\"fields\",\"parenttype\":\"DocType\",\"idx\":23,\"fieldname\":\"delivery_date\",\"label\":\"Receiving Date\",\"fieldtype\":\"Date\",\"search_index\":0,\"hidden\":0,\"set_only_once\":0,\"allow_in_quick_entry\":0,\"print_hide\":0,\"report_hide\":0,\"reqd\":0,\"bold\":0,\"in_global_search\":0,\"collapsible\":0,\"unique\":0,\"no_copy\":0,\"allow_on_submit\":0,\"show_preview_popup\":0,\"depends_on\":\"eval:doc.transportation_type == 'Outstation'\",\"permlevel\":0,\"ignore_user_permissions\":0,\"columns\":0,\"in_list_view\":0,\"fetch_if_empty\":0,\"in_filter\":0,\"remember_last_selected_value\":0,\"ignore_xss_filter\":0,\"print_hide_if_no_value\":0,\"allow_bulk_edit\":0,\"in_standard_filter\":0,\"in_preview\":0,\"read_only\":0,\"precision\":\"\",\"length\":0,\"translatable\":0,\"fetch_from\":\"naming_series.delivery_date\",\"doctype\":\"DocField\"},{\"name\":\"e6f04460d9\",\"creation\":\"2020-07-16 15:54:13.295068\",\"modified\":\"2020-12-14 11:41:18.651445\",\"modified_by\":\"works@f9tech.com\",\"owner\":\"works@f9tech.com\",\"docstatus\":0,\"parent\":\"Material Check Point\",\"parentfield\":\"fields\",\"parenttype\":\"DocType\",\"idx\":24,\"fieldname\":\"from_city\",\"label\":\"From City\",\"fieldtype\":\"Data\",\"search_index\":0,\"hidden\":0,\"set_only_once\":0,\"allow_in_quick_entry\":0,\"print_hide\":0,\"report_hide\":0,\"reqd\":0,\"bold\":0,\"in_global_search\":0,\"collapsible\":0,\"unique\":0,\"no_copy\":0,\"allow_on_submit\":0,\"show_preview_popup\":0,\"depends_on\":\"eval:doc.transportation_type == 'Outstation'\",\"permlevel\":0,\"ignore_user_permissions\":0,\"columns\":0,\"in_list_view\":0,\"fetch_if_empty\":0,\"in_filter\":0,\"remember_last_selected_value\":0,\"ignore_xss_filter\":0,\"print_hide_if_no_value\":0,\"allow_bulk_edit\":0,\"in_standard_filter\":0,\"in_preview\":0,\"read_only\":0,\"precision\":\"\",\"length\":0,\"translatable\":0,\"fetch_from\":\"outstation_purchase_order.outstation_location\",\"doctype\":\"DocField\"},{\"name\":\"8f41d7ee63\",\"creation\":\"2020-07-16 15:54:13.295068\",\"modified\":\"2020-12-14 11:41:18.651445\",\"modified_by\":\"works@f9tech.com\",\"owner\":\"works@f9tech.com\",\"docstatus\":0,\"parent\":\"Material Check Point\",\"parentfield\":\"fields\",\"parenttype\":\"DocType\",\"idx\":25,\"fieldname\":\"to_city\",\"label\":\"To City\",\"fieldtype\":\"Select\",\"options\":\"Orissa\\nKerala\",\"search_index\":0,\"hidden\":0,\"set_only_once\":0,\"allow_in_quick_entry\":0,\"print_hide\":0,\"report_hide\":0,\"reqd\":0,\"bold\":0,\"in_global_search\":0,\"collapsible\":0,\"unique\":0,\"no_copy\":0,\"allow_on_submit\":0,\"show_preview_popup\":0,\"depends_on\":\"eval:doc.transportation_type == 'Outstation'\",\"permlevel\":0,\"ignore_user_permissions\":0,\"columns\":0,\"in_list_view\":0,\"fetch_if_empty\":0,\"in_filter\":0,\"remember_last_selected_value\":0,\"ignore_xss_filter\":0,\"print_hide_if_no_value\":0,\"allow_bulk_edit\":0,\"in_standard_filter\":0,\"in_preview\":0,\"read_only\":0,\"precision\":\"\",\"length\":0,\"translatable\":0,\"doctype\":\"DocField\"},{\"name\":\"7c62f39ff7\",\"creation\":\"2020-07-16 15:54:13.295068\",\"modified\":\"2020-12-14 11:41:18.651445\",\"modified_by\":\"works@f9tech.com\",\"owner\":\"works@f9tech.com\",\"docstatus\":0,\"parent\":\"Material Check Point\",\"parentfield\":\"fields\",\"parenttype\":\"DocType\",\"idx\":26,\"fieldname\":\"outstation_items_section_section\",\"label\":\"Outstation Items Section\",\"fieldtype\":\"Section Break\",\"search_index\":0,\"hidden\":0,\"set_only_once\":0,\"allow_in_quick_entry\":0,\"print_hide\":0,\"report_hide\":0,\"reqd\":0,\"bold\":0,\"in_global_search\":0,\"collapsible\":1,\"unique\":0,\"no_copy\":0,\"allow_on_submit\":0,\"show_preview_popup\":0,\"depends_on\":\"eval:doc.transportation_type == 'Outstation'\",\"permlevel\":0,\"ignore_user_permissions\":0,\"columns\":0,\"in_list_view\":0,\"fetch_if_empty\":0,\"in_filter\":0,\"remember_last_selected_value\":0,\"ignore_xss_filter\":0,\"print_hide_if_no_value\":0,\"allow_bulk_edit\":0,\"in_standard_filter\":0,\"in_preview\":0,\"read_only\":0,\"precision\":\"\",\"length\":0,\"translatable\":0,\"doctype\":\"DocField\"},{\"name\":\"e83e67d5ba\",\"creation\":\"2020-07-16 15:54:13.295068\",\"modified\":\"2020-12-14 11:41:18.651445\",\"modified_by\":\"works@f9tech.com\",\"owner\":\"works@f9tech.com\",\"docstatus\":0,\"parent\":\"Material Check Point\",\"parentfield\":\"fields\",\"parenttype\":\"DocType\",\"idx\":27,\"fieldname\":\"outstation_purchase_order_series\",\"label\":\"Outstation Purchase Order Series\",\"fieldtype\":\"Link\",\"options\":\"Outstation Purchase Order\",\"search_index\":0,\"hidden\":0,\"set_only_once\":0,\"allow_in_quick_entry\":0,\"print_hide\":0,\"report_hide\":0,\"reqd\":0,\"bold\":0,\"in_global_search\":0,\"collapsible\":0,\"unique\":0,\"no_copy\":0,\"allow_on_submit\":0,\"show_preview_popup\":0,\"depends_on\":\"eval:doc.transportation_type == 'Outstation'\",\"permlevel\":0,\"ignore_user_permissions\":0,\"columns\":0,\"in_list_view\":0,\"fetch_if_empty\":0,\"in_filter\":0,\"remember_last_selected_value\":0,\"ignore_xss_filter\":0,\"print_hide_if_no_value\":0,\"allow_bulk_edit\":0,\"in_standard_filter\":0,\"in_preview\":0,\"read_only\":0,\"precision\":\"\",\"length\":0,\"translatable\":0,\"doctype\":\"DocField\"},{\"name\":\"081707838c\",\"creation\":\"2020-07-16 15:54:13.295068\",\"modified\":\"2020-12-14 11:41:18.651445\",\"modified_by\":\"works@f9tech.com\",\"owner\":\"works@f9tech.com\",\"docstatus\":0,\"parent\":\"Material Check Point\",\"parentfield\":\"fields\",\"parenttype\":\"DocType\",\"idx\":28,\"fieldname\":\"outstation_items\",\"label\":\"Outstation Items\",\"fieldtype\":\"Table\",\"options\":\"MCP Items\",\"search_index\":0,\"hidden\":0,\"set_only_once\":0,\"allow_in_quick_entry\":0,\"print_hide\":0,\"report_hide\":0,\"reqd\":0,\"bold\":0,\"in_global_search\":0,\"collapsible\":0,\"unique\":0,\"no_copy\":0,\"allow_on_submit\":0,\"show_preview_popup\":0,\"depends_on\":\"eval:doc.transportation_type == 'Outstation'\",\"permlevel\":0,\"ignore_user_permissions\":0,\"columns\":0,\"in_list_view\":0,\"fetch_if_empty\":0,\"in_filter\":0,\"remember_last_selected_value\":0,\"ignore_xss_filter\":0,\"print_hide_if_no_value\":0,\"allow_bulk_edit\":0,\"in_standard_filter\":0,\"in_preview\":0,\"read_only\":0,\"precision\":\"\",\"length\":0,\"translatable\":0,\"doctype\":\"DocField\"},{\"name\":\"6aba405d58\",\"creation\":\"2020-07-16 15:54:13.295068\",\"modified\":\"2020-12-14 11:41:18.651445\",\"modified_by\":\"works@f9tech.com\",\"owner\":\"works@f9tech.com\",\"docstatus\":0,\"parent\":\"Material Check Point\",\"parentfield\":\"fields\",\"parenttype\":\"DocType\",\"idx\":29,\"fieldname\":\"package_information\",\"label\":\"Package Information\",\"fieldtype\":\"Section Break\",\"search_index\":0,\"hidden\":0,\"set_only_once\":0,\"allow_in_quick_entry\":0,\"print_hide\":0,\"report_hide\":0,\"reqd\":0,\"bold\":0,\"in_global_search\":0,\"collapsible\":1,\"unique\":0,\"no_copy\":0,\"allow_on_submit\":0,\"show_preview_popup\":0,\"depends_on\":\"\",\"permlevel\":0,\"ignore_user_permissions\":0,\"columns\":0,\"in_list_view\":0,\"fetch_if_empty\":0,\"in_filter\":0,\"remember_last_selected_value\":0,\"ignore_xss_filter\":0,\"print_hide_if_no_value\":0,\"allow_bulk_edit\":0,\"in_standard_filter\":0,\"in_preview\":0,\"read_only\":0,\"precision\":\"\",\"length\":0,\"translatable\":0,\"doctype\":\"DocField\"},{\"name\":\"f64c947baa\",\"creation\":\"2020-07-16 15:54:13.295068\",\"modified\":\"2020-12-14 11:41:18.651445\",\"modified_by\":\"works@f9tech.com\",\"owner\":\"works@f9tech.com\",\"docstatus\":0,\"parent\":\"Material Check Point\",\"parentfield\":\"fields\",\"parenttype\":\"DocType\",\"idx\":30,\"fieldname\":\"inv_no\",\"label\":\"Invoice No\",\"fieldtype\":\"Data\",\"search_index\":0,\"hidden\":0,\"set_only_once\":0,\"allow_in_quick_entry\":0,\"print_hide\":0,\"report_hide\":0,\"reqd\":0,\"bold\":0,\"in_global_search\":0,\"collapsible\":0,\"unique\":0,\"no_copy\":0,\"allow_on_submit\":0,\"show_preview_popup\":0,\"depends_on\":\"\",\"permlevel\":0,\"ignore_user_permissions\":0,\"columns\":0,\"in_list_view\":0,\"fetch_if_empty\":0,\"in_filter\":0,\"remember_last_selected_value\":0,\"ignore_xss_filter\":0,\"print_hide_if_no_value\":0,\"allow_bulk_edit\":0,\"in_standard_filter\":0,\"in_preview\":0,\"read_only\":0,\"precision\":\"\",\"length\":0,\"translatable\":0,\"fetch_from\":\"outstation_purchase_order_series.invoice_no\",\"doctype\":\"DocField\"},{\"name\":\"03bea07a99\",\"creation\":\"2020-07-16 15:54:13.295068\",\"modified\":\"2020-12-14 11:41:18.651445\",\"modified_by\":\"works@f9tech.com\",\"owner\":\"works@f9tech.com\",\"docstatus\":0,\"parent\":\"Material Check Point\",\"parentfield\":\"fields\",\"parenttype\":\"DocType\",\"idx\":31,\"fieldname\":\"inv_date\",\"label\":\"Invoice Date\",\"fieldtype\":\"Data\",\"search_index\":0,\"hidden\":0,\"set_only_once\":0,\"allow_in_quick_entry\":0,\"print_hide\":0,\"report_hide\":0,\"reqd\":0,\"bold\":0,\"in_global_search\":0,\"collapsible\":0,\"unique\":0,\"no_copy\":0,\"allow_on_submit\":0,\"show_preview_popup\":0,\"permlevel\":0,\"ignore_user_permissions\":0,\"columns\":0,\"in_list_view\":0,\"fetch_if_empty\":0,\"in_filter\":0,\"remember_last_selected_value\":0,\"ignore_xss_filter\":0,\"print_hide_if_no_value\":0,\"allow_bulk_edit\":0,\"in_standard_filter\":0,\"in_preview\":0,\"read_only\":0,\"precision\":\"\",\"length\":0,\"translatable\":0,\"fetch_from\":\"outstation_purchase_order_series.invoice_date\",\"doctype\":\"DocField\"},{\"name\":\"ebfbda4e71\",\"creation\":\"2020-07-16 15:54:13.295068\",\"modified\":\"2020-12-14 11:41:18.651445\",\"modified_by\":\"works@f9tech.com\",\"owner\":\"works@f9tech.com\",\"docstatus\":0,\"parent\":\"Material Check Point\",\"parentfield\":\"fields\",\"parenttype\":\"DocType\",\"idx\":32,\"fieldname\":\"inv_val\",\"label\":\"Invoice Value\",\"fieldtype\":\"Data\",\"search_index\":0,\"hidden\":0,\"set_only_once\":0,\"allow_in_quick_entry\":0,\"print_hide\":0,\"report_hide\":0,\"reqd\":0,\"bold\":0,\"in_global_search\":0,\"collapsible\":0,\"unique\":0,\"no_copy\":0,\"allow_on_submit\":0,\"show_preview_popup\":0,\"permlevel\":0,\"ignore_user_permissions\":0,\"columns\":0,\"in_list_view\":0,\"fetch_if_empty\":0,\"in_filter\":0,\"remember_last_selected_value\":0,\"ignore_xss_filter\":0,\"print_hide_if_no_value\":0,\"allow_bulk_edit\":0,\"in_standard_filter\":0,\"in_preview\":0,\"read_only\":0,\"precision\":\"\",\"length\":0,\"translatable\":0,\"fetch_from\":\"outstation_purchase_order_series.invoice_value\",\"doctype\":\"DocField\"},{\"name\":\"6aa9d02e4e\",\"creation\":\"2020-07-16 15:54:13.295068\",\"modified\":\"2020-12-14 11:41:18.651445\",\"modified_by\":\"works@f9tech.com\",\"owner\":\"works@f9tech.com\",\"docstatus\":0,\"parent\":\"Material Check Point\",\"parentfield\":\"fields\",\"parenttype\":\"DocType\",\"idx\":33,\"fieldname\":\"inv_pack\",\"label\":\"No.Of Packs\",\"fieldtype\":\"Data\",\"search_index\":0,\"hidden\":0,\"set_only_once\":0,\"allow_in_quick_entry\":0,\"print_hide\":0,\"report_hide\":0,\"reqd\":0,\"bold\":0,\"in_global_search\":0,\"collapsible\":0,\"unique\":0,\"no_copy\":0,\"allow_on_submit\":0,\"show_preview_popup\":0,\"permlevel\":0,\"ignore_user_permissions\":0,\"columns\":0,\"in_list_view\":0,\"fetch_if_empty\":0,\"in_filter\":0,\"remember_last_selected_value\":0,\"ignore_xss_filter\":0,\"print_hide_if_no_value\":0,\"allow_bulk_edit\":0,\"in_standard_filter\":0,\"in_preview\":0,\"read_only\":0,\"precision\":\"\",\"length\":0,\"translatable\":0,\"doctype\":\"DocField\"},{\"name\":\"8c8010ddee\",\"creation\":\"2020-07-16 15:54:13.295068\",\"modified\":\"2020-12-14 11:41:18.651445\",\"modified_by\":\"works@f9tech.com\",\"owner\":\"works@f9tech.com\",\"docstatus\":0,\"parent\":\"Material Check Point\",\"parentfield\":\"fields\",\"parenttype\":\"DocType\",\"idx\":34,\"fieldname\":\"column_break_22\",\"fieldtype\":\"Column Break\",\"search_index\":0,\"hidden\":0,\"set_only_once\":0,\"allow_in_quick_entry\":0,\"print_hide\":0,\"report_hide\":0,\"reqd\":0,\"bold\":0,\"in_global_search\":0,\"collapsible\":0,\"unique\":0,\"no_copy\":0,\"allow_on_submit\":0,\"show_preview_popup\":0,\"permlevel\":0,\"ignore_user_permissions\":0,\"columns\":0,\"in_list_view\":0,\"fetch_if_empty\":0,\"in_filter\":0,\"remember_last_selected_value\":0,\"ignore_xss_filter\":0,\"print_hide_if_no_value\":0,\"allow_bulk_edit\":0,\"in_standard_filter\":0,\"in_preview\":0,\"read_only\":0,\"precision\":\"\",\"length\":0,\"translatable\":0,\"doctype\":\"DocField\"},{\"name\":\"9fc6106222\",\"creation\":\"2020-07-16 15:54:13.295068\",\"modified\":\"2020-12-14 11:41:18.651445\",\"modified_by\":\"works@f9tech.com\",\"owner\":\"works@f9tech.com\",\"docstatus\":0,\"parent\":\"Material Check Point\",\"parentfield\":\"fields\",\"parenttype\":\"DocType\",\"idx\":35,\"fieldname\":\"units_of_measure\",\"label\":\"Units Of Measure\",\"fieldtype\":\"Data\",\"search_index\":0,\"hidden\":0,\"set_only_once\":0,\"allow_in_quick_entry\":0,\"print_hide\":0,\"report_hide\":0,\"reqd\":0,\"bold\":0,\"in_global_search\":0,\"collapsible\":0,\"unique\":0,\"no_copy\":0,\"allow_on_submit\":0,\"show_preview_popup\":0,\"permlevel\":0,\"ignore_user_permissions\":0,\"columns\":0,\"in_list_view\":0,\"fetch_if_empty\":0,\"in_filter\":0,\"remember_last_selected_value\":0,\"ignore_xss_filter\":0,\"print_hide_if_no_value\":0,\"allow_bulk_edit\":0,\"in_standard_filter\":0,\"in_preview\":0,\"read_only\":0,\"precision\":\"\",\"length\":0,\"translatable\":0,\"doctype\":\"DocField\"},{\"name\":\"497edbb269\",\"creation\":\"2020-07-16 15:54:13.295068\",\"modified\":\"2020-12-14 11:41:18.651445\",\"modified_by\":\"works@f9tech.com\",\"owner\":\"works@f9tech.com\",\"docstatus\":0,\"parent\":\"Material Check Point\",\"parentfield\":\"fields\",\"parenttype\":\"DocType\",\"idx\":36,\"fieldname\":\"pack_type\",\"label\":\"Packing type\",\"fieldtype\":\"Select\",\"options\":\"Cartoon\\nGunny Bags\\nWooden Crates\\nBundle\\nPallet\\nOthers\",\"search_index\":0,\"hidden\":0,\"set_only_once\":0,\"allow_in_quick_entry\":0,\"print_hide\":0,\"report_hide\":0,\"reqd\":0,\"bold\":0,\"in_global_search\":0,\"collapsible\":0,\"unique\":0,\"no_copy\":0,\"allow_on_submit\":0,\"show_preview_popup\":0,\"permlevel\":0,\"ignore_user_permissions\":0,\"columns\":0,\"in_list_view\":0,\"fetch_if_empty\":0,\"in_filter\":0,\"remember_last_selected_value\":0,\"ignore_xss_filter\":0,\"print_hide_if_no_value\":0,\"allow_bulk_edit\":0,\"in_standard_filter\":0,\"in_preview\":0,\"read_only\":0,\"precision\":\"\",\"length\":0,\"translatable\":0,\"doctype\":\"DocField\"},{\"name\":\"443c119081\",\"creation\":\"2020-07-16 15:54:13.295068\",\"modified\":\"2020-12-14 11:41:18.651445\",\"modified_by\":\"works@f9tech.com\",\"owner\":\"works@f9tech.com\",\"docstatus\":0,\"parent\":\"Material Check Point\",\"parentfield\":\"fields\",\"parenttype\":\"DocType\",\"idx\":37,\"fieldname\":\"package\",\"label\":\"Package weight\",\"fieldtype\":\"Data\",\"search_index\":0,\"hidden\":0,\"set_only_once\":0,\"allow_in_quick_entry\":0,\"print_hide\":0,\"report_hide\":0,\"reqd\":0,\"bold\":0,\"in_global_search\":0,\"collapsible\":0,\"unique\":0,\"no_copy\":0,\"allow_on_submit\":0,\"show_preview_popup\":0,\"permlevel\":0,\"ignore_user_permissions\":0,\"columns\":0,\"in_list_view\":0,\"fetch_if_empty\":0,\"in_filter\":0,\"remember_last_selected_value\":0,\"ignore_xss_filter\":0,\"print_hide_if_no_value\":0,\"allow_bulk_edit\":0,\"in_standard_filter\":0,\"in_preview\":0,\"read_only\":0,\"precision\":\"\",\"length\":0,\"translatable\":0,\"doctype\":\"DocField\"},{\"name\":\"c395b7eb41\",\"creation\":\"2020-07-16 15:54:13.295068\",\"modified\":\"2020-12-14 11:41:18.651445\",\"modified_by\":\"works@f9tech.com\",\"owner\":\"works@f9tech.com\",\"docstatus\":0,\"parent\":\"Material Check Point\",\"parentfield\":\"fields\",\"parenttype\":\"DocType\",\"idx\":38,\"fieldname\":\"transporter\",\"label\":\"Transporter Amount\",\"fieldtype\":\"Select\",\"options\":\"Hamali\\nOther\",\"search_index\":0,\"hidden\":0,\"set_only_once\":0,\"allow_in_quick_entry\":0,\"print_hide\":0,\"report_hide\":0,\"reqd\":0,\"bold\":0,\"in_global_search\":0,\"collapsible\":0,\"unique\":0,\"no_copy\":0,\"allow_on_submit\":0,\"show_preview_popup\":0,\"permlevel\":0,\"ignore_user_permissions\":0,\"columns\":0,\"in_list_view\":0,\"fetch_if_empty\":0,\"in_filter\":0,\"remember_last_selected_value\":0,\"ignore_xss_filter\":0,\"print_hide_if_no_value\":0,\"allow_bulk_edit\":0,\"in_standard_filter\":0,\"in_preview\":0,\"read_only\":0,\"precision\":\"\",\"length\":0,\"translatable\":0,\"doctype\":\"DocField\"}],\"permissions\":[{\"name\":\"759ae67e39\",\"creation\":\"2020-07-16 15:54:13.295068\",\"modified\":\"2020-12-14 11:41:18.651445\",\"modified_by\":\"works@f9tech.com\",\"owner\":\"works@f9tech.com\",\"docstatus\":0,\"parent\":\"Material Check Point\",\"parentfield\":\"permissions\",\"parenttype\":\"DocType\",\"idx\":1,\"permlevel\":0,\"role\":\"System Manager\",\"read\":1,\"write\":1,\"create\":1,\"submit\":0,\"cancel\":0,\"delete\":1,\"amend\":0,\"report\":1,\"export\":1,\"import\":0,\"share\":1,\"print\":1,\"email\":1,\"if_owner\":0,\"set_user_permissions\":0,\"doctype\":\"DocPerm\"}],\"__last_sync_on\":\"2020-12-14T06:14:32.079Z\",\"__unsaved\":1}"
}
Request Error
Traceback (most recent call last):
  File "/home/frappe/frappe-bench/apps/frappe/frappe/app.py", line 60, in application
    response = frappe.api.handle()
  File "/home/frappe/frappe-bench/apps/frappe/frappe/api.py", line 55, in handle
    return frappe.handler.handle()
  File "/home/frappe/frappe-bench/apps/frappe/frappe/handler.py", line 22, in handle
    data = execute_cmd(cmd)
  File "/home/frappe/frappe-bench/apps/frappe/frappe/handler.py", line 61, in execute_cmd
    return frappe.call(method, **frappe.form_dict)
  File "/home/frappe/frappe-bench/apps/frappe/frappe/__init__.py", line 1051, in call
    return fn(*args, **newargs)
  File "/home/frappe/frappe-bench/apps/frappe/frappe/desk/form/save.py", line 22, in savedocs
    doc.save()
  File "/home/frappe/frappe-bench/apps/frappe/frappe/model/document.py", line 273, in save
    return self._save(*args, **kwargs)
  File "/home/frappe/frappe-bench/apps/frappe/frappe/model/document.py", line 326, in _save
    self.run_post_save_methods()
  File "/home/frappe/frappe-bench/apps/frappe/frappe/model/document.py", line 926, in run_post_save_methods
    self.run_method("on_update")
  File "/home/frappe/frappe-bench/apps/frappe/frappe/model/document.py", line 794, in run_method
    out = Document.hook(fn)(self, *args, **kwargs)
  File "/home/frappe/frappe-bench/apps/frappe/frappe/model/document.py", line 1065, in composer
    return composed(self, method, *args, **kwargs)
  File "/home/frappe/frappe-bench/apps/frappe/frappe/model/document.py", line 1048, in runner
    add_to_return_value(self, fn(self, *args, **kwargs))
  File "/home/frappe/frappe-bench/apps/frappe/frappe/model/document.py", line 788, in <lambda>
    fn = lambda self, *args, **kwargs: getattr(self, method)(*args, **kwargs)
  File "/home/frappe/frappe-bench/apps/frappe/frappe/core/doctype/doctype/doctype.py", line 286, in on_update
    self.update_fields_to_fetch()
  File "/home/frappe/frappe-bench/apps/frappe/frappe/core/doctype/doctype/doctype.py", line 176, in update_fields_to_fetch
    frappe.db.sql(query)
  File "/home/frappe/frappe-bench/apps/frappe/frappe/database/database.py", line 171, in sql
    self._cursor.execute(query)
  File "/home/frappe/frappe-bench/env/lib/python3.6/site-packages/pymysql/cursors.py", line 170, in execute
    result = self._query(query)
  File "/home/frappe/frappe-bench/env/lib/python3.6/site-packages/pymysql/cursors.py", line 328, in _query
    conn.query(q)
  File "/home/frappe/frappe-bench/env/lib/python3.6/site-packages/pymysql/connections.py", line 517, in query
    self._affected_rows = self._read_query_result(unbuffered=unbuffered)
  File "/home/frappe/frappe-bench/env/lib/python3.6/site-packages/pymysql/connections.py", line 732, in _read_query_result
    result.read()
  File "/home/frappe/frappe-bench/env/lib/python3.6/site-packages/pymysql/connections.py", line 1075, in read
    first_packet = self.connection._read_packet()
  File "/home/frappe/frappe-bench/env/lib/python3.6/site-packages/pymysql/connections.py", line 684, in _read_packet
    packet.check_error()
  File "/home/frappe/frappe-bench/env/lib/python3.6/site-packages/pymysql/protocol.py", line 220, in check_error
    err.raise_mysql_exception(self._data)
  File "/home/frappe/frappe-bench/env/lib/python3.6/site-packages/pymysql/err.py", line 109, in raise_mysql_exception
    raise errorclass(errno, errval)
pymysql.err.InternalError: (1054, "Unknown column 'source.invoice_number' in 'field list'")
[ERROR] 2020-12-14 08:00:51,651 | /home/frappe/frappe-bench/apps/frappe/frappe/app.py:
Site: site1.local
Form Dict: {
 "action": "Save",
 "cmd": "frappe.desk.form.save.savedocs",
 "doc": "{\"docstatus\":0,\"doctype\":\"Sales Invoice\",\"name\":\"New Sales Invoice 1\",\"__islocal\":1,\"__unsaved\":1,\"owner\":\"works@f9tech.com\",\"naming_series\":\"ACC-SINV-.YYYY.-\",\"is_pos\":0,\"is_return\":0,\"posting_date\":\"2020-12-14\",\"posting_time\":\"13:11:13\",\"set_posting_time\":0,\"update_billed_amount_in_sales_order\":0,\"territory\":\"All Territories\",\"currency\":\"INR\",\"selling_price_list\":\"Indian Rupees\",\"price_list_currency\":\"INR\",\"ignore_pricing_rule\":0,\"update_stock\":0,\"total_billing_amount\":0,\"redeem_loyalty_points\":0,\"apply_discount_on\":\"Grand Total\",\"allocate_advances_automatically\":0,\"write_off_outstanding_amount_automatically\":0,\"mode_of_transport\":\"Road\",\"lr_date\":\"2020-12-14\",\"gst_vehicle_type\":\"Regular\",\"letter_head\":\"BGL Stores\",\"group_same_items\":0,\"gst_category\":\"Unregistered\",\"export_type\":\"Without Payment of Tax\",\"invoice_copy\":\"Original for Recipient\",\"reverse_charge\":\"N\",\"reason_for_issuing_document\":\"\",\"customer_group\":\"All Customer Groups\",\"is_discounted\":0,\"status\":\"Draft\",\"party_account_currency\":\"INR\",\"is_opening\":\"No\",\"c_form_applicable\":\"No\",\"conversion_rate\":1,\"plc_conversion_rate\":1,\"scan_barcode\":\"\",\"base_net_total\":112500,\"net_total\":112500,\"base_total\":112500,\"total\":112500,\"total_qty\":\"0555\",\"rounding_adjustment\":0,\"grand_total\":112500,\"base_grand_total\":112500,\"total_taxes_and_charges\":0,\"base_total_taxes_and_charges\":0,\"base_rounding_adjustment\":0,\"rounded_total\":112500,\"base_rounded_total\":112500,\"in_words\":\"\",\"base_in_words\":\"\",\"base_discount_amount\":0,\"total_advance\":0,\"write_off_amount\":0,\"paid_amount\":0,\"base_paid_amount\":0,\"payments\":[],\"change_amount\":0,\"base_change_amount\":0,\"outstanding_amount\":112500,\"total_commission\":null,\"gst_summary\":[{\"docstatus\":0,\"doctype\":\"GST Summary\",\"name\":\"New GST Summary 1\",\"__islocal\":1,\"__unsaved\":1,\"owner\":\"works@f9tech.com\",\"gst_percentage\":\"5\",\"parent\":\"New Sales Invoice 1\",\"parentfield\":\"gst_summary\",\"parenttype\":\"Sales Invoice\",\"idx\":1,\"__unedited\":false,\"igst\":\"5\"}],\"item_details\":\"CK.WARE\",\"items\":[{\"docstatus\":0,\"doctype\":\"Sales Invoice Item\",\"name\":\"New Sales Invoice Item 1\",\"__islocal\":1,\"__unsaved\":1,\"owner\":\"works@f9tech.com\",\"margin_type\":\"\",\"is_free_item\":0,\"delivered_by_supplier\":0,\"is_fixed_asset\":0,\"enable_deferred_revenue\":0,\"allow_zero_valuation_rate\":0,\"page_break\":0,\"is_group\":0,\"parent\":\"New Sales Invoice 1\",\"parentfield\":\"items\",\"parenttype\":\"Sales Invoice\",\"idx\":1,\"item_code\":\"CK.WARE\",\"item_name\":\"CookWare\",\"qty\":\"5\",\"basic_price\":\"500\",\"gst_hsn_code\":\"999900\",\"location\":\"WH02\",\"bay_number\":\"65\",\"selling_price_without_tax\":\"900\",\"buying_tax\":\"5%\",\"sp_with_tax\":\"945\",\"selling1_tax_amount\":\"45\",\"rate\":7500,\"image\":\"/files/pigeon.jpg\",\"price_list_rate\":7500,\"child_docname\":\"New Sales Invoice Item 1\",\"discount_percentage_on_rate\":[],\"discount_amount_on_rate\":[],\"conversion_factor\":0,\"stock_qty\":0,\"base_price_list_rate\":7500,\"margin_rate_or_amount\":0,\"rate_with_margin\":7500,\"discount_amount\":0,\"base_rate_with_margin\":7500,\"amount\":37500,\"base_rate\":7500,\"base_amount\":37500,\"net_rate\":7500,\"net_amount\":37500,\"base_net_rate\":7500,\"base_net_amount\":37500,\"weight_per_unit\":0,\"total_weight\":0,\"actual_batch_qty\":0,\"actual_qty\":0,\"delivered_qty\":0,\"discount_percentage\":0,\"item_tax_rate\":\"{}\"},{\"docstatus\":0,\"doctype\":\"Sales Invoice Item\",\"name\":\"New Sales Invoice Item 2\",\"__islocal\":1,\"__unsaved\":1,\"owner\":\"works@f9tech.com\",\"margin_type\":\"\",\"is_free_item\":0,\"delivered_by_supplier\":0,\"is_fixed_asset\":0,\"enable_deferred_revenue\":0,\"allow_zero_valuation_rate\":0,\"page_break\":0,\"is_group\":0,\"parent\":\"New Sales Invoice 1\",\"parentfield\":\"items\",\"parenttype\":\"Sales Invoice\",\"idx\":2,\"item_code\":\"CK.WARE\",\"item_name\":\"CookWare\",\"qty\":\"5\",\"basic_price\":\"500\",\"gst_hsn_code\":\"999900\",\"location\":\"WH02\",\"bay_number\":\"65\",\"selling_price_without_tax\":\"900\",\"buying_tax\":\"5%\",\"sp_with_tax\":\"945\",\"selling1_tax_amount\":\"45\",\"rate\":7500,\"image\":\"/files/pigeon.jpg\",\"price_list_rate\":7500,\"child_docname\":\"New Sales Invoice Item 2\",\"discount_percentage_on_rate\":[],\"discount_amount_on_rate\":[],\"conversion_factor\":0,\"stock_qty\":0,\"base_price_list_rate\":7500,\"margin_rate_or_amount\":0,\"rate_with_margin\":7500,\"discount_amount\":0,\"base_rate_with_margin\":7500,\"amount\":37500,\"base_rate\":7500,\"base_amount\":37500,\"net_rate\":7500,\"net_amount\":37500,\"base_net_rate\":7500,\"base_net_amount\":37500,\"weight_per_unit\":0,\"total_weight\":0,\"actual_batch_qty\":0,\"actual_qty\":0,\"delivered_qty\":0,\"discount_percentage\":0,\"item_tax_rate\":\"{}\"},{\"docstatus\":0,\"doctype\":\"Sales Invoice Item\",\"name\":\"New Sales Invoice Item 3\",\"__islocal\":1,\"__unsaved\":1,\"owner\":\"works@f9tech.com\",\"margin_type\":\"\",\"is_free_item\":0,\"delivered_by_supplier\":0,\"is_fixed_asset\":0,\"enable_deferred_revenue\":0,\"allow_zero_valuation_rate\":0,\"page_break\":0,\"is_group\":0,\"parent\":\"New Sales Invoice 1\",\"parentfield\":\"items\",\"parenttype\":\"Sales Invoice\",\"idx\":3,\"item_code\":\"CK.WARE\",\"item_name\":\"CookWare\",\"qty\":\"5\",\"basic_price\":\"500\",\"gst_hsn_code\":\"999900\",\"location\":\"WH02\",\"bay_number\":\"65\",\"selling_price_without_tax\":\"900\",\"buying_tax\":\"5%\",\"sp_with_tax\":\"945\",\"selling1_tax_amount\":\"45\",\"rate\":7500,\"image\":\"/files/pigeon.jpg\",\"price_list_rate\":7500,\"child_docname\":\"New Sales Invoice Item 3\",\"discount_percentage_on_rate\":[],\"discount_amount_on_rate\":[],\"conversion_factor\":0,\"stock_qty\":0,\"base_price_list_rate\":7500,\"margin_rate_or_amount\":0,\"rate_with_margin\":7500,\"discount_amount\":0,\"base_rate_with_margin\":7500,\"amount\":37500,\"base_rate\":7500,\"base_amount\":37500,\"net_rate\":7500,\"net_amount\":37500,\"base_net_rate\":7500,\"base_net_amount\":37500,\"weight_per_unit\":0,\"total_weight\":0,\"actual_batch_qty\":0,\"actual_qty\":0,\"delivered_qty\":0,\"discount_percentage\":0,\"item_tax_rate\":\"{}\",\"serial_no\":null}],\"total_items\":3,\"company\":\"BGL Stores\",\"company_address\":null,\"company_address_display\":\"\",\"customer_name\":\"Chandan\",\"loyalty_program\":null,\"tax_id\":null,\"customer\":\"Chandan\",\"debit_to\":\"Debtors - BS\",\"due_date\":\"2020-12-14\",\"customer_address\":\"1-19-158 BC Colony-Billing\",\"billing_address_gstin\":null,\"address_display\":\"46-5-46<br>Jubilee hills<br>Hyderabad<br>\\nAndhra Pradesh<br>535002<br>India<br>\\n\",\"shipping_address_name\":\"\",\"shipping_address\":null,\"customer_gstin\":null,\"place_of_supply\":null,\"contact_person\":\"Chandan-Chandan\",\"contact_display\":\"Chandan\",\"contact_email\":\"life@f9tech.com\",\"contact_mobile\":\"9876543210\",\"language\":\"en\",\"tax_category\":\"\",\"taxes_and_charges\":null,\"payment_terms_template\":null,\"sales_team\":[]}"
}
Request Error
Traceback (most recent call last):
  File "/home/frappe/frappe-bench/apps/frappe/frappe/app.py", line 60, in application
    response = frappe.api.handle()
  File "/home/frappe/frappe-bench/apps/frappe/frappe/api.py", line 55, in handle
    return frappe.handler.handle()
  File "/home/frappe/frappe-bench/apps/frappe/frappe/handler.py", line 22, in handle
    data = execute_cmd(cmd)
  File "/home/frappe/frappe-bench/apps/frappe/frappe/handler.py", line 61, in execute_cmd
    return frappe.call(method, **frappe.form_dict)
  File "/home/frappe/frappe-bench/apps/frappe/frappe/__init__.py", line 1051, in call
    return fn(*args, **newargs)
  File "/home/frappe/frappe-bench/apps/frappe/frappe/desk/form/save.py", line 22, in savedocs
    doc.save()
  File "/home/frappe/frappe-bench/apps/frappe/frappe/model/document.py", line 273, in save
    return self._save(*args, **kwargs)
  File "/home/frappe/frappe-bench/apps/frappe/frappe/model/document.py", line 296, in _save
    self.insert()
  File "/home/frappe/frappe-bench/apps/frappe/frappe/model/document.py", line 230, in insert
    self.run_before_save_methods()
  File "/home/frappe/frappe-bench/apps/frappe/frappe/model/document.py", line 895, in run_before_save_methods
    self.run_method("validate")
  File "/home/frappe/frappe-bench/apps/frappe/frappe/model/document.py", line 794, in run_method
    out = Document.hook(fn)(self, *args, **kwargs)
  File "/home/frappe/frappe-bench/apps/frappe/frappe/model/document.py", line 1065, in composer
    return composed(self, method, *args, **kwargs)
  File "/home/frappe/frappe-bench/apps/frappe/frappe/model/document.py", line 1048, in runner
    add_to_return_value(self, fn(self, *args, **kwargs))
  File "/home/frappe/frappe-bench/apps/frappe/frappe/model/document.py", line 788, in <lambda>
    fn = lambda self, *args, **kwargs: getattr(self, method)(*args, **kwargs)
  File "/home/frappe/frappe-bench/apps/erpnext/erpnext/accounts/doctype/sales_invoice/sales_invoice.py", line 74, in validate
    super(SalesInvoice, self).validate()
  File "/home/frappe/frappe-bench/apps/erpnext/erpnext/controllers/selling_controller.py", line 39, in validate
    super(SellingController, self).validate()
  File "/home/frappe/frappe-bench/apps/erpnext/erpnext/controllers/stock_controller.py", line 21, in validate
    super(StockController, self).validate()
  File "/home/frappe/frappe-bench/apps/erpnext/erpnext/controllers/accounts_controller.py", line 75, in validate
    self.calculate_taxes_and_totals()
  File "/home/frappe/frappe-bench/apps/erpnext/erpnext/controllers/accounts_controller.py", line 178, in calculate_taxes_and_totals
    calculate_taxes_and_totals(self)
  File "/home/frappe/frappe-bench/apps/erpnext/erpnext/controllers/taxes_and_totals.py", line 16, in __init__
    self.calculate()
  File "/home/frappe/frappe-bench/apps/erpnext/erpnext/controllers/taxes_and_totals.py", line 23, in calculate
    self._calculate()
  File "/home/frappe/frappe-bench/apps/erpnext/erpnext/controllers/taxes_and_totals.py", line 41, in _calculate
    self.calculate_net_total()
  File "/home/frappe/frappe-bench/apps/erpnext/erpnext/controllers/taxes_and_totals.py", line 222, in calculate_net_total
    self.doc.total_qty += item.qty
TypeError: unsupported operand type(s) for +=: 'float' and 'str'
[ERROR] 2021-01-07 05:55:16,844 | /home/frappe/frappe-bench/apps/frappe/frappe/app.py:
Site: site1.local
Form Dict: {
 "action": "Save",
 "cmd": "frappe.desk.form.save.savedocs",
 "doc": "{\"name\":\"ACC-SINV-2021-00001\",\"owner\":\"works@f9tech.com\",\"creation\":\"2021-01-07 11:24:57.459108\",\"modified\":\"2021-01-07 11:24:57.459108\",\"modified_by\":\"works@f9tech.com\",\"parent\":null,\"parentfield\":null,\"parenttype\":null,\"idx\":0,\"docstatus\":0,\"title\":\"Chandan\",\"naming_series\":\"ACC-SINV-.YYYY.-\",\"customer\":\"Chandan\",\"customer_name\":\"Chandan\",\"tax_id\":null,\"ewaybill\":null,\"is_pos\":0,\"pos_profile\":null,\"offline_pos_name\":null,\"is_return\":0,\"company\":\"BGL Stores\",\"posting_date\":\"2021-01-07\",\"posting_time\":\"11:24:57.654314\",\"set_posting_time\":0,\"due_date\":\"2021-01-07\",\"amended_from\":null,\"return_against\":null,\"update_billed_amount_in_sales_order\":0,\"project\":null,\"cost_center\":null,\"po_no\":null,\"po_date\":null,\"customer_address\":\"1-19-158 BC Colony-Billing\",\"billing_address_gstin\":null,\"address_display\":\"46-5-46<br>Jubilee hills<br>Hyderabad<br>\\nAndhra Pradesh<br>535002<br>India<br>\\n\",\"contact_person\":\"Chandan-Chandan\",\"contact_display\":\"Chandan\",\"contact_mobile\":\"9876543210\",\"contact_email\":\"life@f9tech.com\",\"territory\":\"All Territories\",\"shipping_address_name\":\"\",\"customer_gstin\":null,\"place_of_supply\":null,\"shipping_address\":null,\"company_address\":null,\"company_gstin\":null,\"company_address_display\":\"\",\"currency\":\"INR\",\"conversion_rate\":1,\"selling_price_list\":\"Indian Rupees\",\"price_list_currency\":\"INR\",\"plc_conversion_rate\":1,\"ignore_pricing_rule\":0,\"set_warehouse\":null,\"update_stock\":0,\"item_details\":\"CK.WARE\",\"scan_barcode\":\"\",\"total_billing_amount\":0,\"total_qty\":\"05\",\"total_items\":1,\"entered_total_quantity\":null,\"total_amount\":null,\"gross_amount\":null,\"total_discount\":null,\"net_amount\":null,\"base_total\":37500,\"base_net_total\":37500,\"total\":37500,\"net_total\":37500,\"total_net_weight\":0,\"taxes_and_charges\":null,\"shipping_rule\":null,\"tax_category\":\"\",\"other_charges_calculation\":null,\"base_total_taxes_and_charges\":0,\"total_taxes_and_charges\":0,\"loyalty_points\":0,\"loyalty_amount\":0,\"redeem_loyalty_points\":0,\"loyalty_program\":null,\"loyalty_redemption_account\":null,\"loyalty_redemption_cost_center\":null,\"apply_discount_on\":\"Grand Total\",\"base_discount_amount\":0,\"additional_discount_percentage\":0,\"discount_amount\":0,\"base_grand_total\":37500,\"base_rounding_adjustment\":0,\"base_rounded_total\":37500,\"base_in_words\":\"\",\"grand_total\":37500,\"rounding_adjustment\":0,\"rounded_total\":37500,\"in_words\":\"\",\"total_advance\":0,\"outstanding_amount\":37500,\"allocate_advances_automatically\":0,\"payment_terms_template\":null,\"cash_bank_account\":null,\"base_paid_amount\":0,\"paid_amount\":0,\"base_change_amount\":0,\"change_amount\":0,\"account_for_change_amount\":null,\"write_off_amount\":0,\"base_write_off_amount\":0,\"write_off_outstanding_amount_automatically\":0,\"write_off_account\":null,\"write_off_cost_center\":null,\"tc_name\":null,\"terms\":null,\"transporter\":null,\"gst_transporter_id\":null,\"driver\":null,\"lr_no\":null,\"vehicle_no\":null,\"distance\":0,\"transporter_name\":null,\"mode_of_transport\":\"Road\",\"driver_name\":null,\"lr_date\":\"2021-01-07\",\"gst_vehicle_type\":\"Regular\",\"letter_head\":\"BGL Stores\",\"group_same_items\":0,\"language\":\"en\",\"gst_category\":\"Unregistered\",\"export_type\":\"Without Payment of Tax\",\"invoice_copy\":\"Original for Recipient\",\"reverse_charge\":\"N\",\"ecommerce_gstin\":null,\"reason_for_issuing_document\":\"\",\"port_code\":null,\"shipping_bill_number\":null,\"shipping_bill_date\":null,\"select_print_heading\":null,\"inter_company_invoice_reference\":null,\"customer_group\":\"All Customer Groups\",\"campaign\":null,\"is_discounted\":0,\"status\":\"Draft\",\"source\":null,\"debit_to\":\"Debtors - BS\",\"party_account_currency\":\"INR\",\"is_opening\":\"No\",\"c_form_applicable\":\"No\",\"c_form_no\":null,\"remarks\":\"No Remarks\",\"sales_partner\":null,\"commission_rate\":0,\"total_commission\":0,\"from_date\":null,\"to_date\":null,\"auto_repeat\":null,\"against_income_account\":\"\",\"pos_total_qty\":0,\"doctype\":\"Sales Invoice\",\"items\":[{\"docstatus\":0,\"doctype\":\"Sales Invoice Item\",\"name\":\"New Sales Invoice Item 1\",\"__islocal\":1,\"__unsaved\":1,\"owner\":\"works@f9tech.com\",\"margin_type\":\"\",\"is_free_item\":0,\"delivered_by_supplier\":0,\"is_fixed_asset\":0,\"enable_deferred_revenue\":0,\"allow_zero_valuation_rate\":0,\"cost_center\":\"Main - BS\",\"page_break\":0,\"is_group\":0,\"parent\":\"ACC-SINV-2021-00001\",\"parentfield\":\"items\",\"parenttype\":\"Sales Invoice\",\"idx\":1,\"item_code\":\"CK.WARE\",\"item_name\":\"CookWare\",\"qty\":\"5\",\"basic_price\":\"500\",\"gst_hsn_code\":\"999900\",\"location\":\"WH02\",\"bay_number\":\"65\",\"selling_price_without_tax\":\"900\",\"buying_tax\":\"5%\",\"sp_with_tax\":\"945\",\"selling1_tax_amount\":\"45\",\"rate\":7500,\"image\":\"/files/pigeon.jpg\",\"conversion_factor\":0,\"stock_qty\":0,\"price_list_rate\":0,\"base_price_list_rate\":0,\"margin_rate_or_amount\":0,\"rate_with_margin\":0,\"discount_amount\":0,\"base_rate_with_margin\":0,\"amount\":37500,\"base_rate\":7500,\"base_amount\":37500,\"net_rate\":7500,\"net_amount\":37500,\"base_net_rate\":7500,\"base_net_amount\":37500,\"weight_per_unit\":0,\"total_weight\":0,\"actual_batch_qty\":0,\"actual_qty\":0,\"delivered_qty\":0}],\"mcp_items\":[],\"gst_summary\":[],\"pricing_rules\":[],\"packed_items\":[],\"timesheets\":[],\"taxes\":[],\"advances\":[],\"payment_schedule\":[{\"name\":\"452e0621dc\",\"owner\":null,\"creation\":\"2021-01-07 11:24:57.698739\",\"modified\":\"2021-01-07 11:24:57.698739\",\"modified_by\":\"works@f9tech.com\",\"parent\":\"ACC-SINV-2021-00001\",\"parentfield\":\"payment_schedule\",\"parenttype\":\"Sales Invoice\",\"idx\":1,\"docstatus\":0,\"payment_term\":null,\"description\":null,\"due_date\":\"2021-01-07\",\"invoice_portion\":100,\"payment_amount\":0,\"mode_of_payment\":null,\"doctype\":\"Payment Schedule\"}],\"payments\":[],\"sales_team\":[],\"__onload\":{\"make_payment_via_journal_entry\":0},\"__last_sync_on\":\"2021-01-07T05:54:57.296Z\",\"__unsaved\":1}"
}
Request Error
Traceback (most recent call last):
  File "/home/frappe/frappe-bench/apps/frappe/frappe/app.py", line 60, in application
    response = frappe.api.handle()
  File "/home/frappe/frappe-bench/apps/frappe/frappe/api.py", line 55, in handle
    return frappe.handler.handle()
  File "/home/frappe/frappe-bench/apps/frappe/frappe/handler.py", line 22, in handle
    data = execute_cmd(cmd)
  File "/home/frappe/frappe-bench/apps/frappe/frappe/handler.py", line 61, in execute_cmd
    return frappe.call(method, **frappe.form_dict)
  File "/home/frappe/frappe-bench/apps/frappe/frappe/__init__.py", line 1051, in call
    return fn(*args, **newargs)
  File "/home/frappe/frappe-bench/apps/frappe/frappe/desk/form/save.py", line 22, in savedocs
    doc.save()
  File "/home/frappe/frappe-bench/apps/frappe/frappe/model/document.py", line 273, in save
    return self._save(*args, **kwargs)
  File "/home/frappe/frappe-bench/apps/frappe/frappe/model/document.py", line 309, in _save
    self.run_before_save_methods()
  File "/home/frappe/frappe-bench/apps/frappe/frappe/model/document.py", line 895, in run_before_save_methods
    self.run_method("validate")
  File "/home/frappe/frappe-bench/apps/frappe/frappe/model/document.py", line 794, in run_method
    out = Document.hook(fn)(self, *args, **kwargs)
  File "/home/frappe/frappe-bench/apps/frappe/frappe/model/document.py", line 1065, in composer
    return composed(self, method, *args, **kwargs)
  File "/home/frappe/frappe-bench/apps/frappe/frappe/model/document.py", line 1048, in runner
    add_to_return_value(self, fn(self, *args, **kwargs))
  File "/home/frappe/frappe-bench/apps/frappe/frappe/model/document.py", line 788, in <lambda>
    fn = lambda self, *args, **kwargs: getattr(self, method)(*args, **kwargs)
  File "/home/frappe/frappe-bench/apps/erpnext/erpnext/accounts/doctype/sales_invoice/sales_invoice.py", line 74, in validate
    super(SalesInvoice, self).validate()
  File "/home/frappe/frappe-bench/apps/erpnext/erpnext/controllers/selling_controller.py", line 39, in validate
    super(SellingController, self).validate()
  File "/home/frappe/frappe-bench/apps/erpnext/erpnext/controllers/stock_controller.py", line 21, in validate
    super(StockController, self).validate()
  File "/home/frappe/frappe-bench/apps/erpnext/erpnext/controllers/accounts_controller.py", line 75, in validate
    self.calculate_taxes_and_totals()
  File "/home/frappe/frappe-bench/apps/erpnext/erpnext/controllers/accounts_controller.py", line 178, in calculate_taxes_and_totals
    calculate_taxes_and_totals(self)
  File "/home/frappe/frappe-bench/apps/erpnext/erpnext/controllers/taxes_and_totals.py", line 16, in __init__
    self.calculate()
  File "/home/frappe/frappe-bench/apps/erpnext/erpnext/controllers/taxes_and_totals.py", line 23, in calculate
    self._calculate()
  File "/home/frappe/frappe-bench/apps/erpnext/erpnext/controllers/taxes_and_totals.py", line 41, in _calculate
    self.calculate_net_total()
  File "/home/frappe/frappe-bench/apps/erpnext/erpnext/controllers/taxes_and_totals.py", line 222, in calculate_net_total
    self.doc.total_qty += item.qty
TypeError: unsupported operand type(s) for +=: 'float' and 'str'
[ERROR] 2021-01-18 05:30:28,177 | /home/frappe/frappe-bench/apps/frappe/frappe/app.py:
Site: site1.local
Form Dict: {
 "cmd": "frappe.client.get_value",
 "doctype": "Item",
 "fieldname": "item_code",
 "filters": "{\"barcode\":\"8906026971589\"}"
}
Request Error
Traceback (most recent call last):
  File "/home/frappe/frappe-bench/apps/frappe/frappe/app.py", line 60, in application
    response = frappe.api.handle()
  File "/home/frappe/frappe-bench/apps/frappe/frappe/api.py", line 55, in handle
    return frappe.handler.handle()
  File "/home/frappe/frappe-bench/apps/frappe/frappe/handler.py", line 22, in handle
    data = execute_cmd(cmd)
  File "/home/frappe/frappe-bench/apps/frappe/frappe/handler.py", line 61, in execute_cmd
    return frappe.call(method, **frappe.form_dict)
  File "/home/frappe/frappe-bench/apps/frappe/frappe/__init__.py", line 1051, in call
    return fn(*args, **newargs)
  File "/home/frappe/frappe-bench/apps/frappe/frappe/client.py", line 88, in get_value
    return frappe.db.get_value(doctype, filters, fieldname, as_dict=as_dict, debug=debug)
  File "/home/frappe/frappe-bench/apps/frappe/frappe/database/database.py", line 401, in get_value
    order_by, cache=cache)
  File "/home/frappe/frappe-bench/apps/frappe/frappe/database/database.py", line 445, in get_values
    out = self._get_values_from_table(fields, filters, doctype, as_dict, debug, order_by, update)
  File "/home/frappe/frappe-bench/apps/frappe/frappe/database/database.py", line 592, in _get_values_from_table
    as_dict=as_dict, debug=debug, update=update)
  File "/home/frappe/frappe-bench/apps/frappe/frappe/database/database.py", line 156, in sql
    self._cursor.execute(query, values)
  File "/home/frappe/frappe-bench/env/lib/python3.6/site-packages/pymysql/cursors.py", line 170, in execute
    result = self._query(query)
  File "/home/frappe/frappe-bench/env/lib/python3.6/site-packages/pymysql/cursors.py", line 328, in _query
    conn.query(q)
  File "/home/frappe/frappe-bench/env/lib/python3.6/site-packages/pymysql/connections.py", line 517, in query
    self._affected_rows = self._read_query_result(unbuffered=unbuffered)
  File "/home/frappe/frappe-bench/env/lib/python3.6/site-packages/pymysql/connections.py", line 732, in _read_query_result
    result.read()
  File "/home/frappe/frappe-bench/env/lib/python3.6/site-packages/pymysql/connections.py", line 1075, in read
    first_packet = self.connection._read_packet()
  File "/home/frappe/frappe-bench/env/lib/python3.6/site-packages/pymysql/connections.py", line 684, in _read_packet
    packet.check_error()
  File "/home/frappe/frappe-bench/env/lib/python3.6/site-packages/pymysql/protocol.py", line 220, in check_error
    err.raise_mysql_exception(self._data)
  File "/home/frappe/frappe-bench/env/lib/python3.6/site-packages/pymysql/err.py", line 109, in raise_mysql_exception
    raise errorclass(errno, errval)
pymysql.err.InternalError: (1054, "Unknown column 'barcode' in 'where clause'")
[ERROR] 2021-01-18 05:35:41,614 | /home/frappe/frappe-bench/apps/frappe/frappe/app.py:
Site: site1.local
Form Dict: {
 "cmd": "frappe.client.get_value",
 "doctype": "Item",
 "fieldname": "item_code",
 "filters": "{\"barcode\":\"8906026971589\"}"
}
Request Error
Traceback (most recent call last):
  File "/home/frappe/frappe-bench/apps/frappe/frappe/app.py", line 60, in application
    response = frappe.api.handle()
  File "/home/frappe/frappe-bench/apps/frappe/frappe/api.py", line 55, in handle
    return frappe.handler.handle()
  File "/home/frappe/frappe-bench/apps/frappe/frappe/handler.py", line 22, in handle
    data = execute_cmd(cmd)
  File "/home/frappe/frappe-bench/apps/frappe/frappe/handler.py", line 61, in execute_cmd
    return frappe.call(method, **frappe.form_dict)
  File "/home/frappe/frappe-bench/apps/frappe/frappe/__init__.py", line 1051, in call
    return fn(*args, **newargs)
  File "/home/frappe/frappe-bench/apps/frappe/frappe/client.py", line 88, in get_value
    return frappe.db.get_value(doctype, filters, fieldname, as_dict=as_dict, debug=debug)
  File "/home/frappe/frappe-bench/apps/frappe/frappe/database/database.py", line 401, in get_value
    order_by, cache=cache)
  File "/home/frappe/frappe-bench/apps/frappe/frappe/database/database.py", line 445, in get_values
    out = self._get_values_from_table(fields, filters, doctype, as_dict, debug, order_by, update)
  File "/home/frappe/frappe-bench/apps/frappe/frappe/database/database.py", line 592, in _get_values_from_table
    as_dict=as_dict, debug=debug, update=update)
  File "/home/frappe/frappe-bench/apps/frappe/frappe/database/database.py", line 156, in sql
    self._cursor.execute(query, values)
  File "/home/frappe/frappe-bench/env/lib/python3.6/site-packages/pymysql/cursors.py", line 170, in execute
    result = self._query(query)
  File "/home/frappe/frappe-bench/env/lib/python3.6/site-packages/pymysql/cursors.py", line 328, in _query
    conn.query(q)
  File "/home/frappe/frappe-bench/env/lib/python3.6/site-packages/pymysql/connections.py", line 517, in query
    self._affected_rows = self._read_query_result(unbuffered=unbuffered)
  File "/home/frappe/frappe-bench/env/lib/python3.6/site-packages/pymysql/connections.py", line 732, in _read_query_result
    result.read()
  File "/home/frappe/frappe-bench/env/lib/python3.6/site-packages/pymysql/connections.py", line 1075, in read
    first_packet = self.connection._read_packet()
  File "/home/frappe/frappe-bench/env/lib/python3.6/site-packages/pymysql/connections.py", line 684, in _read_packet
    packet.check_error()
  File "/home/frappe/frappe-bench/env/lib/python3.6/site-packages/pymysql/protocol.py", line 220, in check_error
    err.raise_mysql_exception(self._data)
  File "/home/frappe/frappe-bench/env/lib/python3.6/site-packages/pymysql/err.py", line 109, in raise_mysql_exception
    raise errorclass(errno, errval)
pymysql.err.InternalError: (1054, "Unknown column 'barcode' in 'where clause'")
