[ERROR] 2021-01-07 05:51:42,706 | /home/frappe/frappe-bench/apps/frappe/frappe/app.py:
Site: site1.local
Form Dict: {
 "action": "Save",
 "cmd": "frappe.desk.form.save.savedocs",
 "doc": "{\"docstatus\":0,\"doctype\":\"Sales Invoice\",\"name\":\"New Sales Invoice 1\",\"__islocal\":1,\"__unsaved\":1,\"owner\":\"works@f9tech.com\",\"naming_series\":\"ACC-SINV-.YYYY.-\",\"is_pos\":0,\"is_return\":0,\"posting_date\":\"2021-01-07\",\"posting_time\":\"11:16:54\",\"set_posting_time\":0,\"update_billed_amount_in_sales_order\":0,\"territory\":\"All Territories\",\"currency\":\"INR\",\"selling_price_list\":\"Indian Rupees\",\"price_list_currency\":\"INR\",\"ignore_pricing_rule\":0,\"update_stock\":0,\"total_billing_amount\":0,\"redeem_loyalty_points\":0,\"apply_discount_on\":\"Grand Total\",\"allocate_advances_automatically\":0,\"write_off_outstanding_amount_automatically\":0,\"mode_of_transport\":\"Road\",\"lr_date\":\"2021-01-07\",\"gst_vehicle_type\":\"Regular\",\"letter_head\":\"BGL Stores\",\"group_same_items\":0,\"gst_category\":\"Unregistered\",\"export_type\":\"Without Payment of Tax\",\"invoice_copy\":\"Original for Recipient\",\"reverse_charge\":\"N\",\"reason_for_issuing_document\":\"\",\"customer_group\":\"All Customer Groups\",\"is_discounted\":0,\"status\":\"Draft\",\"party_account_currency\":\"INR\",\"is_opening\":\"No\",\"c_form_applicable\":\"No\",\"conversion_rate\":1,\"plc_conversion_rate\":1,\"scan_barcode\":\"\",\"base_net_total\":37500,\"net_total\":37500,\"base_total\":37500,\"total\":37500,\"total_qty\":\"05\",\"rounding_adjustment\":0,\"grand_total\":37500,\"base_grand_total\":37500,\"total_taxes_and_charges\":0,\"base_total_taxes_and_charges\":0,\"base_rounding_adjustment\":0,\"rounded_total\":37500,\"base_rounded_total\":37500,\"in_words\":\"\",\"base_in_words\":\"\",\"base_discount_amount\":0,\"total_advance\":0,\"write_off_amount\":0,\"paid_amount\":0,\"base_paid_amount\":0,\"payments\":[],\"change_amount\":0,\"base_change_amount\":0,\"outstanding_amount\":37500,\"total_commission\":null,\"material_check_point\":\"BGLMCP-21-01-01\",\"mcp_items\":[{\"docstatus\":0,\"doctype\":\"MCP Items\",\"name\":\"New MCP Items 1\",\"__islocal\":1,\"__unsaved\":1,\"owner\":\"works@f9tech.com\",\"parent\":\"New Sales Invoice 1\",\"parentfield\":\"mcp_items\",\"parenttype\":\"Sales Invoice\",\"idx\":1,\"item_code\":\"CK.WARE\",\"item_name\":\"CookWare\"}],\"item_details\":\"CK.WARE\",\"items\":[{\"docstatus\":0,\"doctype\":\"Sales Invoice Item\",\"name\":\"New Sales Invoice Item 1\",\"__islocal\":1,\"__unsaved\":1,\"owner\":\"works@f9tech.com\",\"margin_type\":\"\",\"is_free_item\":0,\"delivered_by_supplier\":0,\"is_fixed_asset\":0,\"enable_deferred_revenue\":0,\"allow_zero_valuation_rate\":0,\"page_break\":0,\"is_group\":0,\"parent\":\"New Sales Invoice 1\",\"parentfield\":\"items\",\"parenttype\":\"Sales Invoice\",\"idx\":1,\"item_code\":\"CK.WARE\",\"item_name\":\"CookWare\",\"qty\":\"5\",\"basic_price\":\"500\",\"gst_hsn_code\":\"999900\",\"location\":\"WH02\",\"bay_number\":\"65\",\"selling_price_without_tax\":\"900\",\"buying_tax\":\"5%\",\"sp_with_tax\":\"945\",\"selling1_tax_amount\":\"45\",\"rate\":7500,\"image\":\"/files/pigeon.jpg\",\"price_list_rate\":7500,\"child_docname\":\"New Sales Invoice Item 1\",\"discount_percentage_on_rate\":[],\"discount_amount_on_rate\":[],\"conversion_factor\":0,\"stock_qty\":0,\"base_price_list_rate\":7500,\"margin_rate_or_amount\":0,\"rate_with_margin\":7500,\"discount_amount\":0,\"base_rate_with_margin\":7500,\"amount\":37500,\"base_rate\":7500,\"base_amount\":37500,\"net_rate\":7500,\"net_amount\":37500,\"base_net_rate\":7500,\"base_net_amount\":37500,\"weight_per_unit\":0,\"total_weight\":0,\"actual_batch_qty\":0,\"actual_qty\":0,\"delivered_qty\":0,\"discount_percentage\":0,\"item_tax_rate\":\"{}\",\"serial_no\":null}],\"total_items\":1,\"company\":\"BGL Stores\",\"company_address\":null,\"company_address_display\":\"\",\"customer_name\":\"Chandan\",\"loyalty_program\":null,\"tax_id\":null,\"customer\":\"Chandan\",\"debit_to\":\"Debtors - BS\",\"due_date\":\"2021-01-07\",\"customer_address\":\"1-19-158 BC Colony-Billing\",\"billing_address_gstin\":null,\"address_display\":\"46-5-46<br>Jubilee hills<br>Hyderabad<br>\\nAndhra Pradesh<br>535002<br>India<br>\\n\",\"shipping_address_name\":\"\",\"shipping_address\":null,\"customer_gstin\":null,\"place_of_supply\":null,\"contact_person\":\"Chandan-Chandan\",\"contact_display\":\"Chandan\",\"contact_email\":\"life@f9tech.com\",\"contact_mobile\":\"9876543210\",\"language\":\"en\",\"tax_category\":\"\",\"taxes_and_charges\":null,\"payment_terms_template\":null,\"sales_team\":[]}"
}
Request Error
Traceback (most recent call last):
  File "/home/frappe/frappe-bench/apps/frappe/frappe/app.py", line 60, in application
    response = frappe.api.handle()
  File "/home/frappe/frappe-bench/apps/frappe/frappe/api.py", line 55, in handle
    return frappe.handler.handle()
  File "/home/frappe/frappe-bench/apps/frappe/frappe/handler.py", line 22, in handle
    data = execute_cmd(cmd)
  File "/home/frappe/frappe-bench/apps/frappe/frappe/handler.py", line 61, in execute_cmd
    return frappe.call(method, **frappe.form_dict)
  File "/home/frappe/frappe-bench/apps/frappe/frappe/__init__.py", line 1051, in call
    return fn(*args, **newargs)
  File "/home/frappe/frappe-bench/apps/frappe/frappe/desk/form/save.py", line 22, in savedocs
    doc.save()
  File "/home/frappe/frappe-bench/apps/frappe/frappe/model/document.py", line 273, in save
    return self._save(*args, **kwargs)
  File "/home/frappe/frappe-bench/apps/frappe/frappe/model/document.py", line 296, in _save
    self.insert()
  File "/home/frappe/frappe-bench/apps/frappe/frappe/model/document.py", line 230, in insert
    self.run_before_save_methods()
  File "/home/frappe/frappe-bench/apps/frappe/frappe/model/document.py", line 895, in run_before_save_methods
    self.run_method("validate")
  File "/home/frappe/frappe-bench/apps/frappe/frappe/model/document.py", line 794, in run_method
    out = Document.hook(fn)(self, *args, **kwargs)
  File "/home/frappe/frappe-bench/apps/frappe/frappe/model/document.py", line 1065, in composer
    return composed(self, method, *args, **kwargs)
  File "/home/frappe/frappe-bench/apps/frappe/frappe/model/document.py", line 1048, in runner
    add_to_return_value(self, fn(self, *args, **kwargs))
  File "/home/frappe/frappe-bench/apps/frappe/frappe/model/document.py", line 788, in <lambda>
    fn = lambda self, *args, **kwargs: getattr(self, method)(*args, **kwargs)
  File "/home/frappe/frappe-bench/apps/erpnext/erpnext/accounts/doctype/sales_invoice/sales_invoice.py", line 74, in validate
    super(SalesInvoice, self).validate()
  File "/home/frappe/frappe-bench/apps/erpnext/erpnext/controllers/selling_controller.py", line 39, in validate
    super(SellingController, self).validate()
  File "/home/frappe/frappe-bench/apps/erpnext/erpnext/controllers/stock_controller.py", line 21, in validate
    super(StockController, self).validate()
  File "/home/frappe/frappe-bench/apps/erpnext/erpnext/controllers/accounts_controller.py", line 75, in validate
    self.calculate_taxes_and_totals()
  File "/home/frappe/frappe-bench/apps/erpnext/erpnext/controllers/accounts_controller.py", line 178, in calculate_taxes_and_totals
    calculate_taxes_and_totals(self)
  File "/home/frappe/frappe-bench/apps/erpnext/erpnext/controllers/taxes_and_totals.py", line 16, in __init__
    self.calculate()
  File "/home/frappe/frappe-bench/apps/erpnext/erpnext/controllers/taxes_and_totals.py", line 23, in calculate
    self._calculate()
  File "/home/frappe/frappe-bench/apps/erpnext/erpnext/controllers/taxes_and_totals.py", line 41, in _calculate
    self.calculate_net_total()
  File "/home/frappe/frappe-bench/apps/erpnext/erpnext/controllers/taxes_and_totals.py", line 222, in calculate_net_total
    self.doc.total_qty += item.qty
TypeError: unsupported operand type(s) for +=: 'float' and 'str'
[ERROR] 2021-01-07 05:53:11,362 | /home/frappe/frappe-bench/apps/frappe/frappe/app.py:
Site: site1.local
Form Dict: {
 "action": "Save",
 "cmd": "frappe.desk.form.save.savedocs",
 "doc": "{\"docstatus\":0,\"doctype\":\"Sales Invoice\",\"name\":\"New Sales Invoice 1\",\"__islocal\":1,\"__unsaved\":1,\"owner\":\"works@f9tech.com\",\"naming_series\":\"ACC-SINV-.YYYY.-\",\"is_pos\":0,\"is_return\":0,\"posting_date\":\"2021-01-07\",\"posting_time\":\"11:16:54\",\"set_posting_time\":0,\"update_billed_amount_in_sales_order\":0,\"territory\":\"All Territories\",\"currency\":\"INR\",\"selling_price_list\":\"Indian Rupees\",\"price_list_currency\":\"INR\",\"ignore_pricing_rule\":0,\"update_stock\":0,\"total_billing_amount\":0,\"redeem_loyalty_points\":0,\"apply_discount_on\":\"Grand Total\",\"allocate_advances_automatically\":0,\"write_off_outstanding_amount_automatically\":0,\"mode_of_transport\":\"Road\",\"lr_date\":\"2021-01-07\",\"gst_vehicle_type\":\"Regular\",\"letter_head\":\"BGL Stores\",\"group_same_items\":0,\"gst_category\":\"Unregistered\",\"export_type\":\"Without Payment of Tax\",\"invoice_copy\":\"Original for Recipient\",\"reverse_charge\":\"N\",\"reason_for_issuing_document\":\"\",\"customer_group\":\"All Customer Groups\",\"is_discounted\":0,\"status\":\"Draft\",\"party_account_currency\":\"INR\",\"is_opening\":\"No\",\"c_form_applicable\":\"No\",\"conversion_rate\":1,\"plc_conversion_rate\":1,\"scan_barcode\":\"\",\"base_net_total\":37500,\"net_total\":37500,\"base_total\":37500,\"total\":37500,\"total_qty\":\"05\",\"rounding_adjustment\":0,\"grand_total\":37500,\"base_grand_total\":37500,\"total_taxes_and_charges\":0,\"base_total_taxes_and_charges\":0,\"base_rounding_adjustment\":0,\"rounded_total\":37500,\"base_rounded_total\":37500,\"in_words\":\"\",\"base_in_words\":\"\",\"base_discount_amount\":0,\"total_advance\":0,\"write_off_amount\":0,\"paid_amount\":0,\"base_paid_amount\":0,\"payments\":[],\"change_amount\":0,\"base_change_amount\":0,\"outstanding_amount\":37500,\"total_commission\":null,\"material_check_point\":\"BGLMCP-21-01-01\",\"mcp_items\":[{\"docstatus\":0,\"doctype\":\"MCP Items\",\"name\":\"New MCP Items 1\",\"__islocal\":1,\"__unsaved\":1,\"owner\":\"works@f9tech.com\",\"parent\":\"New Sales Invoice 1\",\"parentfield\":\"mcp_items\",\"parenttype\":\"Sales Invoice\",\"idx\":1,\"item_code\":\"CK.WARE\",\"item_name\":\"CookWare\"}],\"item_details\":\"CK.WARE\",\"items\":[{\"docstatus\":0,\"doctype\":\"Sales Invoice Item\",\"name\":\"New Sales Invoice Item 1\",\"__islocal\":1,\"__unsaved\":1,\"owner\":\"works@f9tech.com\",\"margin_type\":\"\",\"is_free_item\":0,\"delivered_by_supplier\":0,\"is_fixed_asset\":0,\"enable_deferred_revenue\":0,\"allow_zero_valuation_rate\":0,\"page_break\":0,\"is_group\":0,\"parent\":\"New Sales Invoice 1\",\"parentfield\":\"items\",\"parenttype\":\"Sales Invoice\",\"idx\":1,\"item_code\":\"CK.WARE\",\"item_name\":\"CookWare\",\"qty\":\"5\",\"basic_price\":\"500\",\"gst_hsn_code\":\"999900\",\"location\":\"WH02\",\"bay_number\":\"65\",\"selling_price_without_tax\":\"900\",\"buying_tax\":\"5%\",\"sp_with_tax\":\"945\",\"selling1_tax_amount\":\"45\",\"rate\":7500,\"image\":\"/files/pigeon.jpg\",\"price_list_rate\":7500,\"child_docname\":\"New Sales Invoice Item 1\",\"discount_percentage_on_rate\":[],\"discount_amount_on_rate\":[],\"conversion_factor\":0,\"stock_qty\":0,\"base_price_list_rate\":7500,\"margin_rate_or_amount\":0,\"rate_with_margin\":7500,\"discount_amount\":0,\"base_rate_with_margin\":7500,\"amount\":37500,\"base_rate\":7500,\"base_amount\":37500,\"net_rate\":7500,\"net_amount\":37500,\"base_net_rate\":7500,\"base_net_amount\":37500,\"weight_per_unit\":0,\"total_weight\":0,\"actual_batch_qty\":0,\"actual_qty\":0,\"delivered_qty\":0,\"discount_percentage\":0,\"item_tax_rate\":\"{}\",\"serial_no\":null,\"enter_quantity\":\"50\",\"total_mrp\":375000,\"total_sp_with_tax\":\"45\"}],\"total_items\":1,\"company\":\"BGL Stores\",\"company_address\":null,\"company_address_display\":\"\",\"customer_name\":\"Chandan\",\"loyalty_program\":null,\"tax_id\":null,\"customer\":\"Chandan\",\"debit_to\":\"Debtors - BS\",\"due_date\":\"2021-01-07\",\"customer_address\":\"1-19-158 BC Colony-Billing\",\"billing_address_gstin\":null,\"address_display\":\"46-5-46<br>Jubilee hills<br>Hyderabad<br>\\nAndhra Pradesh<br>535002<br>India<br>\\n\",\"shipping_address_name\":\"\",\"shipping_address\":null,\"customer_gstin\":null,\"place_of_supply\":null,\"contact_person\":\"Chandan-Chandan\",\"contact_display\":\"Chandan\",\"contact_email\":\"life@f9tech.com\",\"contact_mobile\":\"9876543210\",\"language\":\"en\",\"tax_category\":\"\",\"taxes_and_charges\":null,\"payment_terms_template\":null,\"sales_team\":[],\"entered_total_quantity\":50,\"gross_amount\":945,\"total_amount\":375000,\"total_discount\":\"5\",\"net_amount\":47.25}"
}
Request Error
Traceback (most recent call last):
  File "/home/frappe/frappe-bench/apps/frappe/frappe/app.py", line 60, in application
    response = frappe.api.handle()
  File "/home/frappe/frappe-bench/apps/frappe/frappe/api.py", line 55, in handle
    return frappe.handler.handle()
  File "/home/frappe/frappe-bench/apps/frappe/frappe/handler.py", line 22, in handle
    data = execute_cmd(cmd)
  File "/home/frappe/frappe-bench/apps/frappe/frappe/handler.py", line 61, in execute_cmd
    return frappe.call(method, **frappe.form_dict)
  File "/home/frappe/frappe-bench/apps/frappe/frappe/__init__.py", line 1051, in call
    return fn(*args, **newargs)
  File "/home/frappe/frappe-bench/apps/frappe/frappe/desk/form/save.py", line 22, in savedocs
    doc.save()
  File "/home/frappe/frappe-bench/apps/frappe/frappe/model/document.py", line 273, in save
    return self._save(*args, **kwargs)
  File "/home/frappe/frappe-bench/apps/frappe/frappe/model/document.py", line 296, in _save
    self.insert()
  File "/home/frappe/frappe-bench/apps/frappe/frappe/model/document.py", line 230, in insert
    self.run_before_save_methods()
  File "/home/frappe/frappe-bench/apps/frappe/frappe/model/document.py", line 895, in run_before_save_methods
    self.run_method("validate")
  File "/home/frappe/frappe-bench/apps/frappe/frappe/model/document.py", line 794, in run_method
    out = Document.hook(fn)(self, *args, **kwargs)
  File "/home/frappe/frappe-bench/apps/frappe/frappe/model/document.py", line 1065, in composer
    return composed(self, method, *args, **kwargs)
  File "/home/frappe/frappe-bench/apps/frappe/frappe/model/document.py", line 1048, in runner
    add_to_return_value(self, fn(self, *args, **kwargs))
  File "/home/frappe/frappe-bench/apps/frappe/frappe/model/document.py", line 788, in <lambda>
    fn = lambda self, *args, **kwargs: getattr(self, method)(*args, **kwargs)
  File "/home/frappe/frappe-bench/apps/erpnext/erpnext/accounts/doctype/sales_invoice/sales_invoice.py", line 74, in validate
    super(SalesInvoice, self).validate()
  File "/home/frappe/frappe-bench/apps/erpnext/erpnext/controllers/selling_controller.py", line 39, in validate
    super(SellingController, self).validate()
  File "/home/frappe/frappe-bench/apps/erpnext/erpnext/controllers/stock_controller.py", line 21, in validate
    super(StockController, self).validate()
  File "/home/frappe/frappe-bench/apps/erpnext/erpnext/controllers/accounts_controller.py", line 75, in validate
    self.calculate_taxes_and_totals()
  File "/home/frappe/frappe-bench/apps/erpnext/erpnext/controllers/accounts_controller.py", line 178, in calculate_taxes_and_totals
    calculate_taxes_and_totals(self)
  File "/home/frappe/frappe-bench/apps/erpnext/erpnext/controllers/taxes_and_totals.py", line 16, in __init__
    self.calculate()
  File "/home/frappe/frappe-bench/apps/erpnext/erpnext/controllers/taxes_and_totals.py", line 23, in calculate
    self._calculate()
  File "/home/frappe/frappe-bench/apps/erpnext/erpnext/controllers/taxes_and_totals.py", line 41, in _calculate
    self.calculate_net_total()
  File "/home/frappe/frappe-bench/apps/erpnext/erpnext/controllers/taxes_and_totals.py", line 222, in calculate_net_total
    self.doc.total_qty += item.qty
TypeError: unsupported operand type(s) for +=: 'float' and 'str'
[ERROR] 2021-01-07 05:54:24,415 | /home/frappe/frappe-bench/apps/frappe/frappe/app.py:
Site: site1.local
Form Dict: {
 "action": "Save",
 "cmd": "frappe.desk.form.save.savedocs",
 "doc": "{\"docstatus\":0,\"doctype\":\"Sales Invoice\",\"name\":\"New Sales Invoice 1\",\"__islocal\":1,\"__unsaved\":1,\"owner\":\"works@f9tech.com\",\"naming_series\":\"ACC-SINV-.YYYY.-\",\"is_pos\":0,\"is_return\":0,\"posting_date\":\"2021-01-07\",\"posting_time\":\"11:24:05\",\"set_posting_time\":0,\"update_billed_amount_in_sales_order\":0,\"territory\":\"All Territories\",\"currency\":\"INR\",\"selling_price_list\":\"Indian Rupees\",\"price_list_currency\":\"INR\",\"ignore_pricing_rule\":0,\"update_stock\":0,\"total_billing_amount\":0,\"redeem_loyalty_points\":0,\"apply_discount_on\":\"Grand Total\",\"allocate_advances_automatically\":0,\"write_off_outstanding_amount_automatically\":0,\"mode_of_transport\":\"Road\",\"lr_date\":\"2021-01-07\",\"gst_vehicle_type\":\"Regular\",\"letter_head\":\"BGL Stores\",\"group_same_items\":0,\"gst_category\":\"Unregistered\",\"export_type\":\"Without Payment of Tax\",\"invoice_copy\":\"Original for Recipient\",\"reverse_charge\":\"N\",\"reason_for_issuing_document\":\"\",\"customer_group\":\"All Customer Groups\",\"is_discounted\":0,\"status\":\"Draft\",\"party_account_currency\":\"INR\",\"is_opening\":\"No\",\"c_form_applicable\":\"No\",\"plc_conversion_rate\":1,\"conversion_rate\":1,\"scan_barcode\":\"\",\"base_net_total\":37500,\"net_total\":37500,\"base_total\":37500,\"total\":37500,\"total_qty\":\"05\",\"rounding_adjustment\":0,\"grand_total\":37500,\"base_grand_total\":37500,\"total_taxes_and_charges\":0,\"base_total_taxes_and_charges\":0,\"base_rounding_adjustment\":0,\"rounded_total\":37500,\"base_rounded_total\":37500,\"in_words\":\"\",\"base_in_words\":\"\",\"base_discount_amount\":0,\"total_advance\":0,\"write_off_amount\":0,\"paid_amount\":0,\"base_paid_amount\":0,\"payments\":[],\"change_amount\":0,\"base_change_amount\":0,\"outstanding_amount\":37500,\"total_commission\":null,\"company\":\"BGL Stores\",\"company_address\":null,\"company_address_display\":\"\",\"customer_name\":\"Ananya\",\"loyalty_program\":null,\"tax_id\":null,\"customer\":\"9685741230-Ananya01\",\"debit_to\":\"Debtors - BS\",\"due_date\":\"2021-01-07\",\"customer_address\":\"Ananya Apartments-Shipping\",\"billing_address_gstin\":null,\"address_display\":\"1798<br>hi<br>hello<br>\\nhow <br>52502<br>India<br>\\nPhone: 98968964688<br>Landline: 697498798796<br>Fax: 46468869<br>Email: you@gmail.com<br>\",\"shipping_address_name\":\"Ananya Apartments-Shipping\",\"shipping_address\":\"1798<br>hi<br>hello<br>\\nhow <br>52502<br>India<br>\\nPhone: 98968964688<br>Landline: 697498798796<br>Fax: 46468869<br>Email: you@gmail.com<br>\",\"customer_gstin\":null,\"place_of_supply\":null,\"contact_person\":\"9685741230-Ananya01-9685741230-Ananya01\",\"contact_display\":\"9685741230-Ananya01\",\"contact_email\":\"\",\"contact_mobile\":\"9685741230\",\"language\":\"en\",\"tax_category\":\"\",\"taxes_and_charges\":null,\"payment_terms_template\":null,\"sales_team\":[],\"item_details\":\"CK.WARE\",\"items\":[{\"docstatus\":0,\"doctype\":\"Sales Invoice Item\",\"name\":\"New Sales Invoice Item 1\",\"__islocal\":1,\"__unsaved\":1,\"owner\":\"works@f9tech.com\",\"margin_type\":\"\",\"is_free_item\":0,\"delivered_by_supplier\":0,\"is_fixed_asset\":0,\"enable_deferred_revenue\":0,\"allow_zero_valuation_rate\":0,\"cost_center\":\"Main - BS\",\"page_break\":0,\"is_group\":0,\"parent\":\"New Sales Invoice 1\",\"parentfield\":\"items\",\"parenttype\":\"Sales Invoice\",\"idx\":1,\"item_code\":\"CK.WARE\",\"item_name\":\"CookWare\",\"qty\":\"5\",\"basic_price\":\"500\",\"gst_hsn_code\":\"999900\",\"location\":\"WH02\",\"bay_number\":\"65\",\"selling_price_without_tax\":\"900\",\"buying_tax\":\"5%\",\"sp_with_tax\":\"945\",\"selling1_tax_amount\":\"45\",\"rate\":7500,\"image\":\"/files/pigeon.jpg\",\"conversion_factor\":0,\"stock_qty\":0,\"price_list_rate\":0,\"base_price_list_rate\":0,\"margin_rate_or_amount\":0,\"rate_with_margin\":0,\"discount_amount\":0,\"base_rate_with_margin\":0,\"amount\":37500,\"base_rate\":7500,\"base_amount\":37500,\"net_rate\":7500,\"net_amount\":37500,\"base_net_rate\":7500,\"base_net_amount\":37500,\"weight_per_unit\":0,\"total_weight\":0,\"actual_batch_qty\":0,\"actual_qty\":0,\"delivered_qty\":0}],\"total_items\":1}"
}
Request Error
Traceback (most recent call last):
  File "/home/frappe/frappe-bench/apps/frappe/frappe/app.py", line 60, in application
    response = frappe.api.handle()
  File "/home/frappe/frappe-bench/apps/frappe/frappe/api.py", line 55, in handle
    return frappe.handler.handle()
  File "/home/frappe/frappe-bench/apps/frappe/frappe/handler.py", line 22, in handle
    data = execute_cmd(cmd)
  File "/home/frappe/frappe-bench/apps/frappe/frappe/handler.py", line 61, in execute_cmd
    return frappe.call(method, **frappe.form_dict)
  File "/home/frappe/frappe-bench/apps/frappe/frappe/__init__.py", line 1051, in call
    return fn(*args, **newargs)
  File "/home/frappe/frappe-bench/apps/frappe/frappe/desk/form/save.py", line 22, in savedocs
    doc.save()
  File "/home/frappe/frappe-bench/apps/frappe/frappe/model/document.py", line 273, in save
    return self._save(*args, **kwargs)
  File "/home/frappe/frappe-bench/apps/frappe/frappe/model/document.py", line 296, in _save
    self.insert()
  File "/home/frappe/frappe-bench/apps/frappe/frappe/model/document.py", line 230, in insert
    self.run_before_save_methods()
  File "/home/frappe/frappe-bench/apps/frappe/frappe/model/document.py", line 895, in run_before_save_methods
    self.run_method("validate")
  File "/home/frappe/frappe-bench/apps/frappe/frappe/model/document.py", line 794, in run_method
    out = Document.hook(fn)(self, *args, **kwargs)
  File "/home/frappe/frappe-bench/apps/frappe/frappe/model/document.py", line 1065, in composer
    return composed(self, method, *args, **kwargs)
  File "/home/frappe/frappe-bench/apps/frappe/frappe/model/document.py", line 1048, in runner
    add_to_return_value(self, fn(self, *args, **kwargs))
  File "/home/frappe/frappe-bench/apps/frappe/frappe/model/document.py", line 788, in <lambda>
    fn = lambda self, *args, **kwargs: getattr(self, method)(*args, **kwargs)
  File "/home/frappe/frappe-bench/apps/erpnext/erpnext/accounts/doctype/sales_invoice/sales_invoice.py", line 74, in validate
    super(SalesInvoice, self).validate()
  File "/home/frappe/frappe-bench/apps/erpnext/erpnext/controllers/selling_controller.py", line 39, in validate
    super(SellingController, self).validate()
  File "/home/frappe/frappe-bench/apps/erpnext/erpnext/controllers/stock_controller.py", line 21, in validate
    super(StockController, self).validate()
  File "/home/frappe/frappe-bench/apps/erpnext/erpnext/controllers/accounts_controller.py", line 75, in validate
    self.calculate_taxes_and_totals()
  File "/home/frappe/frappe-bench/apps/erpnext/erpnext/controllers/accounts_controller.py", line 178, in calculate_taxes_and_totals
    calculate_taxes_and_totals(self)
  File "/home/frappe/frappe-bench/apps/erpnext/erpnext/controllers/taxes_and_totals.py", line 16, in __init__
    self.calculate()
  File "/home/frappe/frappe-bench/apps/erpnext/erpnext/controllers/taxes_and_totals.py", line 23, in calculate
    self._calculate()
  File "/home/frappe/frappe-bench/apps/erpnext/erpnext/controllers/taxes_and_totals.py", line 41, in _calculate
    self.calculate_net_total()
  File "/home/frappe/frappe-bench/apps/erpnext/erpnext/controllers/taxes_and_totals.py", line 222, in calculate_net_total
    self.doc.total_qty += item.qty
TypeError: unsupported operand type(s) for +=: 'float' and 'str'
[ERROR] 2021-01-18 05:36:17,618 | /home/frappe/frappe-bench/apps/frappe/frappe/app.py:
Site: site1.local
Form Dict: {
 "cmd": "frappe.client.get_value",
 "doctype": "Item",
 "fieldname": "item_code",
 "filters": "{\"barcode\":\"8906026971589\"}"
}
Request Error
Traceback (most recent call last):
  File "/home/frappe/frappe-bench/apps/frappe/frappe/app.py", line 60, in application
    response = frappe.api.handle()
  File "/home/frappe/frappe-bench/apps/frappe/frappe/api.py", line 55, in handle
    return frappe.handler.handle()
  File "/home/frappe/frappe-bench/apps/frappe/frappe/handler.py", line 22, in handle
    data = execute_cmd(cmd)
  File "/home/frappe/frappe-bench/apps/frappe/frappe/handler.py", line 61, in execute_cmd
    return frappe.call(method, **frappe.form_dict)
  File "/home/frappe/frappe-bench/apps/frappe/frappe/__init__.py", line 1051, in call
    return fn(*args, **newargs)
  File "/home/frappe/frappe-bench/apps/frappe/frappe/client.py", line 88, in get_value
    return frappe.db.get_value(doctype, filters, fieldname, as_dict=as_dict, debug=debug)
  File "/home/frappe/frappe-bench/apps/frappe/frappe/database/database.py", line 401, in get_value
    order_by, cache=cache)
  File "/home/frappe/frappe-bench/apps/frappe/frappe/database/database.py", line 445, in get_values
    out = self._get_values_from_table(fields, filters, doctype, as_dict, debug, order_by, update)
  File "/home/frappe/frappe-bench/apps/frappe/frappe/database/database.py", line 592, in _get_values_from_table
    as_dict=as_dict, debug=debug, update=update)
  File "/home/frappe/frappe-bench/apps/frappe/frappe/database/database.py", line 156, in sql
    self._cursor.execute(query, values)
  File "/home/frappe/frappe-bench/env/lib/python3.6/site-packages/pymysql/cursors.py", line 170, in execute
    result = self._query(query)
  File "/home/frappe/frappe-bench/env/lib/python3.6/site-packages/pymysql/cursors.py", line 328, in _query
    conn.query(q)
  File "/home/frappe/frappe-bench/env/lib/python3.6/site-packages/pymysql/connections.py", line 517, in query
    self._affected_rows = self._read_query_result(unbuffered=unbuffered)
  File "/home/frappe/frappe-bench/env/lib/python3.6/site-packages/pymysql/connections.py", line 732, in _read_query_result
    result.read()
  File "/home/frappe/frappe-bench/env/lib/python3.6/site-packages/pymysql/connections.py", line 1075, in read
    first_packet = self.connection._read_packet()
  File "/home/frappe/frappe-bench/env/lib/python3.6/site-packages/pymysql/connections.py", line 684, in _read_packet
    packet.check_error()
  File "/home/frappe/frappe-bench/env/lib/python3.6/site-packages/pymysql/protocol.py", line 220, in check_error
    err.raise_mysql_exception(self._data)
  File "/home/frappe/frappe-bench/env/lib/python3.6/site-packages/pymysql/err.py", line 109, in raise_mysql_exception
    raise errorclass(errno, errval)
pymysql.err.InternalError: (1054, "Unknown column 'barcode' in 'where clause'")
