[ERROR] 2021-01-20 06:03:46,504 | /home/frappe/frappe-bench/apps/frappe/frappe/app.py:
Site: site1.local
Form Dict: {
 "action": "Save",
 "cmd": "frappe.desk.form.save.savedocs",
 "doc": "{\"name\":\"Item\",\"creation\":\"2013-05-03 10:45:46\",\"modified\":\"2021-01-19 16:50:09.686904\",\"modified_by\":\"works@f9tech.com\",\"owner\":\"Administrator\",\"docstatus\":0,\"idx\":2,\"search_fields\":\"item_name,description,item_group,customer_code\",\"issingle\":0,\"is_tree\":0,\"istable\":0,\"editable_grid\":1,\"track_changes\":1,\"module\":\"Stock\",\"autoname\":\"field:item_code\",\"title_field\":\"item_name\",\"image_field\":\"image\",\"sort_field\":\"idx desc,modified desc\",\"sort_order\":\"DESC\",\"description\":\"A Product or a Service that is bought, sold or kept in stock.\",\"read_only\":0,\"in_create\":0,\"allow_copy\":0,\"allow_rename\":1,\"allow_import\":1,\"hide_toolbar\":0,\"track_seen\":0,\"max_attachments\":1,\"document_type\":\"Setup\",\"icon\":\"fa fa-tag\",\"engine\":\"InnoDB\",\"is_submittable\":0,\"show_name_in_global_search\":1,\"custom\":0,\"beta\":0,\"has_web_view\":1,\"allow_guest_to_view\":1,\"track_views\":0,\"allow_auto_repeat\":0,\"allow_events_in_timeline\":0,\"quick_entry\":1,\"show_preview_popup\":1,\"doctype\":\"DocType\",\"fields\":[{\"name\":\"40b6db072c\",\"creation\":\"2013-05-03 10:45:46\",\"modified\":\"2021-01-19 16:50:09.686904\",\"modified_by\":\"works@f9tech.com\",\"owner\":\"Administrator\",\"docstatus\":0,\"parent\":\"Item\",\"parentfield\":\"fields\",\"parenttype\":\"DocType\",\"idx\":1,\"fieldname\":\"name_and_description_section\",\"fieldtype\":\"Section Break\",\"oldfieldtype\":\"Section Break\",\"options\":\"fa fa-flag\",\"search_index\":0,\"hidden\":0,\"set_only_once\":0,\"allow_in_quick_entry\":0,\"print_hide\":0,\"report_hide\":0,\"reqd\":0,\"bold\":0,\"in_global_search\":0,\"collapsible\":0,\"unique\":0,\"no_copy\":0,\"allow_on_submit\":0,\"show_preview_popup\":0,\"permlevel\":0,\"ignore_user_permissions\":0,\"columns\":0,\"in_list_view\":0,\"fetch_if_empty\":0,\"in_filter\":0,\"remember_last_selected_value\":0,\"ignore_xss_filter\":0,\"print_hide_if_no_value\":0,\"allow_bulk_edit\":0,\"in_standard_filter\":0,\"in_preview\":0,\"read_only\":0,\"length\":0,\"translatable\":0,\"doctype\":\"DocField\"},{\"name\":\"9eaf14be6f\",\"creation\":\"2013-05-03 10:45:46\",\"modified\":\"2021-01-19 16:50:09.686904\",\"modified_by\":\"works@f9tech.com\",\"owner\":\"Administrator\",\"docstatus\":0,\"parent\":\"Item\",\"parentfield\":\"fields\",\"parenttype\":\"DocType\",\"idx\":2,\"fieldname\":\"naming_series\",\"label\":\"Series\",\"fieldtype\":\"Select\",\"options\":\"STO-ITEM-.YYYY.-\",\"search_index\":0,\"hidden\":0,\"set_only_once\":1,\"allow_in_quick_entry\":0,\"print_hide\":0,\"report_hide\":0,\"reqd\":0,\"bold\":0,\"in_global_search\":0,\"collapsible\":0,\"unique\":0,\"no_copy\":0,\"allow_on_submit\":0,\"show_preview_popup\":0,\"permlevel\":0,\"ignore_user_permissions\":0,\"columns\":0,\"in_list_view\":0,\"fetch_if_empty\":0,\"in_filter\":0,\"remember_last_selected_value\":0,\"ignore_xss_filter\":0,\"print_hide_if_no_value\":0,\"allow_bulk_edit\":0,\"in_standard_filter\":0,\"in_preview\":0,\"read_only\":0,\"length\":0,\"translatable\":0,\"doctype\":\"DocField\"},{\"name\":\"b7bebf267d\",\"creation\":\"2013-05-03 10:45:46\",\"modified\":\"2021-01-19 16:50:09.686904\",\"modified_by\":\"works@f9tech.com\",\"owner\":\"works@f9tech.com\",\"docstatus\":0,\"parent\":\"Item\",\"parentfield\":\"fields\",\"parenttype\":\"DocType\",\"idx\":3,\"fieldname\":\"item_name\",\"label\":\"Item Name\",\"fieldtype\":\"Data\",\"search_index\":0,\"hidden\":0,\"set_only_once\":0,\"allow_in_quick_entry\":0,\"print_hide\":0,\"report_hide\":0,\"reqd\":0,\"bold\":1,\"in_global_search\":1,\"collapsible\":0,\"unique\":0,\"no_copy\":0,\"allow_on_submit\":0,\"show_preview_popup\":0,\"permlevel\":0,\"ignore_user_permissions\":0,\"columns\":0,\"in_list_view\":0,\"fetch_if_empty\":0,\"in_filter\":0,\"remember_last_selected_value\":0,\"ignore_xss_filter\":0,\"print_hide_if_no_value\":0,\"allow_bulk_edit\":0,\"in_standard_filter\":0,\"in_preview\":0,\"read_only\":0,\"precision\":\"\",\"length\":0,\"translatable\":0,\"doctype\":\"DocField\"},{\"name\":\"be68bbb753\",\"creation\":\"2013-05-03 10:45:46\",\"modified\":\"2021-01-19 16:50:09.686904\",\"modified_by\":\"works@f9tech.com\",\"owner\":\"works@f9tech.com\",\"docstatus\":0,\"parent\":\"Item\",\"parentfield\":\"fields\",\"parenttype\":\"DocType\",\"idx\":4,\"fieldname\":\"variant_of\",\"label\":\"Variant Of\",\"fieldtype\":\"Link\",\"options\":\"Item\",\"search_index\":0,\"hidden\":0,\"set_only_once\":0,\"allow_in_quick_entry\":0,\"print_hide\":0,\"report_hide\":0,\"reqd\":0,\"bold\":0,\"in_global_search\":0,\"collapsible\":0,\"unique\":0,\"no_copy\":0,\"allow_on_submit\":0,\"show_preview_popup\":0,\"depends_on\":\"variant_of\",\"permlevel\":0,\"ignore_user_permissions\":1,\"columns\":0,\"in_list_view\":0,\"fetch_if_empty\":0,\"in_filter\":0,\"remember_last_selected_value\":0,\"ignore_xss_filter\":0,\"print_hide_if_no_value\":0,\"allow_bulk_edit\":0,\"in_standard_filter\":1,\"in_preview\":0,\"read_only\":1,\"precision\":\"\",\"length\":0,\"translatable\":0,\"doctype\":\"DocField\"},{\"name\":\"db44911348\",\"creation\":\"2013-05-03 10:45:46\",\"modified\":\"2021-01-19 16:50:09.686904\",\"modified_by\":\"works@f9tech.com\",\"owner\":\"works@f9tech.com\",\"docstatus\":0,\"parent\":\"Item\",\"parentfield\":\"fields\",\"parenttype\":\"DocType\",\"idx\":5,\"fieldname\":\"description\",\"label\":\"Item Description\",\"fieldtype\":\"Text Editor\",\"search_index\":0,\"hidden\":0,\"set_only_once\":0,\"allow_in_quick_entry\":0,\"print_hide\":0,\"report_hide\":0,\"reqd\":0,\"bold\":0,\"in_global_search\":0,\"collapsible\":0,\"unique\":0,\"no_copy\":0,\"allow_on_submit\":0,\"show_preview_popup\":0,\"depends_on\":\"\",\"permlevel\":0,\"ignore_user_permissions\":0,\"columns\":0,\"in_list_view\":0,\"fetch_if_empty\":0,\"in_filter\":0,\"remember_last_selected_value\":0,\"ignore_xss_filter\":0,\"print_hide_if_no_value\":0,\"allow_bulk_edit\":0,\"in_standard_filter\":0,\"in_preview\":0,\"read_only\":0,\"precision\":\"\",\"length\":0,\"translatable\":0,\"doctype\":\"DocField\"},{\"name\":\"7888ee6fa7\",\"creation\":\"2013-05-03 10:45:46\",\"modified\":\"2021-01-19 16:50:09.686904\",\"modified_by\":\"works@f9tech.com\",\"owner\":\"Administrator\",\"docstatus\":0,\"parent\":\"Item\",\"parentfield\":\"fields\",\"parenttype\":\"DocType\",\"idx\":6,\"fieldname\":\"column_break0\",\"fieldtype\":\"Column Break\",\"search_index\":0,\"hidden\":0,\"set_only_once\":0,\"allow_in_quick_entry\":0,\"print_hide\":0,\"report_hide\":0,\"reqd\":0,\"bold\":0,\"in_global_search\":0,\"collapsible\":0,\"unique\":0,\"no_copy\":0,\"allow_on_submit\":0,\"show_preview_popup\":0,\"permlevel\":0,\"ignore_user_permissions\":0,\"columns\":0,\"in_list_view\":0,\"fetch_if_empty\":0,\"in_filter\":0,\"remember_last_selected_value\":0,\"ignore_xss_filter\":0,\"print_hide_if_no_value\":0,\"allow_bulk_edit\":0,\"in_standard_filter\":0,\"in_preview\":0,\"read_only\":0,\"length\":0,\"translatable\":0,\"doctype\":\"DocField\"},{\"name\":\"1b115cd51f\",\"creation\":\"2013-05-03 10:45:46\",\"modified\":\"2021-01-19 16:50:09.686904\",\"modified_by\":\"works@f9tech.com\",\"owner\":\"Administrator\",\"docstatus\":0,\"parent\":\"Item\",\"parentfield\":\"fields\",\"parenttype\":\"DocType\",\"idx\":7,\"fieldname\":\"is_stock_item\",\"label\":\"Maintain Stock\",\"oldfieldname\":\"is_stock_item\",\"fieldtype\":\"Check\",\"oldfieldtype\":\"Select\",\"search_index\":0,\"hidden\":0,\"set_only_once\":0,\"allow_in_quick_entry\":0,\"print_hide\":0,\"report_hide\":0,\"reqd\":0,\"bold\":1,\"in_global_search\":0,\"collapsible\":0,\"unique\":0,\"no_copy\":0,\"allow_on_submit\":0,\"show_preview_popup\":0,\"permlevel\":0,\"ignore_user_permissions\":0,\"columns\":0,\"default\":\"1\",\"in_list_view\":0,\"fetch_if_empty\":0,\"in_filter\":0,\"remember_last_selected_value\":0,\"ignore_xss_filter\":0,\"print_hide_if_no_value\":0,\"allow_bulk_edit\":0,\"in_standard_filter\":0,\"in_preview\":0,\"read_only\":0,\"length\":0,\"translatable\":0,\"doctype\":\"DocField\"},{\"name\":\"0b2a49b47a\",\"creation\":\"2013-05-03 10:45:46\",\"modified\":\"2021-01-19 16:50:09.686904\",\"modified_by\":\"works@f9tech.com\",\"owner\":\"Administrator\",\"docstatus\":0,\"parent\":\"Item\",\"parentfield\":\"fields\",\"parenttype\":\"DocType\",\"idx\":8,\"fieldname\":\"item_code\",\"label\":\"Item Code\",\"oldfieldname\":\"item_code\",\"fieldtype\":\"Data\",\"oldfieldtype\":\"Data\",\"search_index\":0,\"hidden\":0,\"set_only_once\":0,\"allow_in_quick_entry\":0,\"print_hide\":0,\"report_hide\":0,\"reqd\":1,\"bold\":1,\"in_global_search\":1,\"collapsible\":0,\"unique\":1,\"no_copy\":0,\"allow_on_submit\":0,\"show_preview_popup\":0,\"permlevel\":0,\"ignore_user_permissions\":0,\"columns\":0,\"in_list_view\":0,\"fetch_if_empty\":0,\"in_filter\":0,\"remember_last_selected_value\":0,\"ignore_xss_filter\":0,\"print_hide_if_no_value\":0,\"allow_bulk_edit\":0,\"in_standard_filter\":0,\"in_preview\":0,\"read_only\":0,\"length\":0,\"translatable\":0,\"doctype\":\"DocField\"},{\"name\":\"c0345f5465\",\"creation\":\"2013-05-03 10:45:46\",\"modified\":\"2021-01-19 16:50:09.686904\",\"modified_by\":\"works@f9tech.com\",\"owner\":\"Administrator\",\"docstatus\":0,\"parent\":\"Item\",\"parentfield\":\"fields\",\"parenttype\":\"DocType\",\"idx\":9,\"fieldname\":\"standard_rate\",\"label\":\"MRP\",\"fieldtype\":\"Currency\",\"search_index\":0,\"hidden\":0,\"set_only_once\":0,\"allow_in_quick_entry\":0,\"print_hide\":0,\"report_hide\":0,\"reqd\":0,\"bold\":1,\"in_global_search\":0,\"collapsible\":0,\"unique\":0,\"no_copy\":0,\"allow_on_submit\":0,\"show_preview_popup\":0,\"depends_on\":\"eval:doc.__islocal\",\"permlevel\":0,\"ignore_user_permissions\":0,\"columns\":0,\"in_list_view\":0,\"fetch_if_empty\":0,\"in_filter\":0,\"remember_last_selected_value\":0,\"ignore_xss_filter\":0,\"print_hide_if_no_value\":0,\"allow_bulk_edit\":0,\"in_standard_filter\":0,\"in_preview\":0,\"read_only\":0,\"length\":0,\"translatable\":0,\"doctype\":\"DocField\"},{\"name\":\"8ed42cb69e\",\"creation\":\"2013-05-03 10:45:46\",\"modified\":\"2021-01-19 16:50:09.686904\",\"modified_by\":\"works@f9tech.com\",\"owner\":\"Administrator\",\"docstatus\":0,\"parent\":\"Item\",\"parentfield\":\"fields\",\"parenttype\":\"DocType\",\"idx\":10,\"fieldname\":\"item_group\",\"label\":\"Item Group\",\"oldfieldname\":\"item_group\",\"fieldtype\":\"Link\",\"oldfieldtype\":\"Link\",\"options\":\"Item Group\",\"search_index\":1,\"hidden\":0,\"set_only_once\":0,\"allow_in_quick_entry\":0,\"print_hide\":0,\"report_hide\":0,\"reqd\":1,\"bold\":0,\"in_global_search\":0,\"collapsible\":0,\"unique\":0,\"no_copy\":0,\"allow_on_submit\":0,\"show_preview_popup\":0,\"depends_on\":\"\",\"permlevel\":0,\"ignore_user_permissions\":0,\"columns\":0,\"in_list_view\":1,\"fetch_if_empty\":0,\"in_filter\":0,\"remember_last_selected_value\":0,\"ignore_xss_filter\":0,\"print_hide_if_no_value\":0,\"allow_bulk_edit\":0,\"in_standard_filter\":1,\"in_preview\":1,\"read_only\":0,\"length\":0,\"translatable\":0,\"doctype\":\"DocField\"},{\"name\":\"0b2f622b9d\",\"creation\":\"2013-05-03 10:45:46\",\"modified\":\"2021-01-19 16:50:09.686904\",\"modified_by\":\"works@f9tech.com\",\"owner\":\"works@f9tech.com\",\"docstatus\":0,\"parent\":\"Item\",\"parentfield\":\"fields\",\"parenttype\":\"DocType\",\"idx\":11,\"fieldname\":\"gst_hsn_code\",\"label\":\"HSN Code\",\"fieldtype\":\"Link\",\"options\":\"GST HSN Code\",\"search_index\":0,\"hidden\":0,\"set_only_once\":0,\"allow_in_quick_entry\":0,\"print_hide\":0,\"report_hide\":0,\"reqd\":0,\"bold\":0,\"in_global_search\":0,\"collapsible\":0,\"unique\":0,\"no_copy\":0,\"allow_on_submit\":0,\"show_preview_popup\":0,\"permlevel\":0,\"ignore_user_permissions\":0,\"columns\":0,\"in_list_view\":0,\"fetch_if_empty\":0,\"in_filter\":0,\"remember_last_selected_value\":0,\"ignore_xss_filter\":0,\"print_hide_if_no_value\":0,\"allow_bulk_edit\":0,\"in_standard_filter\":0,\"in_preview\":0,\"read_only\":0,\"precision\":\"\",\"length\":0,\"translatable\":0,\"doctype\":\"DocField\"},{\"name\":\"7242c0cc20\",\"creation\":\"2013-05-03 10:45:46\",\"modified\":\"2021-01-19 16:50:09.686904\",\"modified_by\":\"works@f9tech.com\",\"owner\":\"Administrator\",\"docstatus\":0,\"parent\":\"Item\",\"parentfield\":\"fields\",\"parenttype\":\"DocType\",\"idx\":12,\"fieldname\":\"over_delivery_receipt_allowance\",\"label\":\"Over Delivery/Receipt Allowance (%)\",\"oldfieldname\":\"tolerance\",\"fieldtype\":\"Float\",\"oldfieldtype\":\"Currency\",\"search_index\":0,\"hidden\":0,\"set_only_once\":0,\"allow_in_quick_entry\":0,\"print_hide\":0,\"report_hide\":0,\"reqd\":0,\"bold\":0,\"in_global_search\":0,\"collapsible\":0,\"unique\":0,\"no_copy\":0,\"allow_on_submit\":0,\"show_preview_popup\":0,\"depends_on\":\"eval:!doc.__islocal\",\"permlevel\":0,\"ignore_user_permissions\":0,\"columns\":0,\"in_list_view\":0,\"fetch_if_empty\":0,\"in_filter\":0,\"remember_last_selected_value\":0,\"ignore_xss_filter\":0,\"print_hide_if_no_value\":0,\"allow_bulk_edit\":0,\"in_standard_filter\":0,\"in_preview\":0,\"read_only\":0,\"length\":0,\"translatable\":0,\"doctype\":\"DocField\"},{\"name\":\"2428b9645e\",\"creation\":\"2013-05-03 10:45:46\",\"modified\":\"2021-01-19 16:50:09.686904\",\"modified_by\":\"works@f9tech.com\",\"owner\":\"Administrator\",\"docstatus\":0,\"parent\":\"Item\",\"parentfield\":\"fields\",\"parenttype\":\"DocType\",\"idx\":13,\"fieldname\":\"stock_uom\",\"label\":\"UOM\",\"oldfieldname\":\"stock_uom\",\"fieldtype\":\"Link\",\"oldfieldtype\":\"Link\",\"options\":\"UOM\",\"search_index\":0,\"hidden\":0,\"set_only_once\":0,\"allow_in_quick_entry\":0,\"print_hide\":0,\"report_hide\":0,\"reqd\":1,\"bold\":0,\"in_global_search\":0,\"collapsible\":0,\"unique\":0,\"no_copy\":0,\"allow_on_submit\":0,\"show_preview_popup\":0,\"permlevel\":0,\"ignore_user_permissions\":1,\"columns\":0,\"in_list_view\":0,\"fetch_if_empty\":0,\"in_filter\":0,\"remember_last_selected_value\":0,\"ignore_xss_filter\":0,\"print_hide_if_no_value\":0,\"allow_bulk_edit\":0,\"in_standard_filter\":0,\"in_preview\":0,\"read_only\":0,\"length\":0,\"translatable\":0,\"doctype\":\"DocField\"},{\"name\":\"fd7bfe591d\",\"creation\":\"2013-05-03 10:45:46\",\"modified\":\"2021-01-19 16:50:09.686904\",\"modified_by\":\"works@f9tech.com\",\"owner\":\"Administrator\",\"docstatus\":0,\"parent\":\"Item\",\"parentfield\":\"fields\",\"parenttype\":\"DocType\",\"idx\":14,\"fieldname\":\"opening_stock\",\"label\":\"Opening Stock\",\"fieldtype\":\"Float\",\"search_index\":0,\"hidden\":0,\"set_only_once\":0,\"allow_in_quick_entry\":0,\"print_hide\":0,\"report_hide\":0,\"reqd\":0,\"bold\":1,\"in_global_search\":0,\"collapsible\":0,\"unique\":0,\"no_copy\":0,\"allow_on_submit\":0,\"show_preview_popup\":0,\"depends_on\":\"eval:(doc.__islocal&&doc.is_stock_item && !doc.has_serial_no && !doc.has_batch_no)\",\"permlevel\":0,\"ignore_user_permissions\":0,\"columns\":0,\"in_list_view\":0,\"fetch_if_empty\":0,\"in_filter\":0,\"remember_last_selected_value\":0,\"ignore_xss_filter\":0,\"print_hide_if_no_value\":0,\"allow_bulk_edit\":0,\"in_standard_filter\":0,\"in_preview\":0,\"read_only\":0,\"length\":0,\"translatable\":0,\"doctype\":\"DocField\"},{\"name\":\"1d1435caac\",\"creation\":\"2013-05-03 10:45:46\",\"modified\":\"2021-01-19 16:50:09.686904\",\"modified_by\":\"works@f9tech.com\",\"owner\":\"Administrator\",\"docstatus\":0,\"parent\":\"Item\",\"parentfield\":\"fields\",\"parenttype\":\"DocType\",\"idx\":15,\"fieldname\":\"brand\",\"label\":\"Brand\",\"oldfieldname\":\"brand\",\"fieldtype\":\"Link\",\"oldfieldtype\":\"Link\",\"options\":\"Brand\",\"search_index\":0,\"hidden\":0,\"set_only_once\":0,\"allow_in_quick_entry\":0,\"print_hide\":1,\"report_hide\":0,\"reqd\":0,\"bold\":0,\"in_global_search\":0,\"collapsible\":0,\"unique\":0,\"no_copy\":0,\"allow_on_submit\":0,\"show_preview_popup\":0,\"permlevel\":0,\"ignore_user_permissions\":0,\"columns\":0,\"in_list_view\":0,\"fetch_if_empty\":0,\"in_filter\":0,\"remember_last_selected_value\":0,\"ignore_xss_filter\":0,\"print_hide_if_no_value\":0,\"allow_bulk_edit\":0,\"in_standard_filter\":0,\"in_preview\":0,\"read_only\":0,\"length\":0,\"translatable\":0,\"doctype\":\"DocField\"},{\"name\":\"66c531a571\",\"creation\":\"2013-05-03 10:45:46\",\"modified\":\"2021-01-19 16:50:09.686904\",\"modified_by\":\"works@f9tech.com\",\"owner\":\"Administrator\",\"docstatus\":0,\"parent\":\"Item\",\"parentfield\":\"fields\",\"parenttype\":\"DocType\",\"idx\":16,\"fieldname\":\"over_billing_allowance\",\"label\":\"Over Billing Allowance (%)\",\"fieldtype\":\"Float\",\"search_index\":0,\"hidden\":0,\"set_only_once\":0,\"allow_in_quick_entry\":0,\"print_hide\":0,\"report_hide\":0,\"reqd\":0,\"bold\":0,\"in_global_search\":0,\"collapsible\":0,\"unique\":0,\"no_copy\":0,\"allow_on_submit\":0,\"show_preview_popup\":0,\"depends_on\":\"eval:!doc.__islocal\",\"permlevel\":0,\"ignore_user_permissions\":0,\"columns\":0,\"in_list_view\":0,\"fetch_if_empty\":0,\"in_filter\":0,\"remember_last_selected_value\":0,\"ignore_xss_filter\":0,\"print_hide_if_no_value\":0,\"allow_bulk_edit\":0,\"in_standard_filter\":0,\"in_preview\":0,\"read_only\":0,\"length\":0,\"translatable\":0,\"doctype\":\"DocField\"},{\"name\":\"cda75f5ecb\",\"creation\":\"2013-05-03 10:45:46\",\"modified\":\"2021-01-19 16:50:09.686904\",\"modified_by\":\"works@f9tech.com\",\"owner\":\"Administrator\",\"docstatus\":0,\"parent\":\"Item\",\"parentfield\":\"fields\",\"parenttype\":\"DocType\",\"idx\":17,\"fieldname\":\"image\",\"label\":\"Image\",\"fieldtype\":\"Attach Image\",\"options\":\"image\",\"search_index\":0,\"hidden\":1,\"set_only_once\":0,\"allow_in_quick_entry\":0,\"print_hide\":1,\"report_hide\":0,\"reqd\":0,\"bold\":0,\"in_global_search\":0,\"collapsible\":0,\"unique\":0,\"no_copy\":0,\"allow_on_submit\":0,\"show_preview_popup\":0,\"depends_on\":\"\",\"permlevel\":0,\"ignore_user_permissions\":0,\"columns\":0,\"in_list_view\":0,\"fetch_if_empty\":0,\"in_filter\":0,\"remember_last_selected_value\":0,\"ignore_xss_filter\":0,\"print_hide_if_no_value\":0,\"allow_bulk_edit\":0,\"in_standard_filter\":0,\"in_preview\":1,\"read_only\":0,\"length\":0,\"translatable\":0,\"doctype\":\"DocField\"},{\"name\":\"3461037a76\",\"creation\":\"2013-05-03 10:45:46\",\"modified\":\"2021-01-19 16:50:09.686904\",\"modified_by\":\"works@f9tech.com\",\"owner\":\"Administrator\",\"docstatus\":0,\"parent\":\"Item\",\"parentfield\":\"fields\",\"parenttype\":\"DocType\",\"idx\":18,\"fieldname\":\"sb_barcodes\",\"label\":\"Barcodes\",\"fieldtype\":\"Section Break\",\"search_index\":0,\"hidden\":0,\"set_only_once\":0,\"allow_in_quick_entry\":0,\"print_hide\":0,\"report_hide\":0,\"reqd\":0,\"bold\":0,\"in_global_search\":0,\"collapsible\":0,\"unique\":0,\"no_copy\":0,\"allow_on_submit\":0,\"show_preview_popup\":0,\"permlevel\":0,\"ignore_user_permissions\":0,\"columns\":0,\"in_list_view\":0,\"fetch_if_empty\":0,\"in_filter\":0,\"remember_last_selected_value\":0,\"ignore_xss_filter\":0,\"print_hide_if_no_value\":0,\"allow_bulk_edit\":0,\"in_standard_filter\":0,\"in_preview\":0,\"read_only\":0,\"length\":0,\"translatable\":0,\"doctype\":\"DocField\"},{\"name\":\"809eaed452\",\"creation\":\"2013-05-03 10:45:46\",\"modified\":\"2021-01-19 16:50:09.686904\",\"modified_by\":\"works@f9tech.com\",\"owner\":\"works@f9tech.com\",\"docstatus\":0,\"parent\":\"Item\",\"parentfield\":\"fields\",\"parenttype\":\"DocType\",\"idx\":19,\"fieldname\":\"barcode\",\"label\":\"Barcode\",\"fieldtype\":\"Data\",\"search_index\":0,\"hidden\":0,\"set_only_once\":0,\"allow_in_quick_entry\":0,\"print_hide\":0,\"report_hide\":0,\"reqd\":0,\"bold\":0,\"in_global_search\":0,\"collapsible\":0,\"unique\":0,\"no_copy\":0,\"allow_on_submit\":0,\"show_preview_popup\":0,\"permlevel\":0,\"ignore_user_permissions\":0,\"columns\":0,\"in_list_view\":0,\"fetch_if_empty\":0,\"in_filter\":0,\"remember_last_selected_value\":0,\"ignore_xss_filter\":0,\"print_hide_if_no_value\":0,\"allow_bulk_edit\":0,\"in_standard_filter\":0,\"in_preview\":0,\"read_only\":0,\"precision\":\"\",\"length\":0,\"translatable\":0,\"doctype\":\"DocField\"},{\"name\":\"1a79779db0\",\"creation\":\"2013-05-03 10:45:46\",\"modified\":\"2021-01-19 16:50:09.686904\",\"modified_by\":\"works@f9tech.com\",\"owner\":\"Administrator\",\"docstatus\":0,\"parent\":\"Item\",\"parentfield\":\"fields\",\"parenttype\":\"DocType\",\"idx\":20,\"fieldname\":\"barcodes\",\"label\":\"Barcodes\",\"fieldtype\":\"Table\",\"options\":\"Item Barcode\",\"search_index\":0,\"hidden\":0,\"set_only_once\":0,\"allow_in_quick_entry\":0,\"print_hide\":0,\"report_hide\":0,\"reqd\":0,\"bold\":0,\"in_global_search\":0,\"collapsible\":0,\"unique\":0,\"no_copy\":0,\"allow_on_submit\":0,\"show_preview_popup\":0,\"permlevel\":0,\"ignore_user_permissions\":0,\"columns\":0,\"in_list_view\":0,\"fetch_if_empty\":0,\"in_filter\":0,\"remember_last_selected_value\":0,\"ignore_xss_filter\":0,\"print_hide_if_no_value\":0,\"allow_bulk_edit\":0,\"in_standard_filter\":0,\"in_preview\":0,\"read_only\":0,\"length\":0,\"translatable\":0,\"doctype\":\"DocField\"},{\"name\":\"e4727aa014\",\"creation\":\"2013-05-03 10:45:46\",\"modified\":\"2021-01-19 16:50:09.686904\",\"modified_by\":\"works@f9tech.com\",\"owner\":\"Administrator\",\"docstatus\":0,\"parent\":\"Item\",\"parentfield\":\"fields\",\"parenttype\":\"DocType\",\"idx\":21,\"fieldname\":\"inventory_section\",\"label\":\"Inventory\",\"fieldtype\":\"Section Break\",\"oldfieldtype\":\"Section Break\",\"options\":\"fa fa-truck\",\"search_index\":0,\"hidden\":0,\"set_only_once\":0,\"allow_in_quick_entry\":0,\"print_hide\":0,\"report_hide\":0,\"reqd\":0,\"bold\":0,\"in_global_search\":0,\"collapsible\":1,\"unique\":0,\"no_copy\":0,\"allow_on_submit\":0,\"show_preview_popup\":0,\"collapsible_depends_on\":\"is_stock_item\",\"depends_on\":\"is_stock_item\",\"permlevel\":0,\"ignore_user_permissions\":0,\"columns\":0,\"in_list_view\":0,\"fetch_if_empty\":0,\"in_filter\":0,\"remember_last_selected_value\":0,\"ignore_xss_filter\":0,\"print_hide_if_no_value\":0,\"allow_bulk_edit\":0,\"in_standard_filter\":0,\"in_preview\":0,\"read_only\":0,\"length\":0,\"translatable\":0,\"doctype\":\"DocField\"},{\"name\":\"1fca7fae63\",\"creation\":\"2013-05-03 10:45:46\",\"modified\":\"2021-01-19 16:50:09.686904\",\"modified_by\":\"works@f9tech.com\",\"owner\":\"Administrator\",\"docstatus\":0,\"parent\":\"Item\",\"parentfield\":\"fields\",\"parenttype\":\"DocType\",\"idx\":22,\"fieldname\":\"shelf_life_in_days\",\"label\":\"Shelf Life In Days\",\"fieldtype\":\"Int\",\"search_index\":0,\"hidden\":0,\"set_only_once\":0,\"allow_in_quick_entry\":0,\"print_hide\":0,\"report_hide\":0,\"reqd\":0,\"bold\":0,\"in_global_search\":0,\"collapsible\":0,\"unique\":0,\"no_copy\":0,\"allow_on_submit\":0,\"show_preview_popup\":0,\"permlevel\":0,\"ignore_user_permissions\":0,\"columns\":0,\"in_list_view\":0,\"fetch_if_empty\":0,\"in_filter\":0,\"remember_last_selected_value\":0,\"ignore_xss_filter\":0,\"print_hide_if_no_value\":0,\"allow_bulk_edit\":0,\"in_standard_filter\":0,\"in_preview\":0,\"read_only\":0,\"length\":0,\"translatable\":0,\"doctype\":\"DocField\"},{\"name\":\"95d466703c\",\"creation\":\"2013-05-03 10:45:46\",\"modified\":\"2021-01-19 16:50:09.686904\",\"modified_by\":\"works@f9tech.com\",\"owner\":\"Administrator\",\"docstatus\":0,\"parent\":\"Item\",\"parentfield\":\"fields\",\"parenttype\":\"DocType\",\"idx\":23,\"fieldname\":\"end_of_life\",\"label\":\"End of Life\",\"oldfieldname\":\"end_of_life\",\"fieldtype\":\"Date\",\"oldfieldtype\":\"Date\",\"search_index\":0,\"hidden\":0,\"set_only_once\":0,\"allow_in_quick_entry\":0,\"print_hide\":0,\"report_hide\":0,\"reqd\":0,\"bold\":0,\"in_global_search\":0,\"collapsible\":0,\"unique\":0,\"no_copy\":0,\"allow_on_submit\":0,\"show_preview_popup\":0,\"depends_on\":\"is_stock_item\",\"permlevel\":0,\"ignore_user_permissions\":0,\"columns\":0,\"default\":\"2099-12-31\",\"in_list_view\":0,\"fetch_if_empty\":0,\"in_filter\":0,\"remember_last_selected_value\":0,\"ignore_xss_filter\":0,\"print_hide_if_no_value\":0,\"allow_bulk_edit\":0,\"in_standard_filter\":0,\"in_preview\":0,\"read_only\":0,\"length\":0,\"translatable\":0,\"doctype\":\"DocField\"},{\"name\":\"7144066ead\",\"creation\":\"2013-05-03 10:45:46\",\"modified\":\"2021-01-19 16:50:09.686904\",\"modified_by\":\"works@f9tech.com\",\"owner\":\"Administrator\",\"docstatus\":0,\"parent\":\"Item\",\"parentfield\":\"fields\",\"parenttype\":\"DocType\",\"idx\":24,\"fieldname\":\"valuation_method\",\"label\":\"Valuation Method\",\"fieldtype\":\"Select\",\"options\":\"\\nFIFO\\nMoving Average\",\"search_index\":0,\"hidden\":0,\"set_only_once\":1,\"allow_in_quick_entry\":0,\"print_hide\":0,\"report_hide\":0,\"reqd\":0,\"bold\":0,\"in_global_search\":0,\"collapsible\":0,\"unique\":0,\"no_copy\":0,\"allow_on_submit\":0,\"show_preview_popup\":0,\"depends_on\":\"is_stock_item\",\"permlevel\":0,\"ignore_user_permissions\":0,\"columns\":0,\"in_list_view\":0,\"fetch_if_empty\":0,\"in_filter\":0,\"remember_last_selected_value\":0,\"ignore_xss_filter\":0,\"print_hide_if_no_value\":0,\"allow_bulk_edit\":0,\"in_standard_filter\":0,\"in_preview\":0,\"read_only\":0,\"length\":0,\"translatable\":0,\"doctype\":\"DocField\"},{\"name\":\"b3d4e67f67\",\"creation\":\"2013-05-03 10:45:46\",\"modified\":\"2021-01-19 16:50:09.686904\",\"modified_by\":\"works@f9tech.com\",\"owner\":\"Administrator\",\"docstatus\":0,\"parent\":\"Item\",\"parentfield\":\"fields\",\"parenttype\":\"DocType\",\"idx\":25,\"fieldname\":\"column_break1\",\"fieldtype\":\"Column Break\",\"oldfieldtype\":\"Column Break\",\"search_index\":0,\"hidden\":0,\"set_only_once\":0,\"allow_in_quick_entry\":0,\"print_hide\":0,\"report_hide\":0,\"reqd\":0,\"bold\":0,\"in_global_search\":0,\"collapsible\":0,\"unique\":0,\"no_copy\":0,\"allow_on_submit\":0,\"show_preview_popup\":0,\"depends_on\":\"is_stock_item\",\"permlevel\":0,\"ignore_user_permissions\":0,\"width\":\"50%\",\"columns\":0,\"in_list_view\":0,\"fetch_if_empty\":0,\"in_filter\":0,\"remember_last_selected_value\":0,\"ignore_xss_filter\":0,\"print_hide_if_no_value\":0,\"allow_bulk_edit\":0,\"in_standard_filter\":0,\"in_preview\":0,\"read_only\":0,\"length\":0,\"translatable\":0,\"doctype\":\"DocField\"},{\"name\":\"08da0a924a\",\"creation\":\"2013-05-03 10:45:46\",\"modified\":\"2021-01-19 16:50:09.686904\",\"modified_by\":\"works@f9tech.com\",\"owner\":\"Administrator\",\"docstatus\":0,\"parent\":\"Item\",\"parentfield\":\"fields\",\"parenttype\":\"DocType\",\"idx\":26,\"fieldname\":\"warranty_period\",\"label\":\"Warranty Period (in days)\",\"oldfieldname\":\"warranty_period\",\"fieldtype\":\"Data\",\"oldfieldtype\":\"Data\",\"search_index\":0,\"hidden\":0,\"set_only_once\":0,\"allow_in_quick_entry\":0,\"print_hide\":0,\"report_hide\":0,\"reqd\":0,\"bold\":0,\"in_global_search\":0,\"collapsible\":0,\"unique\":0,\"no_copy\":0,\"allow_on_submit\":0,\"show_preview_popup\":0,\"depends_on\":\"eval:doc.is_stock_item\",\"permlevel\":0,\"ignore_user_permissions\":0,\"columns\":0,\"in_list_view\":0,\"fetch_if_empty\":0,\"in_filter\":0,\"remember_last_selected_value\":0,\"ignore_xss_filter\":0,\"print_hide_if_no_value\":0,\"allow_bulk_edit\":0,\"in_standard_filter\":0,\"in_preview\":0,\"read_only\":0,\"length\":0,\"translatable\":0,\"doctype\":\"DocField\"},{\"name\":\"1f675196df\",\"creation\":\"2013-05-03 10:45:46\",\"modified\":\"2021-01-19 16:50:09.686904\",\"modified_by\":\"works@f9tech.com\",\"owner\":\"Administrator\",\"docstatus\":0,\"parent\":\"Item\",\"parentfield\":\"fields\",\"parenttype\":\"DocType\",\"idx\":27,\"fieldname\":\"default_material_request_type\",\"label\":\"Default Material Request Type\",\"fieldtype\":\"Select\",\"options\":\"Purchase\\nMaterial Transfer\\nMaterial Issue\\nManufacture\\nCustomer Provided\",\"search_index\":0,\"hidden\":0,\"set_only_once\":0,\"allow_in_quick_entry\":0,\"print_hide\":0,\"report_hide\":0,\"reqd\":0,\"bold\":0,\"in_global_search\":0,\"collapsible\":0,\"unique\":0,\"no_copy\":0,\"allow_on_submit\":0,\"show_preview_popup\":0,\"permlevel\":0,\"ignore_user_permissions\":0,\"columns\":0,\"default\":\"Purchase\",\"in_list_view\":0,\"fetch_if_empty\":0,\"in_filter\":0,\"remember_last_selected_value\":0,\"ignore_xss_filter\":0,\"print_hide_if_no_value\":0,\"allow_bulk_edit\":0,\"in_standard_filter\":0,\"in_preview\":0,\"read_only\":0,\"length\":0,\"translatable\":0,\"doctype\":\"DocField\"},{\"name\":\"0d07fcd7d1\",\"creation\":\"2013-05-03 10:45:46\",\"modified\":\"2021-01-19 16:50:09.686904\",\"modified_by\":\"works@f9tech.com\",\"owner\":\"Administrator\",\"docstatus\":0,\"parent\":\"Item\",\"parentfield\":\"fields\",\"parenttype\":\"DocType\",\"idx\":28,\"fieldname\":\"reorder_section\",\"label\":\"Auto re-order\",\"fieldtype\":\"Section Break\",\"options\":\"fa fa-rss\",\"search_index\":0,\"hidden\":0,\"set_only_once\":0,\"allow_in_quick_entry\":0,\"print_hide\":0,\"report_hide\":0,\"reqd\":0,\"bold\":0,\"in_global_search\":0,\"collapsible\":1,\"unique\":0,\"no_copy\":0,\"allow_on_submit\":0,\"show_preview_popup\":0,\"depends_on\":\"is_stock_item\",\"permlevel\":0,\"ignore_user_permissions\":0,\"columns\":0,\"in_list_view\":0,\"fetch_if_empty\":0,\"in_filter\":0,\"remember_last_selected_value\":0,\"ignore_xss_filter\":0,\"print_hide_if_no_value\":0,\"allow_bulk_edit\":0,\"in_standard_filter\":0,\"in_preview\":0,\"read_only\":0,\"length\":0,\"translatable\":0,\"doctype\":\"DocField\"},{\"name\":\"22b837acbe\",\"creation\":\"2013-05-03 10:45:46\",\"modified\":\"2021-01-19 16:50:09.686904\",\"modified_by\":\"works@f9tech.com\",\"owner\":\"Administrator\",\"docstatus\":0,\"parent\":\"Item\",\"parentfield\":\"fields\",\"parenttype\":\"DocType\",\"idx\":29,\"fieldname\":\"reorder_levels\",\"label\":\"Reorder level based on Warehouse\",\"fieldtype\":\"Table\",\"options\":\"Item Reorder\",\"search_index\":0,\"hidden\":0,\"set_only_once\":0,\"allow_in_quick_entry\":0,\"print_hide\":0,\"report_hide\":0,\"reqd\":0,\"bold\":0,\"in_global_search\":0,\"collapsible\":0,\"unique\":0,\"no_copy\":0,\"allow_on_submit\":0,\"show_preview_popup\":0,\"permlevel\":0,\"ignore_user_permissions\":0,\"columns\":0,\"description\":\"Will also apply for variants unless overrridden\",\"in_list_view\":0,\"fetch_if_empty\":0,\"in_filter\":0,\"remember_last_selected_value\":0,\"ignore_xss_filter\":0,\"print_hide_if_no_value\":0,\"allow_bulk_edit\":0,\"in_standard_filter\":0,\"in_preview\":0,\"read_only\":0,\"length\":0,\"translatable\":0,\"doctype\":\"DocField\"},{\"name\":\"fb85e63926\",\"creation\":\"2013-05-03 10:45:46\",\"modified\":\"2021-01-19 16:50:09.686904\",\"modified_by\":\"works@f9tech.com\",\"owner\":\"Administrator\",\"docstatus\":0,\"parent\":\"Item\",\"parentfield\":\"fields\",\"parenttype\":\"DocType\",\"idx\":30,\"fieldname\":\"serial_nos_and_batches\",\"label\":\"Serial Nos and Batches\",\"fieldtype\":\"Section Break\",\"search_index\":0,\"hidden\":0,\"set_only_once\":0,\"allow_in_quick_entry\":0,\"print_hide\":0,\"report_hide\":0,\"reqd\":0,\"bold\":0,\"in_global_search\":0,\"collapsible\":1,\"unique\":0,\"no_copy\":0,\"allow_on_submit\":0,\"show_preview_popup\":0,\"collapsible_depends_on\":\"eval:doc.has_batch_no || doc.has_serial_no || doc.is_fixed_asset\",\"depends_on\":\"eval:doc.is_stock_item || doc.is_fixed_asset\",\"permlevel\":0,\"ignore_user_permissions\":0,\"columns\":0,\"in_list_view\":0,\"fetch_if_empty\":0,\"in_filter\":0,\"remember_last_selected_value\":0,\"ignore_xss_filter\":0,\"print_hide_if_no_value\":0,\"allow_bulk_edit\":0,\"in_standard_filter\":0,\"in_preview\":0,\"read_only\":0,\"length\":0,\"translatable\":0,\"doctype\":\"DocField\"},{\"name\":\"c15507547a\",\"creation\":\"2013-05-03 10:45:46\",\"modified\":\"2021-01-19 16:50:09.686904\",\"modified_by\":\"works@f9tech.com\",\"owner\":\"Administrator\",\"docstatus\":0,\"parent\":\"Item\",\"parentfield\":\"fields\",\"parenttype\":\"DocType\",\"idx\":31,\"fieldname\":\"has_batch_no\",\"label\":\"Has Batch No\",\"oldfieldname\":\"has_batch_no\",\"fieldtype\":\"Check\",\"oldfieldtype\":\"Select\",\"search_index\":0,\"hidden\":0,\"set_only_once\":0,\"allow_in_quick_entry\":0,\"print_hide\":0,\"report_hide\":0,\"reqd\":0,\"bold\":0,\"in_global_search\":0,\"collapsible\":0,\"unique\":0,\"no_copy\":1,\"allow_on_submit\":0,\"show_preview_popup\":0,\"depends_on\":\"eval:doc.is_stock_item\",\"permlevel\":0,\"ignore_user_permissions\":0,\"columns\":0,\"default\":\"0\",\"in_list_view\":0,\"fetch_if_empty\":0,\"in_filter\":0,\"remember_last_selected_value\":0,\"ignore_xss_filter\":0,\"print_hide_if_no_value\":0,\"allow_bulk_edit\":0,\"in_standard_filter\":0,\"in_preview\":0,\"read_only\":0,\"length\":0,\"translatable\":0,\"doctype\":\"DocField\"},{\"name\":\"a72eeeddaa\",\"creation\":\"2013-05-03 10:45:46\",\"modified\":\"2021-01-19 16:50:09.686904\",\"modified_by\":\"works@f9tech.com\",\"owner\":\"Administrator\",\"docstatus\":0,\"parent\":\"Item\",\"parentfield\":\"fields\",\"parenttype\":\"DocType\",\"idx\":32,\"fieldname\":\"create_new_batch\",\"label\":\"Automatically Create New Batch\",\"fieldtype\":\"Check\",\"search_index\":0,\"hidden\":0,\"set_only_once\":0,\"allow_in_quick_entry\":0,\"print_hide\":0,\"report_hide\":0,\"reqd\":0,\"bold\":0,\"in_global_search\":0,\"collapsible\":0,\"unique\":0,\"no_copy\":0,\"allow_on_submit\":0,\"show_preview_popup\":0,\"depends_on\":\"has_batch_no\",\"permlevel\":0,\"ignore_user_permissions\":0,\"columns\":0,\"default\":\"0\",\"in_list_view\":0,\"fetch_if_empty\":0,\"in_filter\":0,\"remember_last_selected_value\":0,\"ignore_xss_filter\":0,\"print_hide_if_no_value\":0,\"allow_bulk_edit\":0,\"in_standard_filter\":0,\"in_preview\":0,\"read_only\":0,\"length\":0,\"translatable\":0,\"doctype\":\"DocField\"},{\"name\":\"32b3c8ea91\",\"creation\":\"2013-05-03 10:45:46\",\"modified\":\"2021-01-19 16:50:09.686904\",\"modified_by\":\"works@f9tech.com\",\"owner\":\"Administrator\",\"docstatus\":0,\"parent\":\"Item\",\"parentfield\":\"fields\",\"parenttype\":\"DocType\",\"idx\":33,\"fieldname\":\"batch_number_series\",\"label\":\"Batch Number Series\",\"fieldtype\":\"Data\",\"search_index\":0,\"hidden\":0,\"set_only_once\":0,\"allow_in_quick_entry\":0,\"print_hide\":0,\"report_hide\":0,\"reqd\":0,\"bold\":0,\"in_global_search\":0,\"collapsible\":0,\"unique\":0,\"no_copy\":0,\"allow_on_submit\":0,\"show_preview_popup\":0,\"depends_on\":\"eval:doc.has_batch_no==1 && doc.create_new_batch==1\",\"permlevel\":0,\"ignore_user_permissions\":0,\"columns\":0,\"description\":\"Example: ABCD.#####. If series is set and Batch No is not mentioned in transactions, then automatic batch number will be created based on this series. If you always want to explicitly mention Batch No for this item, leave this blank. Note: this setting will take priority over the Naming Series Prefix in Stock Settings.\",\"in_list_view\":0,\"fetch_if_empty\":0,\"in_filter\":0,\"remember_last_selected_value\":0,\"ignore_xss_filter\":0,\"print_hide_if_no_value\":0,\"allow_bulk_edit\":0,\"in_standard_filter\":0,\"in_preview\":0,\"read_only\":0,\"length\":0,\"translatable\":1,\"doctype\":\"DocField\"},{\"name\":\"ae46d99077\",\"creation\":\"2013-05-03 10:45:46\",\"modified\":\"2021-01-19 16:50:09.686904\",\"modified_by\":\"works@f9tech.com\",\"owner\":\"Administrator\",\"docstatus\":0,\"parent\":\"Item\",\"parentfield\":\"fields\",\"parenttype\":\"DocType\",\"idx\":34,\"fieldname\":\"has_expiry_date\",\"label\":\"Has Expiry Date\",\"fieldtype\":\"Check\",\"search_index\":0,\"hidden\":0,\"set_only_once\":0,\"allow_in_quick_entry\":0,\"print_hide\":0,\"report_hide\":0,\"reqd\":0,\"bold\":0,\"in_global_search\":0,\"collapsible\":0,\"unique\":0,\"no_copy\":0,\"allow_on_submit\":0,\"show_preview_popup\":0,\"depends_on\":\"has_batch_no\",\"permlevel\":0,\"ignore_user_permissions\":0,\"columns\":0,\"default\":\"0\",\"in_list_view\":0,\"fetch_if_empty\":0,\"in_filter\":0,\"remember_last_selected_value\":0,\"ignore_xss_filter\":0,\"print_hide_if_no_value\":0,\"allow_bulk_edit\":0,\"in_standard_filter\":0,\"in_preview\":0,\"read_only\":0,\"length\":0,\"translatable\":0,\"doctype\":\"DocField\"},{\"name\":\"5d3429b75d\",\"creation\":\"2013-05-03 10:45:46\",\"modified\":\"2021-01-19 16:50:09.686904\",\"modified_by\":\"works@f9tech.com\",\"owner\":\"Administrator\",\"docstatus\":0,\"parent\":\"Item\",\"parentfield\":\"fields\",\"parenttype\":\"DocType\",\"idx\":35,\"fieldname\":\"retain_sample\",\"label\":\"Retain Sample\",\"fieldtype\":\"Check\",\"search_index\":0,\"hidden\":0,\"set_only_once\":0,\"allow_in_quick_entry\":0,\"print_hide\":0,\"report_hide\":0,\"reqd\":0,\"bold\":0,\"in_global_search\":0,\"collapsible\":0,\"unique\":0,\"no_copy\":0,\"allow_on_submit\":0,\"show_preview_popup\":0,\"permlevel\":0,\"ignore_user_permissions\":0,\"columns\":0,\"default\":\"0\",\"in_list_view\":0,\"fetch_if_empty\":0,\"in_filter\":0,\"remember_last_selected_value\":0,\"ignore_xss_filter\":0,\"print_hide_if_no_value\":0,\"allow_bulk_edit\":0,\"in_standard_filter\":0,\"in_preview\":0,\"read_only\":0,\"length\":0,\"translatable\":0,\"doctype\":\"DocField\"},{\"name\":\"eb4eeb9adc\",\"creation\":\"2013-05-03 10:45:46\",\"modified\":\"2021-01-19 16:50:09.686904\",\"modified_by\":\"works@f9tech.com\",\"owner\":\"Administrator\",\"docstatus\":0,\"parent\":\"Item\",\"parentfield\":\"fields\",\"parenttype\":\"DocType\",\"idx\":36,\"fieldname\":\"sample_quantity\",\"label\":\"Max Sample Quantity\",\"fieldtype\":\"Int\",\"search_index\":0,\"hidden\":0,\"set_only_once\":0,\"allow_in_quick_entry\":0,\"print_hide\":0,\"report_hide\":0,\"reqd\":0,\"bold\":0,\"in_global_search\":0,\"collapsible\":0,\"unique\":0,\"no_copy\":0,\"allow_on_submit\":0,\"show_preview_popup\":0,\"depends_on\":\"eval: (doc.retain_sample && doc.has_batch_no)\",\"permlevel\":0,\"ignore_user_permissions\":0,\"columns\":0,\"description\":\"Maximum sample quantity that can be retained\",\"in_list_view\":0,\"fetch_if_empty\":0,\"in_filter\":0,\"remember_last_selected_value\":0,\"ignore_xss_filter\":0,\"print_hide_if_no_value\":0,\"allow_bulk_edit\":0,\"in_standard_filter\":0,\"in_preview\":0,\"read_only\":0,\"length\":0,\"translatable\":0,\"doctype\":\"DocField\"},{\"name\":\"1bcf8f07df\",\"creation\":\"2013-05-03 10:45:46\",\"modified\":\"2021-01-19 16:50:09.686904\",\"modified_by\":\"works@f9tech.com\",\"owner\":\"Administrator\",\"docstatus\":0,\"parent\":\"Item\",\"parentfield\":\"fields\",\"parenttype\":\"DocType\",\"idx\":37,\"fieldname\":\"column_break_37\",\"fieldtype\":\"Column Break\",\"search_index\":0,\"hidden\":0,\"set_only_once\":0,\"allow_in_quick_entry\":0,\"print_hide\":0,\"report_hide\":0,\"reqd\":0,\"bold\":0,\"in_global_search\":0,\"collapsible\":0,\"unique\":0,\"no_copy\":0,\"allow_on_submit\":0,\"show_preview_popup\":0,\"permlevel\":0,\"ignore_user_permissions\":0,\"columns\":0,\"in_list_view\":0,\"fetch_if_empty\":0,\"in_filter\":0,\"remember_last_selected_value\":0,\"ignore_xss_filter\":0,\"print_hide_if_no_value\":0,\"allow_bulk_edit\":0,\"in_standard_filter\":0,\"in_preview\":0,\"read_only\":0,\"length\":0,\"translatable\":0,\"doctype\":\"DocField\"},{\"name\":\"b485dd8ba1\",\"creation\":\"2013-05-03 10:45:46\",\"modified\":\"2021-01-19 16:50:09.686904\",\"modified_by\":\"works@f9tech.com\",\"owner\":\"Administrator\",\"docstatus\":0,\"parent\":\"Item\",\"parentfield\":\"fields\",\"parenttype\":\"DocType\",\"idx\":38,\"fieldname\":\"has_serial_no\",\"label\":\"Has Serial No\",\"oldfieldname\":\"has_serial_no\",\"fieldtype\":\"Check\",\"oldfieldtype\":\"Select\",\"search_index\":0,\"hidden\":0,\"set_only_once\":0,\"allow_in_quick_entry\":0,\"print_hide\":0,\"report_hide\":0,\"reqd\":0,\"bold\":0,\"in_global_search\":0,\"collapsible\":0,\"unique\":0,\"no_copy\":1,\"allow_on_submit\":0,\"show_preview_popup\":0,\"depends_on\":\"eval:doc.is_stock_item || doc.is_fixed_asset\",\"permlevel\":0,\"ignore_user_permissions\":0,\"columns\":0,\"default\":\"0\",\"in_list_view\":0,\"fetch_if_empty\":0,\"in_filter\":0,\"remember_last_selected_value\":0,\"ignore_xss_filter\":0,\"print_hide_if_no_value\":0,\"allow_bulk_edit\":0,\"in_standard_filter\":0,\"in_preview\":0,\"read_only\":0,\"length\":0,\"translatable\":0,\"doctype\":\"DocField\"},{\"name\":\"5a9d19ce0b\",\"creation\":\"2013-05-03 10:45:46\",\"modified\":\"2021-01-19 16:50:09.686904\",\"modified_by\":\"works@f9tech.com\",\"owner\":\"Administrator\",\"docstatus\":0,\"parent\":\"Item\",\"parentfield\":\"fields\",\"parenttype\":\"DocType\",\"idx\":39,\"fieldname\":\"serial_no_series\",\"label\":\"Serial Number Series\",\"fieldtype\":\"Data\",\"search_index\":0,\"hidden\":0,\"set_only_once\":0,\"allow_in_quick_entry\":0,\"print_hide\":0,\"report_hide\":0,\"reqd\":0,\"bold\":0,\"in_global_search\":0,\"collapsible\":0,\"unique\":0,\"no_copy\":0,\"allow_on_submit\":0,\"show_preview_popup\":0,\"depends_on\":\"eval:doc.is_stock_item || doc.is_fixed_asset\",\"permlevel\":0,\"ignore_user_permissions\":0,\"columns\":0,\"description\":\"Example: ABCD.#####\\nIf series is set and Serial No is not mentioned in transactions, then automatic serial number will be created based on this series. If you always want to explicitly mention Serial Nos for this item. leave this blank.\",\"in_list_view\":0,\"fetch_if_empty\":0,\"in_filter\":0,\"remember_last_selected_value\":0,\"ignore_xss_filter\":0,\"print_hide_if_no_value\":0,\"allow_bulk_edit\":0,\"in_standard_filter\":0,\"in_preview\":0,\"read_only\":0,\"length\":0,\"translatable\":0,\"doctype\":\"DocField\"},{\"name\":\"2fc4fd4ad8\",\"creation\":\"2013-05-03 10:45:46\",\"modified\":\"2021-01-19 16:50:09.686904\",\"modified_by\":\"works@f9tech.com\",\"owner\":\"works@f9tech.com\",\"docstatus\":0,\"parent\":\"Item\",\"parentfield\":\"fields\",\"parenttype\":\"DocType\",\"idx\":40,\"fieldname\":\"variants_section\",\"label\":\"Variants\",\"fieldtype\":\"Section Break\",\"search_index\":0,\"hidden\":0,\"set_only_once\":0,\"allow_in_quick_entry\":0,\"print_hide\":0,\"report_hide\":0,\"reqd\":0,\"bold\":0,\"in_global_search\":0,\"collapsible\":0,\"unique\":0,\"no_copy\":0,\"allow_on_submit\":0,\"show_preview_popup\":0,\"collapsible_depends_on\":\"attributes\",\"permlevel\":0,\"ignore_user_permissions\":0,\"columns\":0,\"in_list_view\":0,\"fetch_if_empty\":0,\"in_filter\":0,\"remember_last_selected_value\":0,\"ignore_xss_filter\":0,\"print_hide_if_no_value\":0,\"allow_bulk_edit\":0,\"in_standard_filter\":0,\"in_preview\":0,\"read_only\":0,\"precision\":\"\",\"length\":0,\"translatable\":0,\"doctype\":\"DocField\"},{\"name\":\"4e3baec502\",\"creation\":\"2013-05-03 10:45:46\",\"modified\":\"2021-01-19 16:50:09.686904\",\"modified_by\":\"works@f9tech.com\",\"owner\":\"works@f9tech.com\",\"docstatus\":0,\"parent\":\"Item\",\"parentfield\":\"fields\",\"parenttype\":\"DocType\",\"idx\":41,\"fieldname\":\"has_variants\",\"label\":\"Has Variants\",\"fieldtype\":\"Check\",\"search_index\":0,\"hidden\":0,\"set_only_once\":0,\"allow_in_quick_entry\":0,\"print_hide\":0,\"report_hide\":0,\"reqd\":0,\"bold\":0,\"in_global_search\":0,\"collapsible\":0,\"unique\":0,\"no_copy\":0,\"allow_on_submit\":0,\"show_preview_popup\":0,\"depends_on\":\"eval:!doc.variant_of\",\"permlevel\":0,\"ignore_user_permissions\":0,\"columns\":0,\"default\":\"0\",\"in_list_view\":0,\"fetch_if_empty\":0,\"in_filter\":0,\"remember_last_selected_value\":0,\"ignore_xss_filter\":0,\"print_hide_if_no_value\":0,\"allow_bulk_edit\":0,\"in_standard_filter\":1,\"in_preview\":0,\"read_only\":0,\"precision\":\"\",\"length\":0,\"translatable\":0,\"doctype\":\"DocField\"},{\"name\":\"0dd9d2080d\",\"creation\":\"2013-05-03 10:45:46\",\"modified\":\"2021-01-19 16:50:09.686904\",\"modified_by\":\"works@f9tech.com\",\"owner\":\"works@f9tech.com\",\"docstatus\":0,\"parent\":\"Item\",\"parentfield\":\"fields\",\"parenttype\":\"DocType\",\"idx\":42,\"fieldname\":\"variant_based_on\",\"label\":\"Variant Based On\",\"fieldtype\":\"Select\",\"options\":\"Item\",\"search_index\":0,\"hidden\":0,\"set_only_once\":0,\"allow_in_quick_entry\":0,\"print_hide\":0,\"report_hide\":0,\"reqd\":0,\"bold\":0,\"in_global_search\":0,\"collapsible\":0,\"unique\":0,\"no_copy\":0,\"allow_on_submit\":0,\"show_preview_popup\":0,\"depends_on\":\"has_variants\",\"permlevel\":0,\"ignore_user_permissions\":0,\"columns\":0,\"in_list_view\":0,\"fetch_if_empty\":0,\"in_filter\":0,\"remember_last_selected_value\":0,\"ignore_xss_filter\":0,\"print_hide_if_no_value\":0,\"allow_bulk_edit\":0,\"in_standard_filter\":0,\"in_preview\":0,\"read_only\":0,\"precision\":\"\",\"length\":0,\"translatable\":0,\"doctype\":\"DocField\"},{\"name\":\"0eedd928ed\",\"creation\":\"2013-05-03 10:45:46\",\"modified\":\"2021-01-19 16:50:09.686904\",\"modified_by\":\"works@f9tech.com\",\"owner\":\"works@f9tech.com\",\"docstatus\":0,\"parent\":\"Item\",\"parentfield\":\"fields\",\"parenttype\":\"DocType\",\"idx\":43,\"fieldname\":\"attributes\",\"label\":\"Attributes\",\"fieldtype\":\"Table\",\"options\":\"Item Variant Attribute\",\"search_index\":0,\"hidden\":1,\"set_only_once\":0,\"allow_in_quick_entry\":0,\"print_hide\":0,\"report_hide\":0,\"reqd\":0,\"bold\":0,\"in_global_search\":0,\"collapsible\":0,\"unique\":0,\"no_copy\":0,\"allow_on_submit\":0,\"show_preview_popup\":0,\"depends_on\":\"eval:(doc.has_variants || doc.variant_of) && doc.variant_based_on==='Item Attribute'\",\"permlevel\":0,\"ignore_user_permissions\":0,\"columns\":0,\"in_list_view\":0,\"fetch_if_empty\":0,\"in_filter\":0,\"remember_last_selected_value\":0,\"ignore_xss_filter\":0,\"print_hide_if_no_value\":0,\"allow_bulk_edit\":0,\"in_standard_filter\":0,\"in_preview\":0,\"read_only\":0,\"precision\":\"\",\"length\":0,\"translatable\":0,\"doctype\":\"DocField\"},{\"name\":\"342fb77b04\",\"creation\":\"2013-05-03 10:45:46\",\"modified\":\"2021-01-19 16:50:09.686904\",\"modified_by\":\"works@f9tech.com\",\"owner\":\"Administrator\",\"docstatus\":0,\"parent\":\"Item\",\"parentfield\":\"fields\",\"parenttype\":\"DocType\",\"idx\":44,\"fieldname\":\"defaults\",\"label\":\"Sales, Purchase, Accounting Defaults\",\"fieldtype\":\"Section Break\",\"search_index\":0,\"hidden\":0,\"set_only_once\":0,\"allow_in_quick_entry\":0,\"print_hide\":0,\"report_hide\":0,\"reqd\":0,\"bold\":0,\"in_global_search\":0,\"collapsible\":0,\"unique\":0,\"no_copy\":0,\"allow_on_submit\":0,\"show_preview_popup\":0,\"permlevel\":0,\"ignore_user_permissions\":0,\"columns\":0,\"in_list_view\":0,\"fetch_if_empty\":0,\"in_filter\":0,\"remember_last_selected_value\":0,\"ignore_xss_filter\":0,\"print_hide_if_no_value\":0,\"allow_bulk_edit\":0,\"in_standard_filter\":0,\"in_preview\":0,\"read_only\":0,\"length\":0,\"translatable\":0,\"doctype\":\"DocField\"},{\"name\":\"2c85b52f12\",\"creation\":\"2013-05-03 10:45:46\",\"modified\":\"2021-01-19 16:50:09.686904\",\"modified_by\":\"works@f9tech.com\",\"owner\":\"Administrator\",\"docstatus\":0,\"parent\":\"Item\",\"parentfield\":\"fields\",\"parenttype\":\"DocType\",\"idx\":45,\"fieldname\":\"item_defaults\",\"label\":\"Item Defaults\",\"fieldtype\":\"Table\",\"options\":\"Item Default\",\"search_index\":0,\"hidden\":0,\"set_only_once\":0,\"allow_in_quick_entry\":0,\"print_hide\":0,\"report_hide\":0,\"reqd\":0,\"bold\":0,\"in_global_search\":0,\"collapsible\":0,\"unique\":0,\"no_copy\":0,\"allow_on_submit\":0,\"show_preview_popup\":0,\"depends_on\":\"\",\"permlevel\":0,\"ignore_user_permissions\":0,\"columns\":0,\"in_list_view\":0,\"fetch_if_empty\":0,\"in_filter\":0,\"remember_last_selected_value\":0,\"ignore_xss_filter\":0,\"print_hide_if_no_value\":0,\"allow_bulk_edit\":0,\"in_standard_filter\":0,\"in_preview\":0,\"read_only\":0,\"length\":0,\"translatable\":0,\"doctype\":\"DocField\"},{\"name\":\"4290c857df\",\"creation\":\"2013-05-03 10:45:46\",\"modified\":\"2021-01-19 16:50:09.686904\",\"modified_by\":\"works@f9tech.com\",\"owner\":\"Administrator\",\"docstatus\":0,\"parent\":\"Item\",\"parentfield\":\"fields\",\"parenttype\":\"DocType\",\"idx\":46,\"fieldname\":\"purchase_details\",\"label\":\"Purchase, Replenishment Details\",\"fieldtype\":\"Section Break\",\"oldfieldtype\":\"Section Break\",\"options\":\"fa fa-shopping-cart\",\"search_index\":0,\"hidden\":0,\"set_only_once\":0,\"allow_in_quick_entry\":0,\"print_hide\":0,\"report_hide\":0,\"reqd\":0,\"bold\":0,\"in_global_search\":0,\"collapsible\":1,\"unique\":0,\"no_copy\":0,\"allow_on_submit\":0,\"show_preview_popup\":0,\"permlevel\":0,\"ignore_user_permissions\":0,\"columns\":0,\"in_list_view\":0,\"fetch_if_empty\":0,\"in_filter\":0,\"remember_last_selected_value\":0,\"ignore_xss_filter\":0,\"print_hide_if_no_value\":0,\"allow_bulk_edit\":0,\"in_standard_filter\":0,\"in_preview\":0,\"read_only\":0,\"length\":0,\"translatable\":0,\"doctype\":\"DocField\"},{\"name\":\"3d458c828b\",\"creation\":\"2013-05-03 10:45:46\",\"modified\":\"2021-01-19 16:50:09.686904\",\"modified_by\":\"works@f9tech.com\",\"owner\":\"Administrator\",\"docstatus\":0,\"parent\":\"Item\",\"parentfield\":\"fields\",\"parenttype\":\"DocType\",\"idx\":47,\"fieldname\":\"is_purchase_item\",\"label\":\"Is Purchase Item\",\"fieldtype\":\"Check\",\"search_index\":0,\"hidden\":0,\"set_only_once\":0,\"allow_in_quick_entry\":0,\"print_hide\":0,\"report_hide\":0,\"reqd\":0,\"bold\":0,\"in_global_search\":0,\"collapsible\":0,\"unique\":0,\"no_copy\":0,\"allow_on_submit\":0,\"show_preview_popup\":0,\"permlevel\":0,\"ignore_user_permissions\":0,\"columns\":0,\"default\":\"1\",\"in_list_view\":0,\"fetch_if_empty\":0,\"in_filter\":0,\"remember_last_selected_value\":0,\"ignore_xss_filter\":0,\"print_hide_if_no_value\":0,\"allow_bulk_edit\":0,\"in_standard_filter\":0,\"in_preview\":0,\"read_only\":0,\"length\":0,\"translatable\":0,\"doctype\":\"DocField\"},{\"name\":\"806c46b7ff\",\"creation\":\"2013-05-03 10:45:46\",\"modified\":\"2021-01-19 16:50:09.686904\",\"modified_by\":\"works@f9tech.com\",\"owner\":\"Administrator\",\"docstatus\":0,\"parent\":\"Item\",\"parentfield\":\"fields\",\"parenttype\":\"DocType\",\"idx\":48,\"fieldname\":\"purchase_uom\",\"label\":\"Default Purchase Unit of Measure\",\"fieldtype\":\"Link\",\"options\":\"UOM\",\"search_index\":0,\"hidden\":0,\"set_only_once\":0,\"allow_in_quick_entry\":0,\"print_hide\":0,\"report_hide\":0,\"reqd\":0,\"bold\":0,\"in_global_search\":0,\"collapsible\":0,\"unique\":0,\"no_copy\":0,\"allow_on_submit\":0,\"show_preview_popup\":0,\"permlevel\":0,\"ignore_user_permissions\":0,\"columns\":0,\"in_list_view\":0,\"fetch_if_empty\":0,\"in_filter\":0,\"remember_last_selected_value\":0,\"ignore_xss_filter\":0,\"print_hide_if_no_value\":0,\"allow_bulk_edit\":0,\"in_standard_filter\":0,\"in_preview\":0,\"read_only\":0,\"length\":0,\"translatable\":0,\"doctype\":\"DocField\"},{\"name\":\"f75476e956\",\"creation\":\"2013-05-03 10:45:46\",\"modified\":\"2021-01-19 16:50:09.686904\",\"modified_by\":\"works@f9tech.com\",\"owner\":\"Administrator\",\"docstatus\":0,\"parent\":\"Item\",\"parentfield\":\"fields\",\"parenttype\":\"DocType\",\"idx\":49,\"fieldname\":\"min_order_qty\",\"label\":\"Minimum Order Qty\",\"oldfieldname\":\"min_order_qty\",\"fieldtype\":\"Float\",\"oldfieldtype\":\"Currency\",\"search_index\":0,\"hidden\":0,\"set_only_once\":0,\"allow_in_quick_entry\":0,\"print_hide\":0,\"report_hide\":0,\"reqd\":0,\"bold\":0,\"in_global_search\":0,\"collapsible\":0,\"unique\":0,\"no_copy\":0,\"allow_on_submit\":0,\"show_preview_popup\":0,\"depends_on\":\"is_stock_item\",\"permlevel\":0,\"ignore_user_permissions\":0,\"columns\":0,\"default\":\"0.00\",\"description\":\"Minimum quantity should be as per Stock UOM\",\"in_list_view\":0,\"fetch_if_empty\":0,\"in_filter\":0,\"remember_last_selected_value\":0,\"ignore_xss_filter\":0,\"print_hide_if_no_value\":0,\"allow_bulk_edit\":0,\"in_standard_filter\":0,\"in_preview\":0,\"read_only\":0,\"length\":0,\"translatable\":0,\"doctype\":\"DocField\"},{\"name\":\"59516bbf6a\",\"creation\":\"2013-05-03 10:45:46\",\"modified\":\"2021-01-19 16:50:09.686904\",\"modified_by\":\"works@f9tech.com\",\"owner\":\"Administrator\",\"docstatus\":0,\"parent\":\"Item\",\"parentfield\":\"fields\",\"parenttype\":\"DocType\",\"idx\":50,\"fieldname\":\"safety_stock\",\"label\":\"Safety Stock\",\"fieldtype\":\"Float\",\"search_index\":0,\"hidden\":0,\"set_only_once\":0,\"allow_in_quick_entry\":0,\"print_hide\":0,\"report_hide\":0,\"reqd\":0,\"bold\":0,\"in_global_search\":0,\"collapsible\":0,\"unique\":0,\"no_copy\":0,\"allow_on_submit\":0,\"show_preview_popup\":0,\"permlevel\":0,\"ignore_user_permissions\":0,\"columns\":0,\"in_list_view\":0,\"fetch_if_empty\":0,\"in_filter\":0,\"remember_last_selected_value\":0,\"ignore_xss_filter\":0,\"print_hide_if_no_value\":0,\"allow_bulk_edit\":0,\"in_standard_filter\":0,\"in_preview\":0,\"read_only\":0,\"length\":0,\"translatable\":0,\"doctype\":\"DocField\"},{\"name\":\"96b991d081\",\"creation\":\"2013-05-03 10:45:46\",\"modified\":\"2021-01-19 16:50:09.686904\",\"modified_by\":\"works@f9tech.com\",\"owner\":\"Administrator\",\"docstatus\":0,\"parent\":\"Item\",\"parentfield\":\"fields\",\"parenttype\":\"DocType\",\"idx\":51,\"fieldname\":\"purchase_details_cb\",\"fieldtype\":\"Column Break\",\"search_index\":0,\"hidden\":0,\"set_only_once\":0,\"allow_in_quick_entry\":0,\"print_hide\":0,\"report_hide\":0,\"reqd\":0,\"bold\":0,\"in_global_search\":0,\"collapsible\":0,\"unique\":0,\"no_copy\":0,\"allow_on_submit\":0,\"show_preview_popup\":0,\"permlevel\":0,\"ignore_user_permissions\":0,\"columns\":0,\"in_list_view\":0,\"fetch_if_empty\":0,\"in_filter\":0,\"remember_last_selected_value\":0,\"ignore_xss_filter\":0,\"print_hide_if_no_value\":0,\"allow_bulk_edit\":0,\"in_standard_filter\":0,\"in_preview\":0,\"read_only\":0,\"length\":0,\"translatable\":0,\"doctype\":\"DocField\"},{\"name\":\"476eb18373\",\"creation\":\"2013-05-03 10:45:46\",\"modified\":\"2021-01-19 16:50:09.686904\",\"modified_by\":\"works@f9tech.com\",\"owner\":\"Administrator\",\"docstatus\":0,\"parent\":\"Item\",\"parentfield\":\"fields\",\"parenttype\":\"DocType\",\"idx\":52,\"fieldname\":\"lead_time_days\",\"label\":\"Lead Time in days\",\"oldfieldname\":\"lead_time_days\",\"fieldtype\":\"Int\",\"oldfieldtype\":\"Int\",\"search_index\":0,\"hidden\":0,\"set_only_once\":0,\"allow_in_quick_entry\":0,\"print_hide\":0,\"report_hide\":0,\"reqd\":0,\"bold\":0,\"in_global_search\":0,\"collapsible\":0,\"unique\":0,\"no_copy\":0,\"allow_on_submit\":0,\"show_preview_popup\":0,\"permlevel\":0,\"ignore_user_permissions\":0,\"columns\":0,\"description\":\"Average time taken by the supplier to deliver\",\"in_list_view\":0,\"fetch_if_empty\":0,\"in_filter\":0,\"remember_last_selected_value\":0,\"ignore_xss_filter\":0,\"print_hide_if_no_value\":0,\"allow_bulk_edit\":0,\"in_standard_filter\":0,\"in_preview\":0,\"read_only\":0,\"length\":0,\"translatable\":0,\"doctype\":\"DocField\"},{\"name\":\"94a75896e8\",\"creation\":\"2013-05-03 10:45:46\",\"modified\":\"2021-01-19 16:50:09.686904\",\"modified_by\":\"works@f9tech.com\",\"owner\":\"Administrator\",\"docstatus\":0,\"parent\":\"Item\",\"parentfield\":\"fields\",\"parenttype\":\"DocType\",\"idx\":53,\"fieldname\":\"last_purchase_rate\",\"label\":\"Last Purchase Rate\",\"oldfieldname\":\"last_purchase_rate\",\"fieldtype\":\"Float\",\"oldfieldtype\":\"Currency\",\"search_index\":0,\"hidden\":0,\"set_only_once\":0,\"allow_in_quick_entry\":0,\"print_hide\":0,\"report_hide\":0,\"reqd\":0,\"bold\":0,\"in_global_search\":0,\"collapsible\":0,\"unique\":0,\"no_copy\":1,\"allow_on_submit\":0,\"show_preview_popup\":0,\"permlevel\":0,\"ignore_user_permissions\":0,\"columns\":0,\"in_list_view\":0,\"fetch_if_empty\":0,\"in_filter\":0,\"remember_last_selected_value\":0,\"ignore_xss_filter\":0,\"print_hide_if_no_value\":0,\"allow_bulk_edit\":0,\"in_standard_filter\":0,\"in_preview\":0,\"read_only\":1,\"length\":0,\"translatable\":0,\"doctype\":\"DocField\"},{\"name\":\"662b85a4b9\",\"creation\":\"2013-05-03 10:45:46\",\"modified\":\"2021-01-19 16:50:09.686904\",\"modified_by\":\"works@f9tech.com\",\"owner\":\"Administrator\",\"docstatus\":0,\"parent\":\"Item\",\"parentfield\":\"fields\",\"parenttype\":\"DocType\",\"idx\":54,\"fieldname\":\"is_customer_provided_item\",\"label\":\"Is Customer Provided Item\",\"fieldtype\":\"Check\",\"search_index\":0,\"hidden\":0,\"set_only_once\":0,\"allow_in_quick_entry\":0,\"print_hide\":0,\"report_hide\":0,\"reqd\":0,\"bold\":0,\"in_global_search\":0,\"collapsible\":0,\"unique\":0,\"no_copy\":0,\"allow_on_submit\":0,\"show_preview_popup\":0,\"permlevel\":0,\"ignore_user_permissions\":0,\"columns\":0,\"default\":\"0\",\"in_list_view\":0,\"fetch_if_empty\":0,\"in_filter\":0,\"remember_last_selected_value\":0,\"ignore_xss_filter\":0,\"print_hide_if_no_value\":0,\"allow_bulk_edit\":0,\"in_standard_filter\":0,\"in_preview\":0,\"read_only\":0,\"length\":0,\"translatable\":0,\"doctype\":\"DocField\"},{\"name\":\"17ef3edb91\",\"creation\":\"2013-05-03 10:45:46\",\"modified\":\"2021-01-19 16:50:09.686904\",\"modified_by\":\"works@f9tech.com\",\"owner\":\"Administrator\",\"docstatus\":0,\"parent\":\"Item\",\"parentfield\":\"fields\",\"parenttype\":\"DocType\",\"idx\":55,\"fieldname\":\"customer\",\"label\":\"Customer\",\"fieldtype\":\"Link\",\"options\":\"Customer\",\"search_index\":0,\"hidden\":0,\"set_only_once\":0,\"allow_in_quick_entry\":0,\"print_hide\":0,\"report_hide\":0,\"reqd\":0,\"bold\":0,\"in_global_search\":0,\"collapsible\":0,\"unique\":0,\"no_copy\":0,\"allow_on_submit\":0,\"show_preview_popup\":0,\"depends_on\":\"eval:doc.is_customer_provided_item==1\",\"permlevel\":0,\"ignore_user_permissions\":0,\"columns\":0,\"in_list_view\":0,\"fetch_if_empty\":0,\"in_filter\":0,\"remember_last_selected_value\":0,\"ignore_xss_filter\":0,\"print_hide_if_no_value\":0,\"allow_bulk_edit\":0,\"in_standard_filter\":0,\"in_preview\":0,\"read_only\":0,\"length\":0,\"translatable\":0,\"doctype\":\"DocField\"},{\"name\":\"b00a894245\",\"creation\":\"2013-05-03 10:45:46\",\"modified\":\"2021-01-19 16:50:09.686904\",\"modified_by\":\"works@f9tech.com\",\"owner\":\"Administrator\",\"docstatus\":0,\"parent\":\"Item\",\"parentfield\":\"fields\",\"parenttype\":\"DocType\",\"idx\":56,\"fieldname\":\"item_tax_section_break\",\"label\":\"Item Tax\",\"fieldtype\":\"Section Break\",\"oldfieldtype\":\"Section Break\",\"options\":\"fa fa-money\",\"search_index\":0,\"hidden\":0,\"set_only_once\":0,\"allow_in_quick_entry\":0,\"print_hide\":0,\"report_hide\":0,\"reqd\":0,\"bold\":0,\"in_global_search\":0,\"collapsible\":1,\"unique\":0,\"no_copy\":0,\"allow_on_submit\":0,\"show_preview_popup\":0,\"collapsible_depends_on\":\"taxes\",\"depends_on\":\"\",\"permlevel\":0,\"ignore_user_permissions\":0,\"columns\":0,\"in_list_view\":0,\"fetch_if_empty\":0,\"in_filter\":0,\"remember_last_selected_value\":0,\"ignore_xss_filter\":0,\"print_hide_if_no_value\":0,\"allow_bulk_edit\":0,\"in_standard_filter\":0,\"in_preview\":0,\"read_only\":0,\"length\":0,\"translatable\":0,\"doctype\":\"DocField\"},{\"name\":\"f8b93fd127\",\"creation\":\"2013-05-03 10:45:46\",\"modified\":\"2021-01-19 16:50:09.686904\",\"modified_by\":\"works@f9tech.com\",\"owner\":\"Administrator\",\"docstatus\":0,\"parent\":\"Item\",\"parentfield\":\"fields\",\"parenttype\":\"DocType\",\"idx\":57,\"fieldname\":\"taxes\",\"label\":\"Taxes\",\"oldfieldname\":\"item_tax\",\"fieldtype\":\"Table\",\"oldfieldtype\":\"Table\",\"options\":\"Item Tax\",\"search_index\":0,\"hidden\":0,\"set_only_once\":0,\"allow_in_quick_entry\":0,\"print_hide\":0,\"report_hide\":0,\"reqd\":0,\"bold\":0,\"in_global_search\":0,\"collapsible\":0,\"unique\":0,\"no_copy\":0,\"allow_on_submit\":0,\"show_preview_popup\":0,\"permlevel\":0,\"ignore_user_permissions\":0,\"columns\":0,\"description\":\"Will also apply for variants\",\"in_list_view\":0,\"fetch_if_empty\":0,\"in_filter\":0,\"remember_last_selected_value\":0,\"ignore_xss_filter\":0,\"print_hide_if_no_value\":0,\"allow_bulk_edit\":0,\"in_standard_filter\":0,\"in_preview\":0,\"read_only\":0,\"length\":0,\"translatable\":0,\"doctype\":\"DocField\"},{\"name\":\"95ac6a2bc4\",\"creation\":\"2013-05-03 10:45:46\",\"modified\":\"2021-01-19 16:50:09.686904\",\"modified_by\":\"works@f9tech.com\",\"owner\":\"Administrator\",\"docstatus\":0,\"parent\":\"Item\",\"parentfield\":\"fields\",\"parenttype\":\"DocType\",\"idx\":58,\"fieldname\":\"inspection_criteria\",\"label\":\"Inspection Criteria\",\"fieldtype\":\"Section Break\",\"oldfieldtype\":\"Section Break\",\"options\":\"fa fa-search\",\"search_index\":0,\"hidden\":0,\"set_only_once\":0,\"allow_in_quick_entry\":0,\"print_hide\":0,\"report_hide\":0,\"reqd\":0,\"bold\":0,\"in_global_search\":0,\"collapsible\":1,\"unique\":0,\"no_copy\":0,\"allow_on_submit\":0,\"show_preview_popup\":0,\"permlevel\":0,\"ignore_user_permissions\":0,\"columns\":0,\"in_list_view\":0,\"fetch_if_empty\":0,\"in_filter\":0,\"remember_last_selected_value\":0,\"ignore_xss_filter\":0,\"print_hide_if_no_value\":0,\"allow_bulk_edit\":0,\"in_standard_filter\":0,\"in_preview\":0,\"read_only\":0,\"length\":0,\"translatable\":0,\"doctype\":\"DocField\"},{\"name\":\"f340aa28ff\",\"creation\":\"2013-05-03 10:45:46\",\"modified\":\"2021-01-19 16:50:09.686904\",\"modified_by\":\"works@f9tech.com\",\"owner\":\"Administrator\",\"docstatus\":0,\"parent\":\"Item\",\"parentfield\":\"fields\",\"parenttype\":\"DocType\",\"idx\":59,\"fieldname\":\"inspection_required_before_purchase\",\"label\":\"Inspection Required before Purchase\",\"oldfieldname\":\"inspection_required\",\"fieldtype\":\"Check\",\"oldfieldtype\":\"Select\",\"search_index\":0,\"hidden\":0,\"set_only_once\":0,\"allow_in_quick_entry\":0,\"print_hide\":0,\"report_hide\":0,\"reqd\":0,\"bold\":0,\"in_global_search\":0,\"collapsible\":0,\"unique\":0,\"no_copy\":0,\"allow_on_submit\":0,\"show_preview_popup\":0,\"collapsible_depends_on\":\"\",\"permlevel\":0,\"ignore_user_permissions\":0,\"columns\":0,\"default\":\"0\",\"in_list_view\":0,\"fetch_if_empty\":0,\"in_filter\":0,\"remember_last_selected_value\":0,\"ignore_xss_filter\":0,\"print_hide_if_no_value\":0,\"allow_bulk_edit\":0,\"in_standard_filter\":0,\"in_preview\":0,\"read_only\":0,\"length\":0,\"translatable\":0,\"doctype\":\"DocField\"},{\"name\":\"7ff7cd9c61\",\"creation\":\"2013-05-03 10:45:46\",\"modified\":\"2021-01-19 16:50:09.686904\",\"modified_by\":\"works@f9tech.com\",\"owner\":\"Administrator\",\"docstatus\":0,\"parent\":\"Item\",\"parentfield\":\"fields\",\"parenttype\":\"DocType\",\"idx\":60,\"fieldname\":\"inspection_required_before_delivery\",\"label\":\"Inspection Required before Delivery\",\"fieldtype\":\"Check\",\"search_index\":0,\"hidden\":0,\"set_only_once\":0,\"allow_in_quick_entry\":0,\"print_hide\":0,\"report_hide\":0,\"reqd\":0,\"bold\":0,\"in_global_search\":0,\"collapsible\":0,\"unique\":0,\"no_copy\":0,\"allow_on_submit\":0,\"show_preview_popup\":0,\"permlevel\":0,\"ignore_user_permissions\":0,\"columns\":0,\"default\":\"0\",\"in_list_view\":0,\"fetch_if_empty\":0,\"in_filter\":0,\"remember_last_selected_value\":0,\"ignore_xss_filter\":0,\"print_hide_if_no_value\":0,\"allow_bulk_edit\":0,\"in_standard_filter\":0,\"in_preview\":0,\"read_only\":0,\"length\":0,\"translatable\":0,\"doctype\":\"DocField\"},{\"name\":\"7aaf3c3d20\",\"creation\":\"2013-05-03 10:45:46\",\"modified\":\"2021-01-19 16:50:09.686904\",\"modified_by\":\"works@f9tech.com\",\"owner\":\"Administrator\",\"docstatus\":0,\"parent\":\"Item\",\"parentfield\":\"fields\",\"parenttype\":\"DocType\",\"idx\":61,\"fieldname\":\"quality_inspection_template\",\"label\":\"Quality Inspection Template\",\"fieldtype\":\"Link\",\"options\":\"Quality Inspection Template\",\"search_index\":0,\"hidden\":0,\"set_only_once\":0,\"allow_in_quick_entry\":0,\"print_hide\":1,\"report_hide\":0,\"reqd\":0,\"bold\":0,\"in_global_search\":0,\"collapsible\":0,\"unique\":0,\"no_copy\":0,\"allow_on_submit\":0,\"show_preview_popup\":0,\"depends_on\":\"eval:(doc.inspection_required_before_purchase || doc.inspection_required_before_delivery)\",\"permlevel\":0,\"ignore_user_permissions\":0,\"columns\":0,\"in_list_view\":0,\"fetch_if_empty\":0,\"in_filter\":0,\"remember_last_selected_value\":0,\"ignore_xss_filter\":0,\"print_hide_if_no_value\":0,\"allow_bulk_edit\":0,\"in_standard_filter\":0,\"in_preview\":0,\"read_only\":0,\"length\":0,\"translatable\":0,\"doctype\":\"DocField\"},{\"name\":\"d1906e03e3\",\"creation\":\"2013-05-03 10:45:46\",\"modified\":\"2021-01-19 16:50:09.686904\",\"modified_by\":\"works@f9tech.com\",\"owner\":\"Administrator\",\"docstatus\":0,\"parent\":\"Item\",\"parentfield\":\"fields\",\"parenttype\":\"DocType\",\"idx\":62,\"fieldname\":\"manufacturing\",\"label\":\"Manufacturing\",\"fieldtype\":\"Section Break\",\"oldfieldtype\":\"Section Break\",\"options\":\"fa fa-cogs\",\"search_index\":0,\"hidden\":0,\"set_only_once\":0,\"allow_in_quick_entry\":0,\"print_hide\":0,\"report_hide\":0,\"reqd\":0,\"bold\":0,\"in_global_search\":0,\"collapsible\":1,\"unique\":0,\"no_copy\":0,\"allow_on_submit\":0,\"show_preview_popup\":0,\"depends_on\":\"is_stock_item\",\"permlevel\":0,\"ignore_user_permissions\":0,\"columns\":0,\"in_list_view\":0,\"fetch_if_empty\":0,\"in_filter\":0,\"remember_last_selected_value\":0,\"ignore_xss_filter\":0,\"print_hide_if_no_value\":0,\"allow_bulk_edit\":0,\"in_standard_filter\":0,\"in_preview\":0,\"read_only\":0,\"length\":0,\"translatable\":0,\"doctype\":\"DocField\"},{\"name\":\"fad4ab9a5a\",\"creation\":\"2013-05-03 10:45:46\",\"modified\":\"2021-01-19 16:50:09.686904\",\"modified_by\":\"works@f9tech.com\",\"owner\":\"Administrator\",\"docstatus\":0,\"parent\":\"Item\",\"parentfield\":\"fields\",\"parenttype\":\"DocType\",\"idx\":63,\"fieldname\":\"default_bom\",\"label\":\"Default BOM\",\"oldfieldname\":\"default_bom\",\"fieldtype\":\"Link\",\"oldfieldtype\":\"Link\",\"options\":\"BOM\",\"search_index\":0,\"hidden\":0,\"set_only_once\":0,\"allow_in_quick_entry\":0,\"print_hide\":0,\"report_hide\":0,\"reqd\":0,\"bold\":0,\"in_global_search\":0,\"collapsible\":0,\"unique\":0,\"no_copy\":1,\"allow_on_submit\":0,\"show_preview_popup\":0,\"permlevel\":0,\"ignore_user_permissions\":1,\"columns\":0,\"in_list_view\":0,\"fetch_if_empty\":0,\"in_filter\":0,\"remember_last_selected_value\":0,\"ignore_xss_filter\":0,\"print_hide_if_no_value\":0,\"allow_bulk_edit\":0,\"in_standard_filter\":0,\"in_preview\":0,\"read_only\":1,\"length\":0,\"translatable\":0,\"doctype\":\"DocField\"},{\"name\":\"8e0bf89a28\",\"creation\":\"2013-05-03 10:45:46\",\"modified\":\"2021-01-19 16:50:09.686904\",\"modified_by\":\"works@f9tech.com\",\"owner\":\"Administrator\",\"docstatus\":0,\"parent\":\"Item\",\"parentfield\":\"fields\",\"parenttype\":\"DocType\",\"idx\":64,\"fieldname\":\"is_sub_contracted_item\",\"label\":\"Supply Raw Materials for Purchase\",\"oldfieldname\":\"is_sub_contracted_item\",\"fieldtype\":\"Check\",\"oldfieldtype\":\"Select\",\"search_index\":0,\"hidden\":0,\"set_only_once\":0,\"allow_in_quick_entry\":0,\"print_hide\":0,\"report_hide\":0,\"reqd\":0,\"bold\":0,\"in_global_search\":0,\"collapsible\":0,\"unique\":0,\"no_copy\":0,\"allow_on_submit\":0,\"show_preview_popup\":0,\"permlevel\":0,\"ignore_user_permissions\":0,\"columns\":0,\"default\":\"0\",\"description\":\"If subcontracted to a vendor\",\"in_list_view\":0,\"fetch_if_empty\":0,\"in_filter\":0,\"remember_last_selected_value\":0,\"ignore_xss_filter\":0,\"print_hide_if_no_value\":0,\"allow_bulk_edit\":0,\"in_standard_filter\":0,\"in_preview\":0,\"read_only\":0,\"length\":0,\"translatable\":0,\"doctype\":\"DocField\"},{\"name\":\"1db47dc8ac\",\"creation\":\"2013-05-03 10:45:46\",\"modified\":\"2021-01-19 16:50:09.686904\",\"modified_by\":\"works@f9tech.com\",\"owner\":\"Administrator\",\"docstatus\":0,\"parent\":\"Item\",\"parentfield\":\"fields\",\"parenttype\":\"DocType\",\"idx\":65,\"fieldname\":\"column_break_74\",\"fieldtype\":\"Column Break\",\"search_index\":0,\"hidden\":0,\"set_only_once\":0,\"allow_in_quick_entry\":0,\"print_hide\":0,\"report_hide\":0,\"reqd\":0,\"bold\":0,\"in_global_search\":0,\"collapsible\":0,\"unique\":0,\"no_copy\":0,\"allow_on_submit\":0,\"show_preview_popup\":0,\"permlevel\":0,\"ignore_user_permissions\":0,\"columns\":0,\"in_list_view\":0,\"fetch_if_empty\":0,\"in_filter\":0,\"remember_last_selected_value\":0,\"ignore_xss_filter\":0,\"print_hide_if_no_value\":0,\"allow_bulk_edit\":0,\"in_standard_filter\":0,\"in_preview\":0,\"read_only\":0,\"length\":0,\"translatable\":0,\"doctype\":\"DocField\"},{\"name\":\"12884c2d61\",\"creation\":\"2013-05-03 10:45:46\",\"modified\":\"2021-01-19 16:50:09.686904\",\"modified_by\":\"works@f9tech.com\",\"owner\":\"Administrator\",\"docstatus\":0,\"parent\":\"Item\",\"parentfield\":\"fields\",\"parenttype\":\"DocType\",\"idx\":66,\"fieldname\":\"customer_code\",\"label\":\"Customer Code\",\"fieldtype\":\"Data\",\"search_index\":0,\"hidden\":1,\"set_only_once\":0,\"allow_in_quick_entry\":0,\"print_hide\":1,\"report_hide\":0,\"reqd\":0,\"bold\":0,\"in_global_search\":0,\"collapsible\":0,\"unique\":0,\"no_copy\":1,\"allow_on_submit\":0,\"show_preview_popup\":0,\"permlevel\":0,\"ignore_user_permissions\":0,\"columns\":0,\"in_list_view\":0,\"fetch_if_empty\":0,\"in_filter\":0,\"remember_last_selected_value\":0,\"ignore_xss_filter\":0,\"print_hide_if_no_value\":0,\"allow_bulk_edit\":0,\"in_standard_filter\":0,\"in_preview\":0,\"read_only\":0,\"length\":0,\"translatable\":0,\"doctype\":\"DocField\"},{\"name\":\"3d663f7af5\",\"creation\":\"2013-05-03 10:45:46\",\"modified\":\"2021-01-19 16:50:09.686904\",\"modified_by\":\"works@f9tech.com\",\"owner\":\"Administrator\",\"docstatus\":0,\"parent\":\"Item\",\"parentfield\":\"fields\",\"parenttype\":\"DocType\",\"idx\":67,\"fieldname\":\"website_section\",\"label\":\"Website\",\"fieldtype\":\"Section Break\",\"options\":\"fa fa-globe\",\"search_index\":0,\"hidden\":0,\"set_only_once\":0,\"allow_in_quick_entry\":0,\"print_hide\":0,\"report_hide\":0,\"reqd\":0,\"bold\":0,\"in_global_search\":0,\"collapsible\":1,\"unique\":0,\"no_copy\":0,\"allow_on_submit\":0,\"show_preview_popup\":0,\"permlevel\":0,\"ignore_user_permissions\":0,\"columns\":0,\"in_list_view\":0,\"fetch_if_empty\":0,\"in_filter\":0,\"remember_last_selected_value\":0,\"ignore_xss_filter\":0,\"print_hide_if_no_value\":0,\"allow_bulk_edit\":0,\"in_standard_filter\":0,\"in_preview\":0,\"read_only\":0,\"length\":0,\"translatable\":0,\"doctype\":\"DocField\"},{\"name\":\"a5cd976399\",\"creation\":\"2013-05-03 10:45:46\",\"modified\":\"2021-01-19 16:50:09.686904\",\"modified_by\":\"works@f9tech.com\",\"owner\":\"works@f9tech.com\",\"docstatus\":0,\"parent\":\"Item\",\"parentfield\":\"fields\",\"parenttype\":\"DocType\",\"idx\":68,\"fieldname\":\"show_in_website\",\"label\":\"Show in Website\",\"fieldtype\":\"Check\",\"search_index\":0,\"hidden\":0,\"set_only_once\":0,\"allow_in_quick_entry\":0,\"print_hide\":0,\"report_hide\":0,\"reqd\":0,\"bold\":0,\"in_global_search\":0,\"collapsible\":0,\"unique\":0,\"no_copy\":0,\"allow_on_submit\":0,\"show_preview_popup\":0,\"depends_on\":\"eval:!doc.variant_of\",\"permlevel\":0,\"ignore_user_permissions\":0,\"columns\":0,\"default\":\"0\",\"in_list_view\":0,\"fetch_if_empty\":0,\"in_filter\":0,\"remember_last_selected_value\":0,\"ignore_xss_filter\":0,\"print_hide_if_no_value\":0,\"allow_bulk_edit\":0,\"in_standard_filter\":0,\"in_preview\":0,\"read_only\":0,\"precision\":\"\",\"length\":0,\"translatable\":0,\"doctype\":\"DocField\"},{\"name\":\"e6538465e3\",\"creation\":\"2013-05-03 10:45:46\",\"modified\":\"2021-01-19 16:50:09.686904\",\"modified_by\":\"works@f9tech.com\",\"owner\":\"works@f9tech.com\",\"docstatus\":0,\"parent\":\"Item\",\"parentfield\":\"fields\",\"parenttype\":\"DocType\",\"idx\":69,\"fieldname\":\"show_variant_in_website\",\"label\":\"Show in Website (Variant)\",\"fieldtype\":\"Check\",\"search_index\":0,\"hidden\":0,\"set_only_once\":0,\"allow_in_quick_entry\":0,\"print_hide\":0,\"report_hide\":0,\"reqd\":0,\"bold\":0,\"in_global_search\":0,\"collapsible\":0,\"unique\":0,\"no_copy\":0,\"allow_on_submit\":0,\"show_preview_popup\":0,\"depends_on\":\"variant_of\",\"permlevel\":0,\"ignore_user_permissions\":0,\"columns\":0,\"default\":\"0\",\"in_list_view\":0,\"fetch_if_empty\":0,\"in_filter\":0,\"remember_last_selected_value\":0,\"ignore_xss_filter\":0,\"print_hide_if_no_value\":0,\"allow_bulk_edit\":0,\"in_standard_filter\":0,\"in_preview\":0,\"read_only\":0,\"precision\":\"\",\"length\":0,\"translatable\":0,\"doctype\":\"DocField\"},{\"name\":\"8e0dc3c81f\",\"creation\":\"2013-05-03 10:45:46\",\"modified\":\"2021-01-19 16:50:09.686904\",\"modified_by\":\"works@f9tech.com\",\"owner\":\"Administrator\",\"docstatus\":0,\"parent\":\"Item\",\"parentfield\":\"fields\",\"parenttype\":\"DocType\",\"idx\":70,\"fieldname\":\"route\",\"label\":\"Route\",\"fieldtype\":\"Small Text\",\"search_index\":0,\"hidden\":0,\"set_only_once\":0,\"allow_in_quick_entry\":0,\"print_hide\":0,\"report_hide\":0,\"reqd\":0,\"bold\":0,\"in_global_search\":0,\"collapsible\":0,\"unique\":0,\"no_copy\":0,\"allow_on_submit\":0,\"show_preview_popup\":0,\"depends_on\":\"eval: doc.show_in_website || doc.show_variant_in_website\",\"permlevel\":0,\"ignore_user_permissions\":0,\"columns\":0,\"in_list_view\":0,\"fetch_if_empty\":0,\"in_filter\":1,\"remember_last_selected_value\":0,\"ignore_xss_filter\":0,\"print_hide_if_no_value\":0,\"allow_bulk_edit\":0,\"in_standard_filter\":0,\"in_preview\":0,\"read_only\":0,\"length\":0,\"translatable\":0,\"doctype\":\"DocField\"},{\"name\":\"0eade60cab\",\"creation\":\"2013-05-03 10:45:46\",\"modified\":\"2021-01-19 16:50:09.686904\",\"modified_by\":\"works@f9tech.com\",\"owner\":\"Administrator\",\"docstatus\":0,\"parent\":\"Item\",\"parentfield\":\"fields\",\"parenttype\":\"DocType\",\"idx\":71,\"fieldname\":\"total_projected_qty\",\"label\":\"Total Projected Qty\",\"fieldtype\":\"Float\",\"search_index\":0,\"hidden\":1,\"set_only_once\":0,\"allow_in_quick_entry\":0,\"print_hide\":1,\"report_hide\":0,\"reqd\":0,\"bold\":0,\"in_global_search\":0,\"collapsible\":0,\"unique\":0,\"no_copy\":0,\"allow_on_submit\":0,\"show_preview_popup\":0,\"depends_on\":\"\",\"permlevel\":0,\"ignore_user_permissions\":0,\"columns\":0,\"in_list_view\":0,\"fetch_if_empty\":0,\"in_filter\":0,\"remember_last_selected_value\":0,\"ignore_xss_filter\":0,\"print_hide_if_no_value\":0,\"allow_bulk_edit\":0,\"in_standard_filter\":0,\"in_preview\":0,\"read_only\":1,\"length\":0,\"translatable\":0,\"doctype\":\"DocField\"},{\"name\":\"d4af642fee\",\"creation\":\"2013-05-03 10:45:46\",\"modified\":\"2021-01-19 16:50:09.686904\",\"modified_by\":\"works@f9tech.com\",\"owner\":\"Administrator\",\"docstatus\":0,\"parent\":\"Item\",\"parentfield\":\"fields\",\"parenttype\":\"DocType\",\"idx\":72,\"fieldname\":\"hub_publishing_sb\",\"label\":\"Hub Publishing Details\",\"fieldtype\":\"Section Break\",\"search_index\":0,\"hidden\":0,\"set_only_once\":0,\"allow_in_quick_entry\":0,\"print_hide\":0,\"report_hide\":0,\"reqd\":0,\"bold\":0,\"in_global_search\":0,\"collapsible\":0,\"unique\":0,\"no_copy\":0,\"allow_on_submit\":0,\"show_preview_popup\":0,\"depends_on\":\"eval:(!doc.is_item_from_hub)\",\"permlevel\":0,\"ignore_user_permissions\":0,\"columns\":0,\"in_list_view\":0,\"fetch_if_empty\":0,\"in_filter\":0,\"remember_last_selected_value\":0,\"ignore_xss_filter\":0,\"print_hide_if_no_value\":0,\"allow_bulk_edit\":0,\"in_standard_filter\":0,\"in_preview\":0,\"read_only\":0,\"length\":0,\"translatable\":0,\"doctype\":\"DocField\"},{\"name\":\"ff56e6c31d\",\"creation\":\"2013-05-03 10:45:46\",\"modified\":\"2021-01-19 16:50:09.686904\",\"modified_by\":\"works@f9tech.com\",\"owner\":\"Administrator\",\"docstatus\":0,\"parent\":\"Item\",\"parentfield\":\"fields\",\"parenttype\":\"DocType\",\"idx\":73,\"fieldname\":\"publish_in_hub\",\"label\":\"Publish in Hub\",\"fieldtype\":\"Check\",\"search_index\":0,\"hidden\":0,\"set_only_once\":0,\"allow_in_quick_entry\":0,\"print_hide\":0,\"report_hide\":0,\"reqd\":0,\"bold\":0,\"in_global_search\":0,\"collapsible\":0,\"unique\":0,\"no_copy\":0,\"allow_on_submit\":0,\"show_preview_popup\":0,\"permlevel\":0,\"ignore_user_permissions\":0,\"columns\":0,\"default\":\"0\",\"description\":\"Publish Item to hub.erpnext.com\",\"in_list_view\":0,\"fetch_if_empty\":0,\"in_filter\":0,\"remember_last_selected_value\":0,\"ignore_xss_filter\":0,\"print_hide_if_no_value\":0,\"allow_bulk_edit\":0,\"in_standard_filter\":0,\"in_preview\":0,\"read_only\":0,\"length\":0,\"translatable\":0,\"doctype\":\"DocField\"},{\"name\":\"a3b69cc694\",\"creation\":\"2013-05-03 10:45:46\",\"modified\":\"2021-01-19 16:50:09.686904\",\"modified_by\":\"works@f9tech.com\",\"owner\":\"Administrator\",\"docstatus\":0,\"parent\":\"Item\",\"parentfield\":\"fields\",\"parenttype\":\"DocType\",\"idx\":74,\"fieldname\":\"hub_category_to_publish\",\"label\":\"Hub Category to Publish\",\"fieldtype\":\"Data\",\"search_index\":0,\"hidden\":0,\"set_only_once\":0,\"allow_in_quick_entry\":0,\"print_hide\":0,\"report_hide\":0,\"reqd\":0,\"bold\":0,\"in_global_search\":0,\"collapsible\":0,\"unique\":0,\"no_copy\":0,\"allow_on_submit\":0,\"show_preview_popup\":0,\"permlevel\":0,\"ignore_user_permissions\":0,\"columns\":0,\"in_list_view\":0,\"fetch_if_empty\":0,\"in_filter\":0,\"remember_last_selected_value\":0,\"ignore_xss_filter\":0,\"print_hide_if_no_value\":0,\"allow_bulk_edit\":0,\"in_standard_filter\":0,\"in_preview\":0,\"read_only\":1,\"length\":0,\"translatable\":0,\"doctype\":\"DocField\"},{\"name\":\"071786779d\",\"creation\":\"2013-05-03 10:45:46\",\"modified\":\"2021-01-19 16:50:09.686904\",\"modified_by\":\"works@f9tech.com\",\"owner\":\"Administrator\",\"docstatus\":0,\"parent\":\"Item\",\"parentfield\":\"fields\",\"parenttype\":\"DocType\",\"idx\":75,\"fieldname\":\"hub_warehouse\",\"label\":\"Hub Warehouse\",\"fieldtype\":\"Link\",\"options\":\"Warehouse\",\"search_index\":0,\"hidden\":0,\"set_only_once\":0,\"allow_in_quick_entry\":0,\"print_hide\":0,\"report_hide\":0,\"reqd\":0,\"bold\":0,\"in_global_search\":0,\"collapsible\":0,\"unique\":0,\"no_copy\":0,\"allow_on_submit\":0,\"show_preview_popup\":0,\"depends_on\":\"\",\"permlevel\":0,\"ignore_user_permissions\":1,\"columns\":0,\"description\":\"Publish \\\"In Stock\\\" or \\\"Not in Stock\\\" on Hub based on stock available in this warehouse.\",\"in_list_view\":0,\"fetch_if_empty\":0,\"in_filter\":0,\"remember_last_selected_value\":0,\"ignore_xss_filter\":0,\"print_hide_if_no_value\":0,\"allow_bulk_edit\":0,\"in_standard_filter\":0,\"in_preview\":0,\"read_only\":0,\"length\":0,\"translatable\":0,\"doctype\":\"DocField\"},{\"name\":\"1761620e35\",\"creation\":\"2013-05-03 10:45:46\",\"modified\":\"2021-01-19 16:50:09.686904\",\"modified_by\":\"works@f9tech.com\",\"owner\":\"Administrator\",\"docstatus\":0,\"parent\":\"Item\",\"parentfield\":\"fields\",\"parenttype\":\"DocType\",\"idx\":76,\"fieldname\":\"synced_with_hub\",\"label\":\"Synced With Hub\",\"fieldtype\":\"Check\",\"search_index\":0,\"hidden\":0,\"set_only_once\":0,\"allow_in_quick_entry\":0,\"print_hide\":0,\"report_hide\":0,\"reqd\":0,\"bold\":0,\"in_global_search\":0,\"collapsible\":0,\"unique\":0,\"no_copy\":0,\"allow_on_submit\":0,\"show_preview_popup\":0,\"permlevel\":0,\"ignore_user_permissions\":0,\"columns\":0,\"default\":\"0\",\"in_list_view\":0,\"fetch_if_empty\":0,\"in_filter\":0,\"remember_last_selected_value\":0,\"ignore_xss_filter\":0,\"print_hide_if_no_value\":0,\"allow_bulk_edit\":0,\"in_standard_filter\":0,\"in_preview\":0,\"read_only\":1,\"length\":0,\"translatable\":0,\"doctype\":\"DocField\"},{\"name\":\"b39847c10f\",\"creation\":\"2013-05-03 10:45:46\",\"modified\":\"2021-01-19 16:50:09.686904\",\"modified_by\":\"works@f9tech.com\",\"owner\":\"works@f9tech.com\",\"docstatus\":0,\"parent\":\"Item\",\"parentfield\":\"fields\",\"parenttype\":\"DocType\",\"idx\":77,\"fieldname\":\"sample\",\"label\":\"Sample\",\"fieldtype\":\"Data\",\"search_index\":0,\"hidden\":0,\"set_only_once\":0,\"allow_in_quick_entry\":0,\"print_hide\":0,\"report_hide\":0,\"reqd\":0,\"bold\":0,\"in_global_search\":0,\"collapsible\":0,\"unique\":0,\"no_copy\":0,\"allow_on_submit\":0,\"show_preview_popup\":0,\"permlevel\":0,\"ignore_user_permissions\":0,\"columns\":0,\"in_list_view\":0,\"fetch_if_empty\":0,\"in_filter\":0,\"remember_last_selected_value\":0,\"ignore_xss_filter\":0,\"print_hide_if_no_value\":0,\"allow_bulk_edit\":0,\"in_standard_filter\":0,\"in_preview\":0,\"read_only\":0,\"precision\":\"\",\"length\":0,\"translatable\":0,\"doctype\":\"DocField\"}],\"permissions\":[{\"name\":\"777b335df3\",\"creation\":\"2013-05-03 10:45:46\",\"modified\":\"2021-01-19 16:50:09.686904\",\"modified_by\":\"works@f9tech.com\",\"owner\":\"Administrator\",\"docstatus\":0,\"parent\":\"Item\",\"parentfield\":\"permissions\",\"parenttype\":\"DocType\",\"idx\":1,\"permlevel\":0,\"role\":\"Item Manager\",\"read\":1,\"write\":1,\"create\":1,\"submit\":0,\"cancel\":0,\"delete\":1,\"amend\":0,\"report\":1,\"export\":1,\"import\":1,\"share\":1,\"print\":1,\"email\":1,\"if_owner\":0,\"set_user_permissions\":0,\"doctype\":\"DocPerm\"},{\"name\":\"7abd66760b\",\"creation\":\"2013-05-03 10:45:46\",\"modified\":\"2021-01-19 16:50:09.686904\",\"modified_by\":\"works@f9tech.com\",\"owner\":\"Administrator\",\"docstatus\":0,\"parent\":\"Item\",\"parentfield\":\"permissions\",\"parenttype\":\"DocType\",\"idx\":2,\"permlevel\":0,\"role\":\"Stock Manager\",\"read\":1,\"write\":0,\"create\":0,\"submit\":0,\"cancel\":0,\"delete\":0,\"amend\":0,\"report\":1,\"export\":0,\"import\":0,\"share\":0,\"print\":1,\"email\":1,\"if_owner\":0,\"set_user_permissions\":0,\"doctype\":\"DocPerm\"},{\"name\":\"771fc994cc\",\"creation\":\"2013-05-03 10:45:46\",\"modified\":\"2021-01-19 16:50:09.686904\",\"modified_by\":\"works@f9tech.com\",\"owner\":\"Administrator\",\"docstatus\":0,\"parent\":\"Item\",\"parentfield\":\"permissions\",\"parenttype\":\"DocType\",\"idx\":3,\"permlevel\":0,\"role\":\"Stock User\",\"read\":1,\"write\":0,\"create\":0,\"submit\":0,\"cancel\":0,\"delete\":0,\"amend\":0,\"report\":1,\"export\":0,\"import\":0,\"share\":0,\"print\":1,\"email\":1,\"if_owner\":0,\"set_user_permissions\":0,\"doctype\":\"DocPerm\"},{\"name\":\"73b2c38f2a\",\"creation\":\"2013-05-03 10:45:46\",\"modified\":\"2021-01-19 16:50:09.686904\",\"modified_by\":\"works@f9tech.com\",\"owner\":\"Administrator\",\"docstatus\":0,\"parent\":\"Item\",\"parentfield\":\"permissions\",\"parenttype\":\"DocType\",\"idx\":4,\"permlevel\":0,\"role\":\"Sales User\",\"read\":1,\"write\":0,\"create\":0,\"submit\":0,\"cancel\":0,\"delete\":0,\"amend\":0,\"report\":0,\"export\":0,\"import\":0,\"share\":0,\"print\":0,\"email\":0,\"if_owner\":0,\"set_user_permissions\":0,\"doctype\":\"DocPerm\"},{\"name\":\"1106dd986e\",\"creation\":\"2013-05-03 10:45:46\",\"modified\":\"2021-01-19 16:50:09.686904\",\"modified_by\":\"works@f9tech.com\",\"owner\":\"Administrator\",\"docstatus\":0,\"parent\":\"Item\",\"parentfield\":\"permissions\",\"parenttype\":\"DocType\",\"idx\":5,\"permlevel\":0,\"role\":\"Purchase User\",\"read\":1,\"write\":0,\"create\":0,\"submit\":0,\"cancel\":0,\"delete\":0,\"amend\":0,\"report\":0,\"export\":0,\"import\":0,\"share\":0,\"print\":0,\"email\":0,\"if_owner\":0,\"set_user_permissions\":0,\"doctype\":\"DocPerm\"},{\"name\":\"5f90a592c9\",\"creation\":\"2013-05-03 10:45:46\",\"modified\":\"2021-01-19 16:50:09.686904\",\"modified_by\":\"works@f9tech.com\",\"owner\":\"Administrator\",\"docstatus\":0,\"parent\":\"Item\",\"parentfield\":\"permissions\",\"parenttype\":\"DocType\",\"idx\":6,\"permlevel\":0,\"role\":\"Maintenance User\",\"read\":1,\"write\":0,\"create\":0,\"submit\":0,\"cancel\":0,\"delete\":0,\"amend\":0,\"report\":0,\"export\":0,\"import\":0,\"share\":0,\"print\":0,\"email\":0,\"if_owner\":0,\"set_user_permissions\":0,\"doctype\":\"DocPerm\"},{\"name\":\"1762ca838f\",\"creation\":\"2013-05-03 10:45:46\",\"modified\":\"2021-01-19 16:50:09.686904\",\"modified_by\":\"works@f9tech.com\",\"owner\":\"Administrator\",\"docstatus\":0,\"parent\":\"Item\",\"parentfield\":\"permissions\",\"parenttype\":\"DocType\",\"idx\":7,\"permlevel\":0,\"role\":\"Accounts User\",\"read\":1,\"write\":0,\"create\":0,\"submit\":0,\"cancel\":0,\"delete\":0,\"amend\":0,\"report\":0,\"export\":0,\"import\":0,\"share\":0,\"print\":0,\"email\":0,\"if_owner\":0,\"set_user_permissions\":0,\"doctype\":\"DocPerm\"},{\"name\":\"16c5beb324\",\"creation\":\"2013-05-03 10:45:46\",\"modified\":\"2021-01-19 16:50:09.686904\",\"modified_by\":\"works@f9tech.com\",\"owner\":\"Administrator\",\"docstatus\":0,\"parent\":\"Item\",\"parentfield\":\"permissions\",\"parenttype\":\"DocType\",\"idx\":8,\"permlevel\":0,\"role\":\"Manufacturing User\",\"read\":1,\"write\":0,\"create\":0,\"submit\":0,\"cancel\":0,\"delete\":0,\"amend\":0,\"report\":0,\"export\":0,\"import\":0,\"share\":0,\"print\":0,\"email\":0,\"if_owner\":0,\"set_user_permissions\":0,\"doctype\":\"DocPerm\"}],\"__last_sync_on\":\"2021-01-20T06:03:37.822Z\"}"
}
Request Error
Traceback (most recent call last):
  File "/home/frappe/frappe-bench/apps/frappe/frappe/app.py", line 60, in application
    response = frappe.api.handle()
  File "/home/frappe/frappe-bench/apps/frappe/frappe/api.py", line 55, in handle
    return frappe.handler.handle()
  File "/home/frappe/frappe-bench/apps/frappe/frappe/handler.py", line 22, in handle
    data = execute_cmd(cmd)
  File "/home/frappe/frappe-bench/apps/frappe/frappe/handler.py", line 61, in execute_cmd
    return frappe.call(method, **frappe.form_dict)
  File "/home/frappe/frappe-bench/apps/frappe/frappe/__init__.py", line 1051, in call
    return fn(*args, **newargs)
  File "/home/frappe/frappe-bench/apps/frappe/frappe/desk/form/save.py", line 22, in savedocs
    doc.save()
  File "/home/frappe/frappe-bench/apps/frappe/frappe/model/document.py", line 273, in save
    return self._save(*args, **kwargs)
  File "/home/frappe/frappe-bench/apps/frappe/frappe/model/document.py", line 326, in _save
    self.run_post_save_methods()
  File "/home/frappe/frappe-bench/apps/frappe/frappe/model/document.py", line 926, in run_post_save_methods
    self.run_method("on_update")
  File "/home/frappe/frappe-bench/apps/frappe/frappe/model/document.py", line 794, in run_method
    out = Document.hook(fn)(self, *args, **kwargs)
  File "/home/frappe/frappe-bench/apps/frappe/frappe/model/document.py", line 1065, in composer
    return composed(self, method, *args, **kwargs)
  File "/home/frappe/frappe-bench/apps/frappe/frappe/model/document.py", line 1048, in runner
    add_to_return_value(self, fn(self, *args, **kwargs))
  File "/home/frappe/frappe-bench/apps/frappe/frappe/model/document.py", line 788, in <lambda>
    fn = lambda self, *args, **kwargs: getattr(self, method)(*args, **kwargs)
  File "/home/frappe/frappe-bench/apps/frappe/frappe/core/doctype/doctype/doctype.py", line 281, in on_update
    raise e
  File "/home/frappe/frappe-bench/apps/frappe/frappe/core/doctype/doctype/doctype.py", line 278, in on_update
    frappe.db.updatedb(self.name, self)
  File "/home/frappe/frappe-bench/apps/frappe/frappe/database/mariadb/database.py", line 291, in updatedb
    db_table.sync()
  File "/home/frappe/frappe-bench/apps/frappe/frappe/database/schema.py", line 37, in sync
    self.alter()
  File "/home/frappe/frappe-bench/apps/frappe/frappe/database/mariadb/schema.py", line 86, in alter
    raise e
  File "/home/frappe/frappe-bench/apps/frappe/frappe/database/mariadb/schema.py", line 75, in alter
    frappe.db.sql(query)
  File "/home/frappe/frappe-bench/apps/frappe/frappe/database/database.py", line 171, in sql
    self._cursor.execute(query)
  File "/home/frappe/frappe-bench/env/lib/python3.6/site-packages/pymysql/cursors.py", line 170, in execute
    result = self._query(query)
  File "/home/frappe/frappe-bench/env/lib/python3.6/site-packages/pymysql/cursors.py", line 328, in _query
    conn.query(q)
  File "/home/frappe/frappe-bench/env/lib/python3.6/site-packages/pymysql/connections.py", line 517, in query
    self._affected_rows = self._read_query_result(unbuffered=unbuffered)
  File "/home/frappe/frappe-bench/env/lib/python3.6/site-packages/pymysql/connections.py", line 732, in _read_query_result
    result.read()
  File "/home/frappe/frappe-bench/env/lib/python3.6/site-packages/pymysql/connections.py", line 1075, in read
    first_packet = self.connection._read_packet()
  File "/home/frappe/frappe-bench/env/lib/python3.6/site-packages/pymysql/connections.py", line 684, in _read_packet
    packet.check_error()
  File "/home/frappe/frappe-bench/env/lib/python3.6/site-packages/pymysql/protocol.py", line 220, in check_error
    err.raise_mysql_exception(self._data)
  File "/home/frappe/frappe-bench/env/lib/python3.6/site-packages/pymysql/err.py", line 109, in raise_mysql_exception
    raise errorclass(errno, errval)
pymysql.err.InternalError: (1118, 'Row size too large. The maximum row size for the used table type, not counting BLOBs, is 65535. This includes storage overhead, check the manual. You have to change some columns to TEXT or BLOBs')
